%YAML 1.1
%TAG !u! tag:unity3d.com,2011:
--- !u!29 &1
SceneSettings:
  m_ObjectHideFlags: 0
  m_PVSData: 
  m_PVSObjectsArray: []
  m_PVSPortalsArray: []
  m_OcclusionBakeSettings:
    smallestOccluder: 5
    smallestHole: 0.25
    backfaceThreshold: 100
--- !u!104 &2
RenderSettings:
  m_ObjectHideFlags: 0
  serializedVersion: 7
  m_Fog: 0
  m_FogColor: {r: 0.5, g: 0.5, b: 0.5, a: 1}
  m_FogMode: 3
  m_FogDensity: 0.01
  m_LinearFogStart: 0
  m_LinearFogEnd: 300
  m_AmbientSkyColor: {r: 0.212, g: 0.227, b: 0.259, a: 1}
  m_AmbientEquatorColor: {r: 0.114, g: 0.125, b: 0.133, a: 1}
  m_AmbientGroundColor: {r: 0.047, g: 0.043, b: 0.035, a: 1}
  m_AmbientIntensity: 1
  m_AmbientMode: 0
  m_SkyboxMaterial: {fileID: 10304, guid: 0000000000000000f000000000000000, type: 0}
  m_HaloStrength: 0.5
  m_FlareStrength: 1
  m_FlareFadeSpeed: 3
  m_HaloTexture: {fileID: 0}
  m_SpotCookie: {fileID: 10001, guid: 0000000000000000e000000000000000, type: 0}
  m_DefaultReflectionMode: 0
  m_DefaultReflectionResolution: 128
  m_ReflectionBounces: 1
  m_ReflectionIntensity: 1
  m_CustomReflection: {fileID: 0}
  m_Sun: {fileID: 0}
  m_IndirectSpecularColor: {r: 0, g: 0, b: 0, a: 1}
--- !u!157 &4
LightmapSettings:
  m_ObjectHideFlags: 0
  serializedVersion: 7
  m_GIWorkflowMode: 0
  m_GISettings:
    serializedVersion: 2
    m_BounceScale: 1
    m_IndirectOutputScale: 1
    m_AlbedoBoost: 1
    m_TemporalCoherenceThreshold: 1
    m_EnvironmentLightingMode: 0
    m_EnableBakedLightmaps: 1
    m_EnableRealtimeLightmaps: 1
  m_LightmapEditorSettings:
    serializedVersion: 4
    m_Resolution: 2
    m_BakeResolution: 40
    m_TextureWidth: 1024
    m_TextureHeight: 1024
    m_AO: 0
    m_AOMaxDistance: 1
    m_CompAOExponent: 0
    m_CompAOExponentDirect: 0
    m_Padding: 2
    m_LightmapParameters: {fileID: 0}
    m_LightmapsBakeMode: 1
    m_TextureCompression: 1
    m_DirectLightInLightProbes: 1
    m_FinalGather: 0
    m_FinalGatherFiltering: 1
    m_FinalGatherRayCount: 1024
    m_ReflectionCompression: 2
  m_LightingDataAsset: {fileID: 0}
  m_RuntimeCPUUsage: 25
--- !u!196 &5
NavMeshSettings:
  serializedVersion: 2
  m_ObjectHideFlags: 0
  m_BuildSettings:
    serializedVersion: 2
    agentRadius: 0.5
    agentHeight: 2
    agentSlope: 45
    agentClimb: 0.4
    ledgeDropHeight: 0
    maxJumpAcrossDistance: 0
    accuratePlacement: 0
    minRegionArea: 2
    cellSize: 0.16666667
    manualCellSize: 0
  m_NavMeshData: {fileID: 0}
--- !u!1 &125490565
GameObject:
  m_ObjectHideFlags: 0
  m_PrefabParentObject: {fileID: 124674, guid: 3aeb4f8df08b0bb49aacbc22c6bb3bd0, type: 2}
  m_PrefabInternal: {fileID: 1659269740}
  serializedVersion: 4
  m_Component:
  - 224: {fileID: 125490566}
  - 222: {fileID: 125490568}
  - 114: {fileID: 125490567}
  m_Layer: 5
  m_Name: Square
  m_TagString: Untagged
  m_Icon: {fileID: 0}
  m_NavMeshLayer: 0
  m_StaticEditorFlags: 0
  m_IsActive: 1
--- !u!224 &125490566
RectTransform:
  m_ObjectHideFlags: 0
  m_PrefabParentObject: {fileID: 22424674, guid: 3aeb4f8df08b0bb49aacbc22c6bb3bd0,
    type: 2}
  m_PrefabInternal: {fileID: 1659269740}
  m_GameObject: {fileID: 125490565}
  m_LocalRotation: {x: 0, y: 0, z: 0, w: 1}
  m_LocalPosition: {x: 0, y: 0, z: 0}
  m_LocalScale: {x: 1, y: 1, z: 1}
  m_LocalEulerAnglesHint: {x: 0, y: 0, z: 0}
  m_Children: []
  m_Father: {fileID: 1889190838}
  m_RootOrder: 10
  m_AnchorMin: {x: 0.5, y: 0.5}
  m_AnchorMax: {x: 0.5, y: 0.5}
  m_AnchoredPosition: {x: 0, y: -210.00008}
  m_SizeDelta: {x: 21, y: 121}
  m_Pivot: {x: 0.5, y: 0.5}
--- !u!114 &125490567
MonoBehaviour:
  m_ObjectHideFlags: 0
  m_PrefabParentObject: {fileID: 11424678, guid: 3aeb4f8df08b0bb49aacbc22c6bb3bd0,
    type: 2}
  m_PrefabInternal: {fileID: 1659269740}
  m_GameObject: {fileID: 125490565}
  m_Enabled: 1
  m_EditorHideFlags: 0
  m_Script: {fileID: -765806418, guid: f5f67c52d1564df4a8936ccd202a3bd8, type: 3}
  m_Name: 
  m_EditorClassIdentifier: 
  m_Material: {fileID: 0}
  m_Color: {r: 0.18039216, g: 0.18039216, b: 0.18039216, a: 1}
  m_RaycastTarget: 1
  m_OnCullStateChanged:
    m_PersistentCalls:
      m_Calls: []
    m_TypeName: UnityEngine.UI.MaskableGraphic+CullStateChangedEvent, UnityEngine.UI,
      Version=1.0.0.0, Culture=neutral, PublicKeyToken=null
  m_Sprite: {fileID: 21300000, guid: 7ed1238760b863f4aafde32ab3a6f28c, type: 3}
  m_Type: 1
  m_PreserveAspect: 0
  m_FillCenter: 1
  m_FillMethod: 4
  m_FillAmount: 1
  m_FillClockwise: 1
  m_FillOrigin: 0
--- !u!222 &125490568
CanvasRenderer:
  m_ObjectHideFlags: 0
  m_PrefabParentObject: {fileID: 22224674, guid: 3aeb4f8df08b0bb49aacbc22c6bb3bd0,
    type: 2}
  m_PrefabInternal: {fileID: 1659269740}
  m_GameObject: {fileID: 125490565}
--- !u!1 &156929553
GameObject:
  m_ObjectHideFlags: 0
  m_PrefabParentObject: {fileID: 124640, guid: 3aeb4f8df08b0bb49aacbc22c6bb3bd0, type: 2}
  m_PrefabInternal: {fileID: 1659269740}
  serializedVersion: 4
  m_Component:
  - 224: {fileID: 156929554}
  - 222: {fileID: 156929556}
  - 114: {fileID: 156929555}
  m_Layer: 5
  m_Name: Square
  m_TagString: Untagged
  m_Icon: {fileID: 0}
  m_NavMeshLayer: 0
  m_StaticEditorFlags: 0
  m_IsActive: 1
--- !u!224 &156929554
RectTransform:
  m_ObjectHideFlags: 0
  m_PrefabParentObject: {fileID: 22424640, guid: 3aeb4f8df08b0bb49aacbc22c6bb3bd0,
    type: 2}
  m_PrefabInternal: {fileID: 1659269740}
  m_GameObject: {fileID: 156929553}
  m_LocalRotation: {x: 0, y: 0, z: 0.38268292, w: 0.92387974}
  m_LocalPosition: {x: 0, y: 0, z: 0}
  m_LocalScale: {x: 1, y: 1, z: 1}
  m_LocalEulerAnglesHint: {x: 0, y: 0, z: 0}
  m_Children: []
  m_Father: {fileID: 1889190838}
  m_RootOrder: 4
  m_AnchorMin: {x: 0.5, y: 0.5}
  m_AnchorMax: {x: 0.5, y: 0.5}
  m_AnchoredPosition: {x: 48.461613, y: 54.769333}
  m_SizeDelta: {x: 122.8, y: 18.9}
  m_Pivot: {x: 0.5, y: 0.5}
--- !u!114 &156929555
MonoBehaviour:
  m_ObjectHideFlags: 0
  m_PrefabParentObject: {fileID: 11424642, guid: 3aeb4f8df08b0bb49aacbc22c6bb3bd0,
    type: 2}
  m_PrefabInternal: {fileID: 1659269740}
  m_GameObject: {fileID: 156929553}
  m_Enabled: 1
  m_EditorHideFlags: 0
  m_Script: {fileID: -765806418, guid: f5f67c52d1564df4a8936ccd202a3bd8, type: 3}
  m_Name: 
  m_EditorClassIdentifier: 
  m_Material: {fileID: 0}
  m_Color: {r: 0.18039216, g: 0.18039216, b: 0.18039216, a: 1}
  m_RaycastTarget: 1
  m_OnCullStateChanged:
    m_PersistentCalls:
      m_Calls: []
    m_TypeName: UnityEngine.UI.MaskableGraphic+CullStateChangedEvent, UnityEngine.UI,
      Version=1.0.0.0, Culture=neutral, PublicKeyToken=null
  m_Sprite: {fileID: 21300000, guid: 7ed1238760b863f4aafde32ab3a6f28c, type: 3}
  m_Type: 1
  m_PreserveAspect: 0
  m_FillCenter: 1
  m_FillMethod: 4
  m_FillAmount: 1
  m_FillClockwise: 1
  m_FillOrigin: 0
--- !u!222 &156929556
CanvasRenderer:
  m_ObjectHideFlags: 0
  m_PrefabParentObject: {fileID: 22224640, guid: 3aeb4f8df08b0bb49aacbc22c6bb3bd0,
    type: 2}
  m_PrefabInternal: {fileID: 1659269740}
  m_GameObject: {fileID: 156929553}
--- !u!1 &544169952
GameObject:
  m_ObjectHideFlags: 0
  m_PrefabParentObject: {fileID: 124670, guid: 3aeb4f8df08b0bb49aacbc22c6bb3bd0, type: 2}
  m_PrefabInternal: {fileID: 1659269740}
  serializedVersion: 4
  m_Component:
  - 224: {fileID: 544169953}
  - 222: {fileID: 544169955}
  - 114: {fileID: 544169954}
  m_Layer: 5
  m_Name: Circle
  m_TagString: Untagged
  m_Icon: {fileID: 0}
  m_NavMeshLayer: 0
  m_StaticEditorFlags: 0
  m_IsActive: 1
--- !u!224 &544169953
RectTransform:
  m_ObjectHideFlags: 0
  m_PrefabParentObject: {fileID: 22424670, guid: 3aeb4f8df08b0bb49aacbc22c6bb3bd0,
    type: 2}
  m_PrefabInternal: {fileID: 1659269740}
  m_GameObject: {fileID: 544169952}
  m_LocalRotation: {x: 0, y: 0, z: 0, w: 1}
  m_LocalPosition: {x: 0, y: 0, z: 0}
  m_LocalScale: {x: 1, y: 1, z: 1}
  m_LocalEulerAnglesHint: {x: 0, y: 0, z: 0}
  m_Children: []
  m_Father: {fileID: 684546491}
  m_RootOrder: 2
  m_AnchorMin: {x: 0.5, y: 0.5}
  m_AnchorMax: {x: 0.5, y: 0.5}
  m_AnchoredPosition: {x: 0, y: 0}
  m_SizeDelta: {x: 471, y: 471}
  m_Pivot: {x: 0.5, y: 0.5}
--- !u!114 &544169954
MonoBehaviour:
  m_ObjectHideFlags: 0
  m_PrefabParentObject: {fileID: 11424674, guid: 3aeb4f8df08b0bb49aacbc22c6bb3bd0,
    type: 2}
  m_PrefabInternal: {fileID: 1659269740}
  m_GameObject: {fileID: 544169952}
  m_Enabled: 1
  m_EditorHideFlags: 0
  m_Script: {fileID: -765806418, guid: f5f67c52d1564df4a8936ccd202a3bd8, type: 3}
  m_Name: 
  m_EditorClassIdentifier: 
  m_Material: {fileID: 0}
  m_Color: {r: 0.99607843, g: 0.30588236, b: 0.30588236, a: 1}
  m_RaycastTarget: 1
  m_OnCullStateChanged:
    m_PersistentCalls:
      m_Calls: []
    m_TypeName: UnityEngine.UI.MaskableGraphic+CullStateChangedEvent, UnityEngine.UI,
      Version=1.0.0.0, Culture=neutral, PublicKeyToken=null
  m_Sprite: {fileID: 21300000, guid: 670e88da7636bb74c9486ebfd1b9b50a, type: 3}
  m_Type: 0
  m_PreserveAspect: 0
  m_FillCenter: 1
  m_FillMethod: 4
  m_FillAmount: 1
  m_FillClockwise: 1
  m_FillOrigin: 0
--- !u!222 &544169955
CanvasRenderer:
  m_ObjectHideFlags: 0
  m_PrefabParentObject: {fileID: 22224670, guid: 3aeb4f8df08b0bb49aacbc22c6bb3bd0,
    type: 2}
  m_PrefabInternal: {fileID: 1659269740}
  m_GameObject: {fileID: 544169952}
--- !u!1 &570290513
GameObject:
  m_ObjectHideFlags: 0
  m_PrefabParentObject: {fileID: 124642, guid: 3aeb4f8df08b0bb49aacbc22c6bb3bd0, type: 2}
  m_PrefabInternal: {fileID: 1659269740}
  serializedVersion: 4
  m_Component:
  - 224: {fileID: 570290514}
  - 222: {fileID: 570290516}
  - 114: {fileID: 570290515}
  m_Layer: 5
  m_Name: Square
  m_TagString: Untagged
  m_Icon: {fileID: 0}
  m_NavMeshLayer: 0
  m_StaticEditorFlags: 0
  m_IsActive: 1
--- !u!224 &570290514
RectTransform:
  m_ObjectHideFlags: 0
  m_PrefabParentObject: {fileID: 22424642, guid: 3aeb4f8df08b0bb49aacbc22c6bb3bd0,
    type: 2}
  m_PrefabInternal: {fileID: 1659269740}
  m_GameObject: {fileID: 570290513}
  m_LocalRotation: {x: 0, y: 0, z: 0, w: 1}
  m_LocalPosition: {x: 0, y: 0, z: 0}
  m_LocalScale: {x: 1, y: 1, z: 1}
  m_LocalEulerAnglesHint: {x: 0, y: 0, z: 0}
  m_Children: []
  m_Father: {fileID: 1889190838}
  m_RootOrder: 5
  m_AnchorMin: {x: 0.5, y: 0.5}
  m_AnchorMax: {x: 0.5, y: 0.5}
  m_AnchoredPosition: {x: 226.38477, y: 0}
  m_SizeDelta: {x: 93.423, y: 18.9}
  m_Pivot: {x: 0.5, y: 0.5}
--- !u!114 &570290515
MonoBehaviour:
  m_ObjectHideFlags: 0
  m_PrefabParentObject: {fileID: 11424644, guid: 3aeb4f8df08b0bb49aacbc22c6bb3bd0,
    type: 2}
  m_PrefabInternal: {fileID: 1659269740}
  m_GameObject: {fileID: 570290513}
  m_Enabled: 1
  m_EditorHideFlags: 0
  m_Script: {fileID: -765806418, guid: f5f67c52d1564df4a8936ccd202a3bd8, type: 3}
  m_Name: 
  m_EditorClassIdentifier: 
  m_Material: {fileID: 0}
  m_Color: {r: 0.18039216, g: 0.18039216, b: 0.18039216, a: 1}
  m_RaycastTarget: 1
  m_OnCullStateChanged:
    m_PersistentCalls:
      m_Calls: []
    m_TypeName: UnityEngine.UI.MaskableGraphic+CullStateChangedEvent, UnityEngine.UI,
      Version=1.0.0.0, Culture=neutral, PublicKeyToken=null
  m_Sprite: {fileID: 21300000, guid: 7ed1238760b863f4aafde32ab3a6f28c, type: 3}
  m_Type: 1
  m_PreserveAspect: 0
  m_FillCenter: 1
  m_FillMethod: 4
  m_FillAmount: 1
  m_FillClockwise: 1
  m_FillOrigin: 0
--- !u!222 &570290516
CanvasRenderer:
  m_ObjectHideFlags: 0
  m_PrefabParentObject: {fileID: 22224642, guid: 3aeb4f8df08b0bb49aacbc22c6bb3bd0,
    type: 2}
  m_PrefabInternal: {fileID: 1659269740}
  m_GameObject: {fileID: 570290513}
--- !u!1 &678183556
GameObject:
  m_ObjectHideFlags: 0
  m_PrefabParentObject: {fileID: 124688, guid: 3aeb4f8df08b0bb49aacbc22c6bb3bd0, type: 2}
  m_PrefabInternal: {fileID: 1659269740}
  serializedVersion: 4
  m_Component:
  - 224: {fileID: 678183557}
  - 222: {fileID: 678183559}
  - 114: {fileID: 678183558}
  m_Layer: 5
  m_Name: Square
  m_TagString: Untagged
  m_Icon: {fileID: 0}
  m_NavMeshLayer: 0
  m_StaticEditorFlags: 0
  m_IsActive: 1
--- !u!224 &678183557
RectTransform:
  m_ObjectHideFlags: 0
  m_PrefabParentObject: {fileID: 22424688, guid: 3aeb4f8df08b0bb49aacbc22c6bb3bd0,
    type: 2}
  m_PrefabInternal: {fileID: 1659269740}
  m_GameObject: {fileID: 678183556}
  m_LocalRotation: {x: 0, y: 0, z: -0.3826835, w: 0.92387956}
  m_LocalPosition: {x: 0, y: 0, z: 0}
  m_LocalScale: {x: 1, y: 1, z: 1}
  m_LocalEulerAnglesHint: {x: 0, y: 0, z: 0}
  m_Children: []
  m_Father: {fileID: 1889190838}
  m_RootOrder: 6
  m_AnchorMin: {x: 0.5, y: 0.5}
  m_AnchorMax: {x: 0.5, y: 0.5}
  m_AnchoredPosition: {x: -35.076973, y: 28.769066}
  m_SizeDelta: {x: 95.1, y: 18.9}
  m_Pivot: {x: 0.5, y: 0.5}
--- !u!114 &678183558
MonoBehaviour:
  m_ObjectHideFlags: 0
  m_PrefabParentObject: {fileID: 11424694, guid: 3aeb4f8df08b0bb49aacbc22c6bb3bd0,
    type: 2}
  m_PrefabInternal: {fileID: 1659269740}
  m_GameObject: {fileID: 678183556}
  m_Enabled: 1
  m_EditorHideFlags: 0
  m_Script: {fileID: -765806418, guid: f5f67c52d1564df4a8936ccd202a3bd8, type: 3}
  m_Name: 
  m_EditorClassIdentifier: 
  m_Material: {fileID: 0}
  m_Color: {r: 0.18039216, g: 0.18039216, b: 0.18039216, a: 1}
  m_RaycastTarget: 1
  m_OnCullStateChanged:
    m_PersistentCalls:
      m_Calls: []
    m_TypeName: UnityEngine.UI.MaskableGraphic+CullStateChangedEvent, UnityEngine.UI,
      Version=1.0.0.0, Culture=neutral, PublicKeyToken=null
  m_Sprite: {fileID: 21300000, guid: 7ed1238760b863f4aafde32ab3a6f28c, type: 3}
  m_Type: 1
  m_PreserveAspect: 0
  m_FillCenter: 1
  m_FillMethod: 4
  m_FillAmount: 1
  m_FillClockwise: 1
  m_FillOrigin: 0
--- !u!222 &678183559
CanvasRenderer:
  m_ObjectHideFlags: 0
  m_PrefabParentObject: {fileID: 22224686, guid: 3aeb4f8df08b0bb49aacbc22c6bb3bd0,
    type: 2}
  m_PrefabInternal: {fileID: 1659269740}
  m_GameObject: {fileID: 678183556}
--- !u!1 &678601239
GameObject:
  m_ObjectHideFlags: 0
  m_PrefabParentObject: {fileID: 124660, guid: 3aeb4f8df08b0bb49aacbc22c6bb3bd0, type: 2}
  m_PrefabInternal: {fileID: 1659269740}
  serializedVersion: 4
  m_Component:
  - 224: {fileID: 678601240}
  - 222: {fileID: 678601242}
  - 114: {fileID: 678601241}
  m_Layer: 5
  m_Name: AppTitle
  m_TagString: Untagged
  m_Icon: {fileID: 0}
  m_NavMeshLayer: 0
  m_StaticEditorFlags: 0
  m_IsActive: 1
--- !u!224 &678601240
RectTransform:
  m_ObjectHideFlags: 0
  m_PrefabParentObject: {fileID: 22424660, guid: 3aeb4f8df08b0bb49aacbc22c6bb3bd0,
    type: 2}
  m_PrefabInternal: {fileID: 1659269740}
  m_GameObject: {fileID: 678601239}
  m_LocalRotation: {x: 0, y: 0, z: 0, w: 1}
  m_LocalPosition: {x: 0, y: 0, z: 0}
  m_LocalScale: {x: 1, y: 1, z: 1}
  m_LocalEulerAnglesHint: {x: 0, y: 0, z: 0}
  m_Children:
  - {fileID: 1789929075}
  m_Father: {fileID: 983388684}
  m_RootOrder: 0
  m_AnchorMin: {x: 0.5, y: 0.5}
  m_AnchorMax: {x: 0.5, y: 0.5}
  m_AnchoredPosition: {x: 27.495, y: 633}
  m_SizeDelta: {x: 695, y: 109}
  m_Pivot: {x: 0.5, y: 0.5}
--- !u!114 &678601241
MonoBehaviour:
  m_ObjectHideFlags: 0
  m_PrefabParentObject: {fileID: 11424662, guid: 3aeb4f8df08b0bb49aacbc22c6bb3bd0,
    type: 2}
  m_PrefabInternal: {fileID: 1659269740}
  m_GameObject: {fileID: 678601239}
  m_Enabled: 1
  m_EditorHideFlags: 0
  m_Script: {fileID: 708705254, guid: f5f67c52d1564df4a8936ccd202a3bd8, type: 3}
  m_Name: 
  m_EditorClassIdentifier: 
  m_Material: {fileID: 0}
  m_Color: {r: 0.85490197, g: 0.85490197, b: 0.85490197, a: 1}
  m_RaycastTarget: 1
  m_OnCullStateChanged:
    m_PersistentCalls:
      m_Calls: []
    m_TypeName: UnityEngine.UI.MaskableGraphic+CullStateChangedEvent, UnityEngine.UI,
      Version=1.0.0.0, Culture=neutral, PublicKeyToken=null
  m_FontData:
    m_Font: {fileID: 12800000, guid: 218956a5c2a6e42d6a60afccf80b002b, type: 3}
    m_FontSize: 102
    m_FontStyle: 0
    m_BestFit: 0
    m_MinSize: 10
    m_MaxSize: 102
    m_Alignment: 0
    m_AlignByGeometry: 0
    m_RichText: 1
    m_HorizontalOverflow: 0
    m_VerticalOverflow: 1
    m_LineSpacing: 1
  m_Text: GAME
--- !u!222 &678601242
CanvasRenderer:
  m_ObjectHideFlags: 0
  m_PrefabParentObject: {fileID: 22224660, guid: 3aeb4f8df08b0bb49aacbc22c6bb3bd0,
    type: 2}
  m_PrefabInternal: {fileID: 1659269740}
  m_GameObject: {fileID: 678601239}
--- !u!1 &684546490
GameObject:
  m_ObjectHideFlags: 0
  m_PrefabParentObject: {fileID: 124654, guid: 3aeb4f8df08b0bb49aacbc22c6bb3bd0, type: 2}
  m_PrefabInternal: {fileID: 1659269740}
  serializedVersion: 4
  m_Component:
  - 224: {fileID: 684546491}
  - 222: {fileID: 684546493}
  - 114: {fileID: 684546492}
  m_Layer: 5
  m_Name: CircleMap
  m_TagString: Untagged
  m_Icon: {fileID: 0}
  m_NavMeshLayer: 0
  m_StaticEditorFlags: 0
  m_IsActive: 1
--- !u!224 &684546491
RectTransform:
  m_ObjectHideFlags: 0
  m_PrefabParentObject: {fileID: 22424654, guid: 3aeb4f8df08b0bb49aacbc22c6bb3bd0,
    type: 2}
  m_PrefabInternal: {fileID: 1659269740}
  m_GameObject: {fileID: 684546490}
  m_LocalRotation: {x: 0, y: 0, z: 0, w: 1}
  m_LocalPosition: {x: 0, y: 0, z: 0}
  m_LocalScale: {x: 1.3, y: 1.3, z: 1}
  m_LocalEulerAnglesHint: {x: 0, y: 0, z: 0}
  m_Children:
  - {fileID: 1889190838}
  - {fileID: 1061681257}
  - {fileID: 544169953}
  m_Father: {fileID: 1284625215}
  m_RootOrder: 1
  m_AnchorMin: {x: 0.5, y: 0.5}
  m_AnchorMax: {x: 0.5, y: 0.5}
  m_AnchoredPosition: {x: 0, y: 0}
  m_SizeDelta: {x: 441, y: 441}
  m_Pivot: {x: 0.5, y: 0.5}
--- !u!114 &684546492
MonoBehaviour:
  m_ObjectHideFlags: 0
  m_PrefabParentObject: {fileID: 11424656, guid: 3aeb4f8df08b0bb49aacbc22c6bb3bd0,
    type: 2}
  m_PrefabInternal: {fileID: 1659269740}
  m_GameObject: {fileID: 684546490}
  m_Enabled: 1
  m_EditorHideFlags: 0
  m_Script: {fileID: -765806418, guid: f5f67c52d1564df4a8936ccd202a3bd8, type: 3}
  m_Name: 
  m_EditorClassIdentifier: 
  m_Material: {fileID: 0}
  m_Color: {r: 0.9490196, g: 0.92941177, b: 0.8784314, a: 1}
  m_RaycastTarget: 1
  m_OnCullStateChanged:
    m_PersistentCalls:
      m_Calls: []
    m_TypeName: UnityEngine.UI.MaskableGraphic+CullStateChangedEvent, UnityEngine.UI,
      Version=1.0.0.0, Culture=neutral, PublicKeyToken=null
  m_Sprite: {fileID: 21300000, guid: 86c50c842fc5e5548b6a6e876c645ee0, type: 3}
  m_Type: 0
  m_PreserveAspect: 0
  m_FillCenter: 1
  m_FillMethod: 4
  m_FillAmount: 1
  m_FillClockwise: 1
  m_FillOrigin: 0
--- !u!222 &684546493
CanvasRenderer:
  m_ObjectHideFlags: 0
  m_PrefabParentObject: {fileID: 22224654, guid: 3aeb4f8df08b0bb49aacbc22c6bb3bd0,
    type: 2}
  m_PrefabInternal: {fileID: 1659269740}
  m_GameObject: {fileID: 684546490}
--- !u!1 &732249237
GameObject:
  m_ObjectHideFlags: 0
  m_PrefabParentObject: {fileID: 124644, guid: 3aeb4f8df08b0bb49aacbc22c6bb3bd0, type: 2}
  m_PrefabInternal: {fileID: 1659269740}
  serializedVersion: 4
  m_Component:
  - 224: {fileID: 732249238}
  - 222: {fileID: 732249240}
  - 114: {fileID: 732249239}
  m_Layer: 5
  m_Name: Square
  m_TagString: Untagged
  m_Icon: {fileID: 0}
  m_NavMeshLayer: 0
  m_StaticEditorFlags: 0
  m_IsActive: 1
--- !u!224 &732249238
RectTransform:
  m_ObjectHideFlags: 0
  m_PrefabParentObject: {fileID: 22424644, guid: 3aeb4f8df08b0bb49aacbc22c6bb3bd0,
    type: 2}
  m_PrefabInternal: {fileID: 1659269740}
  m_GameObject: {fileID: 732249237}
  m_LocalRotation: {x: 0, y: 0, z: 0.38268292, w: 0.92387974}
  m_LocalPosition: {x: 0, y: 0, z: 0}
  m_LocalScale: {x: 1, y: 1, z: 1}
  m_LocalEulerAnglesHint: {x: 0, y: 0, z: 0}
  m_Children: []
  m_Father: {fileID: 1889190838}
  m_RootOrder: 3
  m_AnchorMin: {x: 0.5, y: 0.5}
  m_AnchorMax: {x: 0.5, y: 0.5}
  m_AnchoredPosition: {x: -31.538424, y: -28.461464}
  m_SizeDelta: {x: 94, y: 23}
  m_Pivot: {x: 0.5, y: 0.5}
--- !u!114 &732249239
MonoBehaviour:
  m_ObjectHideFlags: 0
  m_PrefabParentObject: {fileID: 11424646, guid: 3aeb4f8df08b0bb49aacbc22c6bb3bd0,
    type: 2}
  m_PrefabInternal: {fileID: 1659269740}
  m_GameObject: {fileID: 732249237}
  m_Enabled: 1
  m_EditorHideFlags: 0
  m_Script: {fileID: -765806418, guid: f5f67c52d1564df4a8936ccd202a3bd8, type: 3}
  m_Name: 
  m_EditorClassIdentifier: 
  m_Material: {fileID: 0}
  m_Color: {r: 0.18039216, g: 0.18039216, b: 0.18039216, a: 1}
  m_RaycastTarget: 1
  m_OnCullStateChanged:
    m_PersistentCalls:
      m_Calls: []
    m_TypeName: UnityEngine.UI.MaskableGraphic+CullStateChangedEvent, UnityEngine.UI,
      Version=1.0.0.0, Culture=neutral, PublicKeyToken=null
  m_Sprite: {fileID: 21300000, guid: 7ed1238760b863f4aafde32ab3a6f28c, type: 3}
  m_Type: 1
  m_PreserveAspect: 0
  m_FillCenter: 1
  m_FillMethod: 4
  m_FillAmount: 1
  m_FillClockwise: 1
  m_FillOrigin: 0
--- !u!222 &732249240
CanvasRenderer:
  m_ObjectHideFlags: 0
  m_PrefabParentObject: {fileID: 22224644, guid: 3aeb4f8df08b0bb49aacbc22c6bb3bd0,
    type: 2}
  m_PrefabInternal: {fileID: 1659269740}
  m_GameObject: {fileID: 732249237}
--- !u!1 &791552285
GameObject:
  m_ObjectHideFlags: 0
  m_PrefabParentObject: {fileID: 124666, guid: 3aeb4f8df08b0bb49aacbc22c6bb3bd0, type: 2}
  m_PrefabInternal: {fileID: 1659269740}
  serializedVersion: 4
  m_Component:
  - 224: {fileID: 791552286}
  - 222: {fileID: 791552288}
  - 114: {fileID: 791552287}
  m_Layer: 5
  m_Name: Square
  m_TagString: Untagged
  m_Icon: {fileID: 0}
  m_NavMeshLayer: 0
  m_StaticEditorFlags: 0
  m_IsActive: 1
--- !u!224 &791552286
RectTransform:
  m_ObjectHideFlags: 0
  m_PrefabParentObject: {fileID: 22424666, guid: 3aeb4f8df08b0bb49aacbc22c6bb3bd0,
    type: 2}
  m_PrefabInternal: {fileID: 1659269740}
  m_GameObject: {fileID: 791552285}
  m_LocalRotation: {x: 0, y: 0, z: 0, w: 1}
  m_LocalPosition: {x: 0, y: 0, z: 0}
  m_LocalScale: {x: 1, y: 1, z: 1}
  m_LocalEulerAnglesHint: {x: 0, y: 0, z: 0}
  m_Children: []
  m_Father: {fileID: 1889190838}
  m_RootOrder: 1
  m_AnchorMin: {x: 0.5, y: 0.5}
  m_AnchorMax: {x: 0.5, y: 0.5}
  m_AnchoredPosition: {x: 0, y: 213.92332}
  m_SizeDelta: {x: 21.2, y: 125.6}
  m_Pivot: {x: 0.5, y: 0.5}
--- !u!114 &791552287
MonoBehaviour:
  m_ObjectHideFlags: 0
  m_PrefabParentObject: {fileID: 11424668, guid: 3aeb4f8df08b0bb49aacbc22c6bb3bd0,
    type: 2}
  m_PrefabInternal: {fileID: 1659269740}
  m_GameObject: {fileID: 791552285}
  m_Enabled: 1
  m_EditorHideFlags: 0
  m_Script: {fileID: -765806418, guid: f5f67c52d1564df4a8936ccd202a3bd8, type: 3}
  m_Name: 
  m_EditorClassIdentifier: 
  m_Material: {fileID: 0}
  m_Color: {r: 0.18039216, g: 0.18039216, b: 0.18039216, a: 1}
  m_RaycastTarget: 1
  m_OnCullStateChanged:
    m_PersistentCalls:
      m_Calls: []
    m_TypeName: UnityEngine.UI.MaskableGraphic+CullStateChangedEvent, UnityEngine.UI,
      Version=1.0.0.0, Culture=neutral, PublicKeyToken=null
  m_Sprite: {fileID: 21300000, guid: 7ed1238760b863f4aafde32ab3a6f28c, type: 3}
  m_Type: 1
  m_PreserveAspect: 0
  m_FillCenter: 1
  m_FillMethod: 4
  m_FillAmount: 1
  m_FillClockwise: 1
  m_FillOrigin: 0
--- !u!222 &791552288
CanvasRenderer:
  m_ObjectHideFlags: 0
  m_PrefabParentObject: {fileID: 22224666, guid: 3aeb4f8df08b0bb49aacbc22c6bb3bd0,
    type: 2}
  m_PrefabInternal: {fileID: 1659269740}
  m_GameObject: {fileID: 791552285}
--- !u!1 &983388680
GameObject:
  m_ObjectHideFlags: 0
  m_PrefabParentObject: {fileID: 124686, guid: 3aeb4f8df08b0bb49aacbc22c6bb3bd0, type: 2}
  m_PrefabInternal: {fileID: 1659269740}
  serializedVersion: 4
  m_Component:
  - 224: {fileID: 983388684}
  - 223: {fileID: 983388683}
  - 114: {fileID: 983388682}
  - 114: {fileID: 983388681}
  m_Layer: 5
  m_Name: GameExample_22
  m_TagString: Untagged
  m_Icon: {fileID: 0}
  m_NavMeshLayer: 0
  m_StaticEditorFlags: 0
  m_IsActive: 1
--- !u!114 &983388681
MonoBehaviour:
  m_ObjectHideFlags: 0
  m_PrefabParentObject: {fileID: 11424690, guid: 3aeb4f8df08b0bb49aacbc22c6bb3bd0,
    type: 2}
  m_PrefabInternal: {fileID: 1659269740}
  m_GameObject: {fileID: 983388680}
  m_Enabled: 1
  m_EditorHideFlags: 0
  m_Script: {fileID: 1301386320, guid: f5f67c52d1564df4a8936ccd202a3bd8, type: 3}
  m_Name: 
  m_EditorClassIdentifier: 
  m_IgnoreReversedGraphics: 1
  m_BlockingObjects: 0
  m_BlockingMask:
    serializedVersion: 2
    m_Bits: 4294967295
--- !u!114 &983388682
MonoBehaviour:
  m_ObjectHideFlags: 0
  m_PrefabParentObject: {fileID: 11424692, guid: 3aeb4f8df08b0bb49aacbc22c6bb3bd0,
    type: 2}
  m_PrefabInternal: {fileID: 1659269740}
  m_GameObject: {fileID: 983388680}
  m_Enabled: 1
  m_EditorHideFlags: 0
  m_Script: {fileID: 1980459831, guid: f5f67c52d1564df4a8936ccd202a3bd8, type: 3}
  m_Name: 
  m_EditorClassIdentifier: 
  m_UiScaleMode: 1
  m_ReferencePixelsPerUnit: 100
  m_ScaleFactor: 1
  m_ReferenceResolution: {x: 640, y: 1136}
  m_ScreenMatchMode: 0
  m_MatchWidthOrHeight: 1
  m_PhysicalUnit: 3
  m_FallbackScreenDPI: 96
  m_DefaultSpriteDPI: 96
  m_DynamicPixelsPerUnit: 1
--- !u!223 &983388683
Canvas:
  m_ObjectHideFlags: 0
  m_PrefabParentObject: {fileID: 22324640, guid: 3aeb4f8df08b0bb49aacbc22c6bb3bd0,
    type: 2}
  m_PrefabInternal: {fileID: 1659269740}
  m_GameObject: {fileID: 983388680}
  m_Enabled: 1
  serializedVersion: 2
  m_RenderMode: 0
  m_Camera: {fileID: 0}
  m_PlaneDistance: 100
  m_PixelPerfect: 1
  m_ReceivesEvents: 1
  m_OverrideSorting: 0
  m_OverridePixelPerfect: 0
  m_SortingBucketNormalizedSize: 0
  m_SortingLayerID: 0
  m_SortingOrder: 0
  m_TargetDisplay: 0
--- !u!224 &983388684
RectTransform:
  m_ObjectHideFlags: 0
  m_PrefabParentObject: {fileID: 22424686, guid: 3aeb4f8df08b0bb49aacbc22c6bb3bd0,
    type: 2}
  m_PrefabInternal: {fileID: 1659269740}
  m_GameObject: {fileID: 983388680}
  m_LocalRotation: {x: 0, y: 0, z: 0, w: 1}
  m_LocalPosition: {x: 0, y: 0, z: 0}
  m_LocalScale: {x: 0, y: 0, z: 0}
  m_LocalEulerAnglesHint: {x: 0, y: 0, z: 0}
  m_Children:
  - {fileID: 678601240}
  - {fileID: 1284625215}
  m_Father: {fileID: 0}
  m_RootOrder: 0
  m_AnchorMin: {x: 0, y: 0}
  m_AnchorMax: {x: 0, y: 0}
  m_AnchoredPosition: {x: 0, y: 0}
  m_SizeDelta: {x: 0, y: 0}
  m_Pivot: {x: 0, y: 0}
--- !u!1 &1061681256
GameObject:
  m_ObjectHideFlags: 0
  m_PrefabParentObject: {fileID: 124676, guid: 3aeb4f8df08b0bb49aacbc22c6bb3bd0, type: 2}
  m_PrefabInternal: {fileID: 1659269740}
  serializedVersion: 4
  m_Component:
  - 224: {fileID: 1061681257}
  - 222: {fileID: 1061681259}
  - 114: {fileID: 1061681258}
  m_Layer: 5
  m_Name: Player
  m_TagString: Untagged
  m_Icon: {fileID: 0}
  m_NavMeshLayer: 0
  m_StaticEditorFlags: 0
  m_IsActive: 1
--- !u!224 &1061681257
RectTransform:
  m_ObjectHideFlags: 0
  m_PrefabParentObject: {fileID: 22424676, guid: 3aeb4f8df08b0bb49aacbc22c6bb3bd0,
    type: 2}
  m_PrefabInternal: {fileID: 1659269740}
  m_GameObject: {fileID: 1061681256}
  m_LocalRotation: {x: 0, y: 0, z: 0.2010298, w: -0.9795852}
  m_LocalPosition: {x: 0, y: 0, z: 0}
  m_LocalScale: {x: 1, y: 1, z: 1}
  m_LocalEulerAnglesHint: {x: 0, y: 0, z: 0}
  m_Children:
  - {fileID: 1191623713}
  - {fileID: 1882342648}
  m_Father: {fileID: 684546491}
  m_RootOrder: 1
  m_AnchorMin: {x: 0.5, y: 0.5}
  m_AnchorMax: {x: 0.5, y: 0.5}
  m_AnchoredPosition: {x: -108.3077, y: -66.4616}
  m_SizeDelta: {x: 30, y: 30}
  m_Pivot: {x: 0.5, y: 0.5}
--- !u!114 &1061681258
MonoBehaviour:
  m_ObjectHideFlags: 0
  m_PrefabParentObject: {fileID: 11424680, guid: 3aeb4f8df08b0bb49aacbc22c6bb3bd0,
    type: 2}
  m_PrefabInternal: {fileID: 1659269740}
  m_GameObject: {fileID: 1061681256}
  m_Enabled: 1
  m_EditorHideFlags: 0
  m_Script: {fileID: -765806418, guid: f5f67c52d1564df4a8936ccd202a3bd8, type: 3}
  m_Name: 
  m_EditorClassIdentifier: 
  m_Material: {fileID: 0}
  m_Color: {r: 0.99607843, g: 0.30588236, b: 0.30588236, a: 1}
  m_RaycastTarget: 1
  m_OnCullStateChanged:
    m_PersistentCalls:
      m_Calls: []
    m_TypeName: UnityEngine.UI.MaskableGraphic+CullStateChangedEvent, UnityEngine.UI,
      Version=1.0.0.0, Culture=neutral, PublicKeyToken=null
  m_Sprite: {fileID: 21300000, guid: 7ed1238760b863f4aafde32ab3a6f28c, type: 3}
  m_Type: 1
  m_PreserveAspect: 0
  m_FillCenter: 1
  m_FillMethod: 4
  m_FillAmount: 1
  m_FillClockwise: 1
  m_FillOrigin: 0
--- !u!222 &1061681259
CanvasRenderer:
  m_ObjectHideFlags: 0
  m_PrefabParentObject: {fileID: 22224676, guid: 3aeb4f8df08b0bb49aacbc22c6bb3bd0,
    type: 2}
  m_PrefabInternal: {fileID: 1659269740}
  m_GameObject: {fileID: 1061681256}
--- !u!1 &1160664484
GameObject:
  m_ObjectHideFlags: 0
  m_PrefabParentObject: {fileID: 124648, guid: 3aeb4f8df08b0bb49aacbc22c6bb3bd0, type: 2}
  m_PrefabInternal: {fileID: 1659269740}
  serializedVersion: 4
  m_Component:
  - 224: {fileID: 1160664485}
  - 222: {fileID: 1160664487}
  - 114: {fileID: 1160664486}
  m_Layer: 5
  m_Name: Text
  m_TagString: Untagged
  m_Icon: {fileID: 0}
  m_NavMeshLayer: 0
  m_StaticEditorFlags: 0
  m_IsActive: 1
--- !u!224 &1160664485
RectTransform:
  m_ObjectHideFlags: 0
  m_PrefabParentObject: {fileID: 22424648, guid: 3aeb4f8df08b0bb49aacbc22c6bb3bd0,
    type: 2}
  m_PrefabInternal: {fileID: 1659269740}
  m_GameObject: {fileID: 1160664484}
  m_LocalRotation: {x: 0, y: 0, z: 0, w: 1}
  m_LocalPosition: {x: 0, y: 0, z: 0}
  m_LocalScale: {x: 1, y: 1, z: 1}
  m_LocalEulerAnglesHint: {x: 0, y: 0, z: 0}
  m_Children: []
  m_Father: {fileID: 1691585870}
  m_RootOrder: 0
  m_AnchorMin: {x: 0.5, y: 0.5}
  m_AnchorMax: {x: 0.5, y: 0.5}
  m_AnchoredPosition: {x: 0, y: 0}
  m_SizeDelta: {x: 193, y: 64}
  m_Pivot: {x: 0.5, y: 0.5}
--- !u!114 &1160664486
MonoBehaviour:
  m_ObjectHideFlags: 0
  m_PrefabParentObject: {fileID: 11424650, guid: 3aeb4f8df08b0bb49aacbc22c6bb3bd0,
    type: 2}
  m_PrefabInternal: {fileID: 1659269740}
  m_GameObject: {fileID: 1160664484}
  m_Enabled: 1
  m_EditorHideFlags: 0
  m_Script: {fileID: 708705254, guid: f5f67c52d1564df4a8936ccd202a3bd8, type: 3}
  m_Name: 
  m_EditorClassIdentifier: 
  m_Material: {fileID: 0}
  m_Color: {r: 0.94509804, g: 0.9254902, b: 0.8745098, a: 1}
  m_RaycastTarget: 1
  m_OnCullStateChanged:
    m_PersistentCalls:
      m_Calls: []
    m_TypeName: UnityEngine.UI.MaskableGraphic+CullStateChangedEvent, UnityEngine.UI,
      Version=1.0.0.0, Culture=neutral, PublicKeyToken=null
  m_FontData:
    m_Font: {fileID: 12800000, guid: 7dfc2e1472ac84e1bb749a8a9f934483, type: 3}
    m_FontSize: 40
    m_FontStyle: 0
    m_BestFit: 0
    m_MinSize: 10
    m_MaxSize: 40
    m_Alignment: 4
    m_AlignByGeometry: 0
    m_RichText: 1
    m_HorizontalOverflow: 0
    m_VerticalOverflow: 0
    m_LineSpacing: 1
  m_Text: RESET
--- !u!222 &1160664487
CanvasRenderer:
  m_ObjectHideFlags: 0
  m_PrefabParentObject: {fileID: 22224648, guid: 3aeb4f8df08b0bb49aacbc22c6bb3bd0,
    type: 2}
  m_PrefabInternal: {fileID: 1659269740}
  m_GameObject: {fileID: 1160664484}
--- !u!1 &1191623712
GameObject:
  m_ObjectHideFlags: 0
  m_PrefabParentObject: {fileID: 124650, guid: 3aeb4f8df08b0bb49aacbc22c6bb3bd0, type: 2}
  m_PrefabInternal: {fileID: 1659269740}
  serializedVersion: 4
  m_Component:
  - 224: {fileID: 1191623713}
  - 222: {fileID: 1191623715}
  - 114: {fileID: 1191623714}
  m_Layer: 5
  m_Name: Square
  m_TagString: Untagged
  m_Icon: {fileID: 0}
  m_NavMeshLayer: 0
  m_StaticEditorFlags: 0
  m_IsActive: 1
--- !u!224 &1191623713
RectTransform:
  m_ObjectHideFlags: 0
  m_PrefabParentObject: {fileID: 22424650, guid: 3aeb4f8df08b0bb49aacbc22c6bb3bd0,
    type: 2}
  m_PrefabInternal: {fileID: 1659269740}
  m_GameObject: {fileID: 1191623712}
  m_LocalRotation: {x: 0, y: 0, z: 0, w: 1}
  m_LocalPosition: {x: 0, y: 0, z: 0}
  m_LocalScale: {x: 1, y: 1, z: 1}
  m_LocalEulerAnglesHint: {x: 0, y: 0, z: 0}
  m_Children: []
  m_Father: {fileID: 1061681257}
  m_RootOrder: 0
  m_AnchorMin: {x: 0.5, y: 0.5}
  m_AnchorMax: {x: 0.5, y: 0.5}
  m_AnchoredPosition: {x: 7.3847504, y: 7.9229717}
  m_SizeDelta: {x: 7.7, y: 3.7}
  m_Pivot: {x: 0.5, y: 0.5}
--- !u!114 &1191623714
MonoBehaviour:
  m_ObjectHideFlags: 0
  m_PrefabParentObject: {fileID: 11424652, guid: 3aeb4f8df08b0bb49aacbc22c6bb3bd0,
    type: 2}
  m_PrefabInternal: {fileID: 1659269740}
  m_GameObject: {fileID: 1191623712}
  m_Enabled: 1
  m_EditorHideFlags: 0
  m_Script: {fileID: -765806418, guid: f5f67c52d1564df4a8936ccd202a3bd8, type: 3}
  m_Name: 
  m_EditorClassIdentifier: 
  m_Material: {fileID: 0}
  m_Color: {r: 0.94509804, g: 0.9254902, b: 0.8745098, a: 1}
  m_RaycastTarget: 1
  m_OnCullStateChanged:
    m_PersistentCalls:
      m_Calls: []
    m_TypeName: UnityEngine.UI.MaskableGraphic+CullStateChangedEvent, UnityEngine.UI,
      Version=1.0.0.0, Culture=neutral, PublicKeyToken=null
  m_Sprite: {fileID: 21300000, guid: 7ed1238760b863f4aafde32ab3a6f28c, type: 3}
  m_Type: 1
  m_PreserveAspect: 0
  m_FillCenter: 1
  m_FillMethod: 4
  m_FillAmount: 1
  m_FillClockwise: 1
  m_FillOrigin: 0
--- !u!222 &1191623715
CanvasRenderer:
  m_ObjectHideFlags: 0
  m_PrefabParentObject: {fileID: 22224650, guid: 3aeb4f8df08b0bb49aacbc22c6bb3bd0,
    type: 2}
  m_PrefabInternal: {fileID: 1659269740}
  m_GameObject: {fileID: 1191623712}
--- !u!1 &1284625214
GameObject:
  m_ObjectHideFlags: 0
  m_PrefabParentObject: {fileID: 124668, guid: 3aeb4f8df08b0bb49aacbc22c6bb3bd0, type: 2}
  m_PrefabInternal: {fileID: 1659269740}
  serializedVersion: 4
  m_Component:
  - 224: {fileID: 1284625215}
  - 222: {fileID: 1284625218}
  - 114: {fileID: 1284625217}
  - 114: {fileID: 1284625216}
  m_Layer: 5
  m_Name: Panel
  m_TagString: Untagged
  m_Icon: {fileID: 0}
  m_NavMeshLayer: 0
  m_StaticEditorFlags: 0
  m_IsActive: 1
--- !u!224 &1284625215
RectTransform:
  m_ObjectHideFlags: 0
  m_PrefabParentObject: {fileID: 22424668, guid: 3aeb4f8df08b0bb49aacbc22c6bb3bd0,
    type: 2}
  m_PrefabInternal: {fileID: 1659269740}
  m_GameObject: {fileID: 1284625214}
  m_LocalRotation: {x: 0, y: 0, z: 0, w: 1}
  m_LocalPosition: {x: 0, y: 0, z: 0}
  m_LocalScale: {x: 1, y: 1, z: 1}
  m_LocalEulerAnglesHint: {x: 0, y: 0, z: 0}
  m_Children:
  - {fileID: 1983226744}
  - {fileID: 684546491}
  - {fileID: 1691585870}
  m_Father: {fileID: 983388684}
  m_RootOrder: 1
  m_AnchorMin: {x: 0.5, y: 0.5}
  m_AnchorMax: {x: 0.5, y: 0.5}
  m_AnchoredPosition: {x: 0, y: -0.020019531}
  m_SizeDelta: {x: 640, y: 1136}
  m_Pivot: {x: 0.5, y: 0.5}
--- !u!114 &1284625216
MonoBehaviour:
  m_ObjectHideFlags: 0
  m_PrefabParentObject: {fileID: 11424670, guid: 3aeb4f8df08b0bb49aacbc22c6bb3bd0,
    type: 2}
  m_PrefabInternal: {fileID: 1659269740}
  m_GameObject: {fileID: 1284625214}
  m_Enabled: 1
  m_EditorHideFlags: 0
  m_Script: {fileID: -1200242548, guid: f5f67c52d1564df4a8936ccd202a3bd8, type: 3}
  m_Name: 
  m_EditorClassIdentifier: 
  m_ShowMaskGraphic: 1
--- !u!114 &1284625217
MonoBehaviour:
  m_ObjectHideFlags: 0
  m_PrefabParentObject: {fileID: 11424672, guid: 3aeb4f8df08b0bb49aacbc22c6bb3bd0,
    type: 2}
  m_PrefabInternal: {fileID: 1659269740}
  m_GameObject: {fileID: 1284625214}
  m_Enabled: 1
  m_EditorHideFlags: 0
  m_Script: {fileID: -765806418, guid: f5f67c52d1564df4a8936ccd202a3bd8, type: 3}
  m_Name: 
  m_EditorClassIdentifier: 
  m_Material: {fileID: 0}
  m_Color: {r: 0.18039216, g: 0.18039216, b: 0.18039216, a: 1}
  m_RaycastTarget: 1
  m_OnCullStateChanged:
    m_PersistentCalls:
      m_Calls: []
    m_TypeName: UnityEngine.UI.MaskableGraphic+CullStateChangedEvent, UnityEngine.UI,
      Version=1.0.0.0, Culture=neutral, PublicKeyToken=null
  m_Sprite: {fileID: 21300000, guid: 7ed1238760b863f4aafde32ab3a6f28c, type: 3}
  m_Type: 1
  m_PreserveAspect: 0
  m_FillCenter: 1
  m_FillMethod: 4
  m_FillAmount: 1
  m_FillClockwise: 1
  m_FillOrigin: 0
--- !u!222 &1284625218
CanvasRenderer:
  m_ObjectHideFlags: 0
  m_PrefabParentObject: {fileID: 22224668, guid: 3aeb4f8df08b0bb49aacbc22c6bb3bd0,
    type: 2}
  m_PrefabInternal: {fileID: 1659269740}
  m_GameObject: {fileID: 1284625214}
--- !u!1 &1500371475
GameObject:
  m_ObjectHideFlags: 0
  m_PrefabParentObject: {fileID: 0}
  m_PrefabInternal: {fileID: 0}
  serializedVersion: 4
  m_Component:
  - 4: {fileID: 1500371479}
  - 114: {fileID: 1500371478}
  - 114: {fileID: 1500371477}
  - 114: {fileID: 1500371476}
  m_Layer: 0
  m_Name: EventSystem
  m_TagString: Untagged
  m_Icon: {fileID: 0}
  m_NavMeshLayer: 0
  m_StaticEditorFlags: 0
  m_IsActive: 1
--- !u!114 &1500371476
MonoBehaviour:
  m_ObjectHideFlags: 0
  m_PrefabParentObject: {fileID: 0}
  m_PrefabInternal: {fileID: 0}
  m_GameObject: {fileID: 1500371475}
  m_Enabled: 1
  m_EditorHideFlags: 0
  m_Script: {fileID: 1997211142, guid: f5f67c52d1564df4a8936ccd202a3bd8, type: 3}
  m_Name: 
  m_EditorClassIdentifier: 
  m_ForceModuleActive: 0
--- !u!114 &1500371477
MonoBehaviour:
  m_ObjectHideFlags: 0
  m_PrefabParentObject: {fileID: 0}
  m_PrefabInternal: {fileID: 0}
  m_GameObject: {fileID: 1500371475}
  m_Enabled: 1
  m_EditorHideFlags: 0
  m_Script: {fileID: 1077351063, guid: f5f67c52d1564df4a8936ccd202a3bd8, type: 3}
  m_Name: 
  m_EditorClassIdentifier: 
  m_HorizontalAxis: Horizontal
  m_VerticalAxis: Vertical
  m_SubmitButton: Submit
  m_CancelButton: Cancel
  m_InputActionsPerSecond: 10
  m_RepeatDelay: 0.5
  m_ForceModuleActive: 0
--- !u!114 &1500371478
MonoBehaviour:
  m_ObjectHideFlags: 0
  m_PrefabParentObject: {fileID: 0}
  m_PrefabInternal: {fileID: 0}
  m_GameObject: {fileID: 1500371475}
  m_Enabled: 1
  m_EditorHideFlags: 0
  m_Script: {fileID: -619905303, guid: f5f67c52d1564df4a8936ccd202a3bd8, type: 3}
  m_Name: 
  m_EditorClassIdentifier: 
  m_FirstSelected: {fileID: 0}
  m_sendNavigationEvents: 1
  m_DragThreshold: 5
--- !u!4 &1500371479
Transform:
  m_ObjectHideFlags: 0
  m_PrefabParentObject: {fileID: 0}
  m_PrefabInternal: {fileID: 0}
  m_GameObject: {fileID: 1500371475}
  m_LocalRotation: {x: 0, y: 0, z: 0, w: 1}
  m_LocalPosition: {x: 0, y: 0, z: 0}
  m_LocalScale: {x: 1, y: 1, z: 1}
  m_LocalEulerAnglesHint: {x: 0, y: 0, z: 0}
  m_Children: []
  m_Father: {fileID: 0}
  m_RootOrder: 1
--- !u!1 &1511305452
GameObject:
  m_ObjectHideFlags: 0
  m_PrefabParentObject: {fileID: 0}
  m_PrefabInternal: {fileID: 0}
  serializedVersion: 4
  m_Component:
  - 4: {fileID: 1511305453}
  m_Layer: 0
  m_Name: __SET_YOUR_GAMESCREEN_TO_640x1136
  m_TagString: Untagged
  m_Icon: {fileID: 0}
  m_NavMeshLayer: 0
  m_StaticEditorFlags: 0
  m_IsActive: 1
--- !u!4 &1511305453
Transform:
  m_ObjectHideFlags: 0
  m_PrefabParentObject: {fileID: 0}
  m_PrefabInternal: {fileID: 0}
  m_GameObject: {fileID: 1511305452}
  m_LocalRotation: {x: 0, y: 0, z: 0, w: 1}
  m_LocalPosition: {x: 494.995, y: 627.74, z: 0}
  m_LocalScale: {x: 1, y: 1, z: 1}
  m_LocalEulerAnglesHint: {x: 0, y: 0, z: 0}
  m_Children: []
  m_Father: {fileID: 0}
  m_RootOrder: 2
--- !u!1 &1637294855
GameObject:
  m_ObjectHideFlags: 0
  m_PrefabParentObject: {fileID: 124672, guid: 3aeb4f8df08b0bb49aacbc22c6bb3bd0, type: 2}
  m_PrefabInternal: {fileID: 1659269740}
  serializedVersion: 4
  m_Component:
  - 224: {fileID: 1637294856}
  - 222: {fileID: 1637294858}
  - 114: {fileID: 1637294857}
  m_Layer: 5
  m_Name: Square
  m_TagString: Untagged
  m_Icon: {fileID: 0}
  m_NavMeshLayer: 0
  m_StaticEditorFlags: 0
  m_IsActive: 1
--- !u!224 &1637294856
RectTransform:
  m_ObjectHideFlags: 0
  m_PrefabParentObject: {fileID: 22424672, guid: 3aeb4f8df08b0bb49aacbc22c6bb3bd0,
    type: 2}
  m_PrefabInternal: {fileID: 1659269740}
  m_GameObject: {fileID: 1637294855}
  m_LocalRotation: {x: 0, y: 0, z: 0.3826835, w: 0.92387956}
  m_LocalPosition: {x: 0, y: 0, z: 0}
  m_LocalScale: {x: 1, y: 1, z: 1}
  m_LocalEulerAnglesHint: {x: 0, y: 0, z: 0}
  m_Children: []
  m_Father: {fileID: 1889190838}
  m_RootOrder: 2
  m_AnchorMin: {x: 0.5, y: 0.5}
  m_AnchorMax: {x: 0.5, y: 0.5}
  m_AnchoredPosition: {x: 176.84598, y: 177.76918}
  m_SizeDelta: {x: 95.1, y: 18.9}
  m_Pivot: {x: 0.5, y: 0.5}
--- !u!114 &1637294857
MonoBehaviour:
  m_ObjectHideFlags: 0
  m_PrefabParentObject: {fileID: 11424676, guid: 3aeb4f8df08b0bb49aacbc22c6bb3bd0,
    type: 2}
  m_PrefabInternal: {fileID: 1659269740}
  m_GameObject: {fileID: 1637294855}
  m_Enabled: 1
  m_EditorHideFlags: 0
  m_Script: {fileID: -765806418, guid: f5f67c52d1564df4a8936ccd202a3bd8, type: 3}
  m_Name: 
  m_EditorClassIdentifier: 
  m_Material: {fileID: 0}
  m_Color: {r: 0.18039216, g: 0.18039216, b: 0.18039216, a: 1}
  m_RaycastTarget: 1
  m_OnCullStateChanged:
    m_PersistentCalls:
      m_Calls: []
    m_TypeName: UnityEngine.UI.MaskableGraphic+CullStateChangedEvent, UnityEngine.UI,
      Version=1.0.0.0, Culture=neutral, PublicKeyToken=null
  m_Sprite: {fileID: 21300000, guid: 7ed1238760b863f4aafde32ab3a6f28c, type: 3}
  m_Type: 1
  m_PreserveAspect: 0
  m_FillCenter: 1
  m_FillMethod: 4
  m_FillAmount: 1
  m_FillClockwise: 1
  m_FillOrigin: 0
--- !u!222 &1637294858
CanvasRenderer:
  m_ObjectHideFlags: 0
  m_PrefabParentObject: {fileID: 22224672, guid: 3aeb4f8df08b0bb49aacbc22c6bb3bd0,
    type: 2}
  m_PrefabInternal: {fileID: 1659269740}
  m_GameObject: {fileID: 1637294855}
--- !u!1001 &1659269740
Prefab:
  m_ObjectHideFlags: 0
  serializedVersion: 2
  m_Modification:
    m_TransformParent: {fileID: 0}
    m_Modifications:
    - target: {fileID: 22424686, guid: 3aeb4f8df08b0bb49aacbc22c6bb3bd0, type: 2}
      propertyPath: m_LocalPosition.x
      value: 0
      objectReference: {fileID: 0}
    - target: {fileID: 22424686, guid: 3aeb4f8df08b0bb49aacbc22c6bb3bd0, type: 2}
      propertyPath: m_LocalPosition.y
      value: 0
      objectReference: {fileID: 0}
    - target: {fileID: 22424686, guid: 3aeb4f8df08b0bb49aacbc22c6bb3bd0, type: 2}
      propertyPath: m_LocalPosition.z
      value: 0
      objectReference: {fileID: 0}
    - target: {fileID: 22424686, guid: 3aeb4f8df08b0bb49aacbc22c6bb3bd0, type: 2}
      propertyPath: m_LocalRotation.x
      value: 0
      objectReference: {fileID: 0}
    - target: {fileID: 22424686, guid: 3aeb4f8df08b0bb49aacbc22c6bb3bd0, type: 2}
      propertyPath: m_LocalRotation.y
      value: 0
      objectReference: {fileID: 0}
    - target: {fileID: 22424686, guid: 3aeb4f8df08b0bb49aacbc22c6bb3bd0, type: 2}
      propertyPath: m_LocalRotation.z
      value: 0
      objectReference: {fileID: 0}
    - target: {fileID: 22424686, guid: 3aeb4f8df08b0bb49aacbc22c6bb3bd0, type: 2}
      propertyPath: m_LocalRotation.w
      value: 1
      objectReference: {fileID: 0}
    - target: {fileID: 22424686, guid: 3aeb4f8df08b0bb49aacbc22c6bb3bd0, type: 2}
      propertyPath: m_RootOrder
      value: 0
      objectReference: {fileID: 0}
    - target: {fileID: 22424686, guid: 3aeb4f8df08b0bb49aacbc22c6bb3bd0, type: 2}
      propertyPath: m_AnchoredPosition.x
      value: 0
      objectReference: {fileID: 0}
    - target: {fileID: 22424686, guid: 3aeb4f8df08b0bb49aacbc22c6bb3bd0, type: 2}
      propertyPath: m_AnchoredPosition.y
      value: 0
      objectReference: {fileID: 0}
    - target: {fileID: 22424686, guid: 3aeb4f8df08b0bb49aacbc22c6bb3bd0, type: 2}
      propertyPath: m_SizeDelta.x
      value: 0
      objectReference: {fileID: 0}
    - target: {fileID: 22424686, guid: 3aeb4f8df08b0bb49aacbc22c6bb3bd0, type: 2}
      propertyPath: m_SizeDelta.y
      value: 0
      objectReference: {fileID: 0}
    - target: {fileID: 22424686, guid: 3aeb4f8df08b0bb49aacbc22c6bb3bd0, type: 2}
      propertyPath: m_AnchorMin.x
      value: 0
      objectReference: {fileID: 0}
    - target: {fileID: 22424686, guid: 3aeb4f8df08b0bb49aacbc22c6bb3bd0, type: 2}
      propertyPath: m_AnchorMin.y
      value: 0
      objectReference: {fileID: 0}
    - target: {fileID: 22424686, guid: 3aeb4f8df08b0bb49aacbc22c6bb3bd0, type: 2}
      propertyPath: m_AnchorMax.x
      value: 0
      objectReference: {fileID: 0}
    - target: {fileID: 22424686, guid: 3aeb4f8df08b0bb49aacbc22c6bb3bd0, type: 2}
      propertyPath: m_AnchorMax.y
      value: 0
      objectReference: {fileID: 0}
    - target: {fileID: 22424686, guid: 3aeb4f8df08b0bb49aacbc22c6bb3bd0, type: 2}
      propertyPath: m_Pivot.x
      value: 0
      objectReference: {fileID: 0}
    - target: {fileID: 22424686, guid: 3aeb4f8df08b0bb49aacbc22c6bb3bd0, type: 2}
      propertyPath: m_Pivot.y
      value: 0
      objectReference: {fileID: 0}
    m_RemovedComponents: []
  m_ParentPrefab: {fileID: 100100000, guid: 3aeb4f8df08b0bb49aacbc22c6bb3bd0, type: 2}
  m_RootGameObject: {fileID: 983388680}
  m_IsPrefabParent: 0
--- !u!1 &1691585869
GameObject:
  m_ObjectHideFlags: 0
  m_PrefabParentObject: {fileID: 124664, guid: 3aeb4f8df08b0bb49aacbc22c6bb3bd0, type: 2}
  m_PrefabInternal: {fileID: 1659269740}
  serializedVersion: 4
  m_Component:
  - 224: {fileID: 1691585870}
  - 222: {fileID: 1691585873}
  - 114: {fileID: 1691585872}
  - 114: {fileID: 1691585871}
  m_Layer: 5
  m_Name: Button
  m_TagString: Untagged
  m_Icon: {fileID: 0}
  m_NavMeshLayer: 0
  m_StaticEditorFlags: 0
  m_IsActive: 1
--- !u!224 &1691585870
RectTransform:
  m_ObjectHideFlags: 0
  m_PrefabParentObject: {fileID: 22424664, guid: 3aeb4f8df08b0bb49aacbc22c6bb3bd0,
    type: 2}
  m_PrefabInternal: {fileID: 1659269740}
  m_GameObject: {fileID: 1691585869}
  m_LocalRotation: {x: 0, y: 0, z: 0, w: 1}
  m_LocalPosition: {x: 0, y: 0, z: 0}
  m_LocalScale: {x: 1, y: 1, z: 1}
  m_LocalEulerAnglesHint: {x: 0, y: 0, z: 0}
  m_Children:
  - {fileID: 1160664485}
  m_Father: {fileID: 1284625215}
  m_RootOrder: 2
  m_AnchorMin: {x: 0.5, y: 0.5}
  m_AnchorMax: {x: 0.5, y: 0.5}
  m_AnchoredPosition: {x: 0, y: -423.99988}
  m_SizeDelta: {x: 273, y: 100}
  m_Pivot: {x: 0.5, y: 0.5}
--- !u!114 &1691585871
MonoBehaviour:
  m_ObjectHideFlags: 0
  m_PrefabParentObject: {fileID: 11424640, guid: 3aeb4f8df08b0bb49aacbc22c6bb3bd0,
    type: 2}
  m_PrefabInternal: {fileID: 1659269740}
  m_GameObject: {fileID: 1691585869}
  m_Enabled: 1
  m_EditorHideFlags: 0
  m_Script: {fileID: 1392445389, guid: f5f67c52d1564df4a8936ccd202a3bd8, type: 3}
  m_Name: 
  m_EditorClassIdentifier: 
  m_Navigation:
    m_Mode: 3
    m_SelectOnUp: {fileID: 0}
    m_SelectOnDown: {fileID: 0}
    m_SelectOnLeft: {fileID: 0}
    m_SelectOnRight: {fileID: 0}
  m_Transition: 1
  m_Colors:
    m_NormalColor: {r: 1, g: 1, b: 1, a: 1}
    m_HighlightedColor: {r: 0.9607843, g: 0.9607843, b: 0.9607843, a: 1}
    m_PressedColor: {r: 0.78431374, g: 0.78431374, b: 0.78431374, a: 1}
    m_DisabledColor: {r: 0.78431374, g: 0.78431374, b: 0.78431374, a: 0.5019608}
    m_ColorMultiplier: 1
    m_FadeDuration: 0.1
  m_SpriteState:
    m_HighlightedSprite: {fileID: 0}
    m_PressedSprite: {fileID: 0}
    m_DisabledSprite: {fileID: 0}
  m_AnimationTriggers:
    m_NormalTrigger: Normal
    m_HighlightedTrigger: Highlighted
    m_PressedTrigger: Pressed
    m_DisabledTrigger: Disabled
  m_Interactable: 1
  m_TargetGraphic: {fileID: 1691585872}
  m_OnClick:
    m_PersistentCalls:
      m_Calls: []
    m_TypeName: UnityEngine.UI.Button+ButtonClickedEvent, UnityEngine.UI, Version=1.0.0.0,
      Culture=neutral, PublicKeyToken=null
--- !u!114 &1691585872
MonoBehaviour:
  m_ObjectHideFlags: 0
  m_PrefabParentObject: {fileID: 11424666, guid: 3aeb4f8df08b0bb49aacbc22c6bb3bd0,
    type: 2}
  m_PrefabInternal: {fileID: 1659269740}
  m_GameObject: {fileID: 1691585869}
  m_Enabled: 1
  m_EditorHideFlags: 0
  m_Script: {fileID: -765806418, guid: f5f67c52d1564df4a8936ccd202a3bd8, type: 3}
  m_Name: 
  m_EditorClassIdentifier: 
  m_Material: {fileID: 0}
  m_Color: {r: 0.99215686, g: 0.30588236, b: 0.30588236, a: 1}
  m_RaycastTarget: 1
  m_OnCullStateChanged:
    m_PersistentCalls:
      m_Calls: []
    m_TypeName: UnityEngine.UI.MaskableGraphic+CullStateChangedEvent, UnityEngine.UI,
      Version=1.0.0.0, Culture=neutral, PublicKeyToken=null
  m_Sprite: {fileID: 21300000, guid: d933e3d481575ca4b8c63bf881596b5f, type: 3}
  m_Type: 0
  m_PreserveAspect: 0
  m_FillCenter: 1
  m_FillMethod: 4
  m_FillAmount: 1
  m_FillClockwise: 1
  m_FillOrigin: 0
--- !u!222 &1691585873
CanvasRenderer:
  m_ObjectHideFlags: 0
  m_PrefabParentObject: {fileID: 22224664, guid: 3aeb4f8df08b0bb49aacbc22c6bb3bd0,
    type: 2}
  m_PrefabInternal: {fileID: 1659269740}
  m_GameObject: {fileID: 1691585869}
--- !u!1 &1703751743
GameObject:
  m_ObjectHideFlags: 0
  m_PrefabParentObject: {fileID: 124658, guid: 3aeb4f8df08b0bb49aacbc22c6bb3bd0, type: 2}
  m_PrefabInternal: {fileID: 1659269740}
  serializedVersion: 4
  m_Component:
  - 224: {fileID: 1703751744}
  - 222: {fileID: 1703751746}
  - 114: {fileID: 1703751745}
  m_Layer: 5
  m_Name: Square
  m_TagString: Untagged
  m_Icon: {fileID: 0}
  m_NavMeshLayer: 0
  m_StaticEditorFlags: 0
  m_IsActive: 1
--- !u!224 &1703751744
RectTransform:
  m_ObjectHideFlags: 0
  m_PrefabParentObject: {fileID: 22424658, guid: 3aeb4f8df08b0bb49aacbc22c6bb3bd0,
    type: 2}
  m_PrefabInternal: {fileID: 1659269740}
  m_GameObject: {fileID: 1703751743}
  m_LocalRotation: {x: 0, y: 0, z: 0.38268292, w: 0.92387974}
  m_LocalPosition: {x: 0, y: 0, z: 0}
  m_LocalScale: {x: 1, y: 1, z: 1}
  m_LocalEulerAnglesHint: {x: 0, y: 0, z: 0}
  m_Children: []
  m_Father: {fileID: 1889190838}
  m_RootOrder: 11
  m_AnchorMin: {x: 0.5, y: 0.5}
  m_AnchorMax: {x: 0.5, y: 0.5}
  m_AnchoredPosition: {x: -156.92311, y: -151.53839}
  m_SizeDelta: {x: 94, y: 23}
  m_Pivot: {x: 0.5, y: 0.5}
--- !u!114 &1703751745
MonoBehaviour:
  m_ObjectHideFlags: 0
  m_PrefabParentObject: {fileID: 11424660, guid: 3aeb4f8df08b0bb49aacbc22c6bb3bd0,
    type: 2}
  m_PrefabInternal: {fileID: 1659269740}
  m_GameObject: {fileID: 1703751743}
  m_Enabled: 1
  m_EditorHideFlags: 0
  m_Script: {fileID: -765806418, guid: f5f67c52d1564df4a8936ccd202a3bd8, type: 3}
  m_Name: 
  m_EditorClassIdentifier: 
  m_Material: {fileID: 0}
  m_Color: {r: 0.18039216, g: 0.18039216, b: 0.18039216, a: 1}
  m_RaycastTarget: 1
  m_OnCullStateChanged:
    m_PersistentCalls:
      m_Calls: []
    m_TypeName: UnityEngine.UI.MaskableGraphic+CullStateChangedEvent, UnityEngine.UI,
      Version=1.0.0.0, Culture=neutral, PublicKeyToken=null
  m_Sprite: {fileID: 21300000, guid: 7ed1238760b863f4aafde32ab3a6f28c, type: 3}
  m_Type: 1
  m_PreserveAspect: 0
  m_FillCenter: 1
  m_FillMethod: 4
  m_FillAmount: 1
  m_FillClockwise: 1
  m_FillOrigin: 0
--- !u!222 &1703751746
CanvasRenderer:
  m_ObjectHideFlags: 0
  m_PrefabParentObject: {fileID: 22224658, guid: 3aeb4f8df08b0bb49aacbc22c6bb3bd0,
    type: 2}
  m_PrefabInternal: {fileID: 1659269740}
  m_GameObject: {fileID: 1703751743}
--- !u!1 &1789929074
GameObject:
  m_ObjectHideFlags: 0
  m_PrefabParentObject: {fileID: 124678, guid: 3aeb4f8df08b0bb49aacbc22c6bb3bd0, type: 2}
  m_PrefabInternal: {fileID: 1659269740}
  serializedVersion: 4
  m_Component:
  - 224: {fileID: 1789929075}
  - 222: {fileID: 1789929077}
  - 114: {fileID: 1789929076}
  m_Layer: 5
  m_Name: AppTitle
  m_TagString: Untagged
  m_Icon: {fileID: 0}
  m_NavMeshLayer: 0
  m_StaticEditorFlags: 0
  m_IsActive: 1
--- !u!224 &1789929075
RectTransform:
  m_ObjectHideFlags: 0
  m_PrefabParentObject: {fileID: 22424678, guid: 3aeb4f8df08b0bb49aacbc22c6bb3bd0,
    type: 2}
  m_PrefabInternal: {fileID: 1659269740}
  m_GameObject: {fileID: 1789929074}
  m_LocalRotation: {x: 0, y: 0, z: 0, w: 1}
  m_LocalPosition: {x: 0, y: 0, z: 0}
  m_LocalScale: {x: 1, y: 1, z: 1}
  m_LocalEulerAnglesHint: {x: 0, y: 0, z: 0}
  m_Children: []
  m_Father: {fileID: 678601240}
  m_RootOrder: 0
  m_AnchorMin: {x: 0.5, y: 0.5}
  m_AnchorMax: {x: 0.5, y: 0.5}
  m_AnchoredPosition: {x: 295, y: -68}
  m_SizeDelta: {x: 695, y: 109}
  m_Pivot: {x: 0.5, y: 0.5}
--- !u!114 &1789929076
MonoBehaviour:
  m_ObjectHideFlags: 0
  m_PrefabParentObject: {fileID: 11424682, guid: 3aeb4f8df08b0bb49aacbc22c6bb3bd0,
    type: 2}
  m_PrefabInternal: {fileID: 1659269740}
  m_GameObject: {fileID: 1789929074}
  m_Enabled: 1
  m_EditorHideFlags: 0
  m_Script: {fileID: 708705254, guid: f5f67c52d1564df4a8936ccd202a3bd8, type: 3}
  m_Name: 
  m_EditorClassIdentifier: 
  m_Material: {fileID: 0}
  m_Color: {r: 0.85490197, g: 0.85490197, b: 0.85490197, a: 1}
  m_RaycastTarget: 1
  m_OnCullStateChanged:
    m_PersistentCalls:
      m_Calls: []
    m_TypeName: UnityEngine.UI.MaskableGraphic+CullStateChangedEvent, UnityEngine.UI,
      Version=1.0.0.0, Culture=neutral, PublicKeyToken=null
  m_FontData:
    m_Font: {fileID: 12800000, guid: 218956a5c2a6e42d6a60afccf80b002b, type: 3}
    m_FontSize: 40
    m_FontStyle: 0
    m_BestFit: 0
    m_MinSize: 10
    m_MaxSize: 40
    m_Alignment: 0
    m_AlignByGeometry: 0
    m_RichText: 1
    m_HorizontalOverflow: 0
    m_VerticalOverflow: 1
    m_LineSpacing: 1
  m_Text: EXAMPLE
--- !u!222 &1789929077
CanvasRenderer:
  m_ObjectHideFlags: 0
  m_PrefabParentObject: {fileID: 22224678, guid: 3aeb4f8df08b0bb49aacbc22c6bb3bd0,
    type: 2}
  m_PrefabInternal: {fileID: 1659269740}
  m_GameObject: {fileID: 1789929074}
--- !u!1 &1882342647
GameObject:
  m_ObjectHideFlags: 0
  m_PrefabParentObject: {fileID: 124652, guid: 3aeb4f8df08b0bb49aacbc22c6bb3bd0, type: 2}
  m_PrefabInternal: {fileID: 1659269740}
  serializedVersion: 4
  m_Component:
  - 224: {fileID: 1882342648}
  - 222: {fileID: 1882342650}
  - 114: {fileID: 1882342649}
  m_Layer: 5
  m_Name: Square
  m_TagString: Untagged
  m_Icon: {fileID: 0}
  m_NavMeshLayer: 0
  m_StaticEditorFlags: 0
  m_IsActive: 1
--- !u!224 &1882342648
RectTransform:
  m_ObjectHideFlags: 0
  m_PrefabParentObject: {fileID: 22424652, guid: 3aeb4f8df08b0bb49aacbc22c6bb3bd0,
    type: 2}
  m_PrefabInternal: {fileID: 1659269740}
  m_GameObject: {fileID: 1882342647}
  m_LocalRotation: {x: 0, y: 0, z: 0.2619692, w: 0.96507627}
  m_LocalPosition: {x: 0, y: 0, z: 0}
  m_LocalScale: {x: 1, y: 1, z: 1}
  m_LocalEulerAnglesHint: {x: 0, y: 0, z: 0}
  m_Children: []
  m_Father: {fileID: 1061681257}
  m_RootOrder: 1
  m_AnchorMin: {x: 0.5, y: 0.5}
  m_AnchorMax: {x: 0.5, y: 0.5}
  m_AnchoredPosition: {x: 10.922958, y: -6.592135}
  m_SizeDelta: {x: 10.7, y: 1.7}
  m_Pivot: {x: 0.5, y: 0.5}
--- !u!114 &1882342649
MonoBehaviour:
  m_ObjectHideFlags: 0
  m_PrefabParentObject: {fileID: 11424654, guid: 3aeb4f8df08b0bb49aacbc22c6bb3bd0,
    type: 2}
  m_PrefabInternal: {fileID: 1659269740}
  m_GameObject: {fileID: 1882342647}
  m_Enabled: 1
  m_EditorHideFlags: 0
  m_Script: {fileID: -765806418, guid: f5f67c52d1564df4a8936ccd202a3bd8, type: 3}
  m_Name: 
  m_EditorClassIdentifier: 
  m_Material: {fileID: 0}
  m_Color: {r: 0.94509804, g: 0.9254902, b: 0.8745098, a: 1}
  m_RaycastTarget: 1
  m_OnCullStateChanged:
    m_PersistentCalls:
      m_Calls: []
    m_TypeName: UnityEngine.UI.MaskableGraphic+CullStateChangedEvent, UnityEngine.UI,
      Version=1.0.0.0, Culture=neutral, PublicKeyToken=null
  m_Sprite: {fileID: 21300000, guid: 7ed1238760b863f4aafde32ab3a6f28c, type: 3}
  m_Type: 1
  m_PreserveAspect: 0
  m_FillCenter: 1
  m_FillMethod: 4
  m_FillAmount: 1
  m_FillClockwise: 1
  m_FillOrigin: 0
--- !u!222 &1882342650
CanvasRenderer:
  m_ObjectHideFlags: 0
  m_PrefabParentObject: {fileID: 22224652, guid: 3aeb4f8df08b0bb49aacbc22c6bb3bd0,
    type: 2}
  m_PrefabInternal: {fileID: 1659269740}
  m_GameObject: {fileID: 1882342647}
--- !u!1 &1889190837
GameObject:
  m_ObjectHideFlags: 0
  m_PrefabParentObject: {fileID: 124684, guid: 3aeb4f8df08b0bb49aacbc22c6bb3bd0, type: 2}
  m_PrefabInternal: {fileID: 1659269740}
  serializedVersion: 4
  m_Component:
  - 224: {fileID: 1889190838}
  - 222: {fileID: 1889190840}
  - 114: {fileID: 1889190839}
  m_Layer: 5
  m_Name: Circle
  m_TagString: Untagged
  m_Icon: {fileID: 0}
  m_NavMeshLayer: 0
  m_StaticEditorFlags: 0
  m_IsActive: 1
--- !u!224 &1889190838
RectTransform:
  m_ObjectHideFlags: 0
  m_PrefabParentObject: {fileID: 22424684, guid: 3aeb4f8df08b0bb49aacbc22c6bb3bd0,
    type: 2}
  m_PrefabInternal: {fileID: 1659269740}
  m_GameObject: {fileID: 1889190837}
  m_LocalRotation: {x: 0, y: 0, z: 0, w: 1}
  m_LocalPosition: {x: 0, y: 0, z: 0}
  m_LocalScale: {x: 1, y: 1, z: 1}
  m_LocalEulerAnglesHint: {x: 0, y: 0, z: 0}
  m_Children:
  - {fileID: 1926830320}
  - {fileID: 791552286}
  - {fileID: 1637294856}
  - {fileID: 732249238}
  - {fileID: 156929554}
  - {fileID: 570290514}
  - {fileID: 678183557}
  - {fileID: 2045470402}
  - {fileID: 1978379404}
  - {fileID: 1970249463}
  - {fileID: 125490566}
  - {fileID: 1703751744}
  m_Father: {fileID: 684546491}
  m_RootOrder: 0
  m_AnchorMin: {x: 0.5, y: 0.5}
  m_AnchorMax: {x: 0.5, y: 0.5}
  m_AnchoredPosition: {x: 0, y: 0}
  m_SizeDelta: {x: 106, y: 106}
  m_Pivot: {x: 0.5, y: 0.5}
--- !u!114 &1889190839
MonoBehaviour:
  m_ObjectHideFlags: 0
  m_PrefabParentObject: {fileID: 11424688, guid: 3aeb4f8df08b0bb49aacbc22c6bb3bd0,
    type: 2}
  m_PrefabInternal: {fileID: 1659269740}
  m_GameObject: {fileID: 1889190837}
  m_Enabled: 1
  m_EditorHideFlags: 0
  m_Script: {fileID: -765806418, guid: f5f67c52d1564df4a8936ccd202a3bd8, type: 3}
  m_Name: 
  m_EditorClassIdentifier: 
  m_Material: {fileID: 0}
  m_Color: {r: 0.18039216, g: 0.18039216, b: 0.18039216, a: 1}
  m_RaycastTarget: 1
  m_OnCullStateChanged:
    m_PersistentCalls:
      m_Calls: []
    m_TypeName: UnityEngine.UI.MaskableGraphic+CullStateChangedEvent, UnityEngine.UI,
      Version=1.0.0.0, Culture=neutral, PublicKeyToken=null
  m_Sprite: {fileID: 21300000, guid: 86c50c842fc5e5548b6a6e876c645ee0, type: 3}
  m_Type: 0
  m_PreserveAspect: 0
  m_FillCenter: 1
  m_FillMethod: 4
  m_FillAmount: 1
  m_FillClockwise: 1
  m_FillOrigin: 0
--- !u!222 &1889190840
CanvasRenderer:
  m_ObjectHideFlags: 0
  m_PrefabParentObject: {fileID: 22224684, guid: 3aeb4f8df08b0bb49aacbc22c6bb3bd0,
    type: 2}
  m_PrefabInternal: {fileID: 1659269740}
  m_GameObject: {fileID: 1889190837}
--- !u!1 &1926830319
GameObject:
  m_ObjectHideFlags: 0
  m_PrefabParentObject: {fileID: 124680, guid: 3aeb4f8df08b0bb49aacbc22c6bb3bd0, type: 2}
  m_PrefabInternal: {fileID: 1659269740}
  serializedVersion: 4
  m_Component:
  - 224: {fileID: 1926830320}
  - 222: {fileID: 1926830322}
  - 114: {fileID: 1926830321}
  m_Layer: 5
  m_Name: Square
  m_TagString: Untagged
  m_Icon: {fileID: 0}
  m_NavMeshLayer: 0
  m_StaticEditorFlags: 0
  m_IsActive: 1
--- !u!224 &1926830320
RectTransform:
  m_ObjectHideFlags: 0
  m_PrefabParentObject: {fileID: 22424680, guid: 3aeb4f8df08b0bb49aacbc22c6bb3bd0,
    type: 2}
  m_PrefabInternal: {fileID: 1659269740}
  m_GameObject: {fileID: 1926830319}
  m_LocalRotation: {x: 0, y: 0, z: 0, w: 1}
  m_LocalPosition: {x: 0, y: 0, z: 0}
  m_LocalScale: {x: 1, y: 1, z: 1}
  m_LocalEulerAnglesHint: {x: 0, y: 0, z: 0}
  m_Children: []
  m_Father: {fileID: 1889190838}
  m_RootOrder: 0
  m_AnchorMin: {x: 0.5, y: 0.5}
  m_AnchorMax: {x: 0.5, y: 0.5}
  m_AnchoredPosition: {x: 65.21145, y: 0}
  m_SizeDelta: {x: 93.423, y: 18.9}
  m_Pivot: {x: 0.5, y: 0.5}
--- !u!114 &1926830321
MonoBehaviour:
  m_ObjectHideFlags: 0
  m_PrefabParentObject: {fileID: 11424684, guid: 3aeb4f8df08b0bb49aacbc22c6bb3bd0,
    type: 2}
  m_PrefabInternal: {fileID: 1659269740}
  m_GameObject: {fileID: 1926830319}
  m_Enabled: 1
  m_EditorHideFlags: 0
  m_Script: {fileID: -765806418, guid: f5f67c52d1564df4a8936ccd202a3bd8, type: 3}
  m_Name: 
  m_EditorClassIdentifier: 
  m_Material: {fileID: 0}
  m_Color: {r: 0.18039216, g: 0.18039216, b: 0.18039216, a: 1}
  m_RaycastTarget: 1
  m_OnCullStateChanged:
    m_PersistentCalls:
      m_Calls: []
    m_TypeName: UnityEngine.UI.MaskableGraphic+CullStateChangedEvent, UnityEngine.UI,
      Version=1.0.0.0, Culture=neutral, PublicKeyToken=null
  m_Sprite: {fileID: 21300000, guid: 7ed1238760b863f4aafde32ab3a6f28c, type: 3}
  m_Type: 1
  m_PreserveAspect: 0
  m_FillCenter: 1
  m_FillMethod: 4
  m_FillAmount: 1
  m_FillClockwise: 1
  m_FillOrigin: 0
--- !u!222 &1926830322
CanvasRenderer:
  m_ObjectHideFlags: 0
  m_PrefabParentObject: {fileID: 22224680, guid: 3aeb4f8df08b0bb49aacbc22c6bb3bd0,
    type: 2}
  m_PrefabInternal: {fileID: 1659269740}
  m_GameObject: {fileID: 1926830319}
--- !u!1 &1970249462
GameObject:
  m_ObjectHideFlags: 0
  m_PrefabParentObject: {fileID: 124656, guid: 3aeb4f8df08b0bb49aacbc22c6bb3bd0, type: 2}
  m_PrefabInternal: {fileID: 1659269740}
  serializedVersion: 4
  m_Component:
  - 224: {fileID: 1970249463}
  - 222: {fileID: 1970249465}
  - 114: {fileID: 1970249464}
  m_Layer: 5
  m_Name: Square
  m_TagString: Untagged
  m_Icon: {fileID: 0}
  m_NavMeshLayer: 0
  m_StaticEditorFlags: 0
  m_IsActive: 1
--- !u!224 &1970249463
RectTransform:
  m_ObjectHideFlags: 0
  m_PrefabParentObject: {fileID: 22424656, guid: 3aeb4f8df08b0bb49aacbc22c6bb3bd0,
    type: 2}
  m_PrefabInternal: {fileID: 1659269740}
  m_GameObject: {fileID: 1970249462}
  m_LocalRotation: {x: 0, y: 0, z: 0, w: 1}
  m_LocalPosition: {x: 0, y: 0, z: 0}
  m_LocalScale: {x: 1, y: 1, z: 1}
  m_LocalEulerAnglesHint: {x: 0, y: 0, z: 0}
  m_Children: []
  m_Father: {fileID: 1889190838}
  m_RootOrder: 9
  m_AnchorMin: {x: 0.5, y: 0.5}
  m_AnchorMax: {x: 0.5, y: 0.5}
  m_AnchoredPosition: {x: 0, y: 10.923257}
  m_SizeDelta: {x: 21.2, y: 169.4}
  m_Pivot: {x: 0.5, y: 0.5}
--- !u!114 &1970249464
MonoBehaviour:
  m_ObjectHideFlags: 0
  m_PrefabParentObject: {fileID: 11424658, guid: 3aeb4f8df08b0bb49aacbc22c6bb3bd0,
    type: 2}
  m_PrefabInternal: {fileID: 1659269740}
  m_GameObject: {fileID: 1970249462}
  m_Enabled: 1
  m_EditorHideFlags: 0
  m_Script: {fileID: -765806418, guid: f5f67c52d1564df4a8936ccd202a3bd8, type: 3}
  m_Name: 
  m_EditorClassIdentifier: 
  m_Material: {fileID: 0}
  m_Color: {r: 0.18039216, g: 0.18039216, b: 0.18039216, a: 1}
  m_RaycastTarget: 1
  m_OnCullStateChanged:
    m_PersistentCalls:
      m_Calls: []
    m_TypeName: UnityEngine.UI.MaskableGraphic+CullStateChangedEvent, UnityEngine.UI,
      Version=1.0.0.0, Culture=neutral, PublicKeyToken=null
  m_Sprite: {fileID: 21300000, guid: 7ed1238760b863f4aafde32ab3a6f28c, type: 3}
  m_Type: 1
  m_PreserveAspect: 0
  m_FillCenter: 1
  m_FillMethod: 4
  m_FillAmount: 1
  m_FillClockwise: 1
  m_FillOrigin: 0
--- !u!222 &1970249465
CanvasRenderer:
  m_ObjectHideFlags: 0
  m_PrefabParentObject: {fileID: 22224656, guid: 3aeb4f8df08b0bb49aacbc22c6bb3bd0,
    type: 2}
  m_PrefabInternal: {fileID: 1659269740}
  m_GameObject: {fileID: 1970249462}
--- !u!1 &1978379403
GameObject:
  m_ObjectHideFlags: 0
  m_PrefabParentObject: {fileID: 124646, guid: 3aeb4f8df08b0bb49aacbc22c6bb3bd0, type: 2}
  m_PrefabInternal: {fileID: 1659269740}
  serializedVersion: 4
  m_Component:
  - 224: {fileID: 1978379404}
  - 222: {fileID: 1978379406}
  - 114: {fileID: 1978379405}
  m_Layer: 5
  m_Name: Square
  m_TagString: Untagged
  m_Icon: {fileID: 0}
  m_NavMeshLayer: 0
  m_StaticEditorFlags: 0
  m_IsActive: 1
--- !u!224 &1978379404
RectTransform:
  m_ObjectHideFlags: 0
  m_PrefabParentObject: {fileID: 22424646, guid: 3aeb4f8df08b0bb49aacbc22c6bb3bd0,
    type: 2}
  m_PrefabInternal: {fileID: 1659269740}
  m_GameObject: {fileID: 1978379403}
  m_LocalRotation: {x: 0, y: 0, z: 0, w: 1}
  m_LocalPosition: {x: 0, y: 0, z: 0}
  m_LocalScale: {x: 1, y: 1, z: 1}
  m_LocalEulerAnglesHint: {x: 0, y: 0, z: 0}
  m_Children: []
  m_Father: {fileID: 1889190838}
  m_RootOrder: 8
  m_AnchorMin: {x: 0.5, y: 0.5}
  m_AnchorMax: {x: 0.5, y: 0.5}
  m_AnchoredPosition: {x: 0, y: 32.769394}
  m_SizeDelta: {x: 21.2, y: 125.6}
  m_Pivot: {x: 0.5, y: 0.5}
--- !u!114 &1978379405
MonoBehaviour:
  m_ObjectHideFlags: 0
  m_PrefabParentObject: {fileID: 11424648, guid: 3aeb4f8df08b0bb49aacbc22c6bb3bd0,
    type: 2}
  m_PrefabInternal: {fileID: 1659269740}
  m_GameObject: {fileID: 1978379403}
  m_Enabled: 1
  m_EditorHideFlags: 0
  m_Script: {fileID: -765806418, guid: f5f67c52d1564df4a8936ccd202a3bd8, type: 3}
  m_Name: 
  m_EditorClassIdentifier: 
  m_Material: {fileID: 0}
  m_Color: {r: 0.18039216, g: 0.18039216, b: 0.18039216, a: 1}
  m_RaycastTarget: 1
  m_OnCullStateChanged:
    m_PersistentCalls:
      m_Calls: []
    m_TypeName: UnityEngine.UI.MaskableGraphic+CullStateChangedEvent, UnityEngine.UI,
      Version=1.0.0.0, Culture=neutral, PublicKeyToken=null
  m_Sprite: {fileID: 21300000, guid: 7ed1238760b863f4aafde32ab3a6f28c, type: 3}
  m_Type: 1
  m_PreserveAspect: 0
  m_FillCenter: 1
  m_FillMethod: 4
  m_FillAmount: 1
  m_FillClockwise: 1
  m_FillOrigin: 0
--- !u!222 &1978379406
CanvasRenderer:
  m_ObjectHideFlags: 0
  m_PrefabParentObject: {fileID: 22224646, guid: 3aeb4f8df08b0bb49aacbc22c6bb3bd0,
    type: 2}
  m_PrefabInternal: {fileID: 1659269740}
  m_GameObject: {fileID: 1978379403}
--- !u!1 &1983226743
GameObject:
  m_ObjectHideFlags: 0
  m_PrefabParentObject: {fileID: 124662, guid: 3aeb4f8df08b0bb49aacbc22c6bb3bd0, type: 2}
  m_PrefabInternal: {fileID: 1659269740}
  serializedVersion: 4
  m_Component:
  - 224: {fileID: 1983226744}
  - 222: {fileID: 1983226746}
  - 114: {fileID: 1983226745}
  m_Layer: 5
  m_Name: Text
  m_TagString: Untagged
  m_Icon: {fileID: 0}
  m_NavMeshLayer: 0
  m_StaticEditorFlags: 0
  m_IsActive: 1
--- !u!224 &1983226744
RectTransform:
  m_ObjectHideFlags: 0
  m_PrefabParentObject: {fileID: 22424662, guid: 3aeb4f8df08b0bb49aacbc22c6bb3bd0,
    type: 2}
  m_PrefabInternal: {fileID: 1659269740}
  m_GameObject: {fileID: 1983226743}
  m_LocalRotation: {x: 0, y: 0, z: 0, w: 1}
  m_LocalPosition: {x: 0, y: 0, z: 0}
  m_LocalScale: {x: 0.8, y: 0.8, z: 1}
  m_LocalEulerAnglesHint: {x: 0, y: 0, z: 0}
  m_Children: []
  m_Father: {fileID: 1284625215}
  m_RootOrder: 0
  m_AnchorMin: {x: 0.5, y: 0.5}
  m_AnchorMax: {x: 0.5, y: 0.5}
  m_AnchoredPosition: {x: -0.000002861, y: 431}
  m_SizeDelta: {x: 640, y: 211}
  m_Pivot: {x: 0.5, y: 0.5}
--- !u!114 &1983226745
MonoBehaviour:
  m_ObjectHideFlags: 0
  m_PrefabParentObject: {fileID: 11424664, guid: 3aeb4f8df08b0bb49aacbc22c6bb3bd0,
    type: 2}
  m_PrefabInternal: {fileID: 1659269740}
  m_GameObject: {fileID: 1983226743}
  m_Enabled: 1
  m_EditorHideFlags: 0
  m_Script: {fileID: 708705254, guid: f5f67c52d1564df4a8936ccd202a3bd8, type: 3}
  m_Name: 
  m_EditorClassIdentifier: 
  m_Material: {fileID: 0}
  m_Color: {r: 0.99215686, g: 0.30588236, b: 0.30588236, a: 1}
  m_RaycastTarget: 1
  m_OnCullStateChanged:
    m_PersistentCalls:
      m_Calls: []
    m_TypeName: UnityEngine.UI.MaskableGraphic+CullStateChangedEvent, UnityEngine.UI,
      Version=1.0.0.0, Culture=neutral, PublicKeyToken=null
  m_FontData:
    m_Font: {fileID: 12800000, guid: 7dfc2e1472ac84e1bb749a8a9f934483, type: 3}
    m_FontSize: 80
    m_FontStyle: 0
    m_BestFit: 0
    m_MinSize: 10
    m_MaxSize: 80
    m_Alignment: 4
    m_AlignByGeometry: 0
    m_RichText: 1
    m_HorizontalOverflow: 0
    m_VerticalOverflow: 0
    m_LineSpacing: 1
  m_Text: CIRCLE KILLER
--- !u!222 &1983226746
CanvasRenderer:
  m_ObjectHideFlags: 0
  m_PrefabParentObject: {fileID: 22224662, guid: 3aeb4f8df08b0bb49aacbc22c6bb3bd0,
    type: 2}
  m_PrefabInternal: {fileID: 1659269740}
  m_GameObject: {fileID: 1983226743}
--- !u!1 &2045470401
GameObject:
  m_ObjectHideFlags: 0
  m_PrefabParentObject: {fileID: 124682, guid: 3aeb4f8df08b0bb49aacbc22c6bb3bd0, type: 2}
  m_PrefabInternal: {fileID: 1659269740}
  serializedVersion: 4
  m_Component:
  - 224: {fileID: 2045470402}
  - 222: {fileID: 2045470404}
  - 114: {fileID: 2045470403}
  m_Layer: 5
  m_Name: Square
  m_TagString: Untagged
  m_Icon: {fileID: 0}
  m_NavMeshLayer: 0
  m_StaticEditorFlags: 0
  m_IsActive: 1
--- !u!224 &2045470402
RectTransform:
  m_ObjectHideFlags: 0
  m_PrefabParentObject: {fileID: 22424682, guid: 3aeb4f8df08b0bb49aacbc22c6bb3bd0,
    type: 2}
  m_PrefabInternal: {fileID: 1659269740}
  m_GameObject: {fileID: 2045470401}
  m_LocalRotation: {x: 0, y: 0, z: -0.38268292, w: 0.92387974}
  m_LocalPosition: {x: 0, y: 0, z: 0}
  m_LocalScale: {x: 1, y: 1, z: 1}
  m_LocalEulerAnglesHint: {x: 0, y: 0, z: 0}
  m_Children: []
  m_Father: {fileID: 1889190838}
  m_RootOrder: 7
  m_AnchorMin: {x: 0.5, y: 0.5}
  m_AnchorMax: {x: 0.5, y: 0.5}
  m_AnchoredPosition: {x: -147.92313, y: 139.30763}
  m_SizeDelta: {x: 95.1, y: 18.9}
  m_Pivot: {x: 0.5, y: 0.5}
--- !u!114 &2045470403
MonoBehaviour:
  m_ObjectHideFlags: 0
  m_PrefabParentObject: {fileID: 11424686, guid: 3aeb4f8df08b0bb49aacbc22c6bb3bd0,
    type: 2}
  m_PrefabInternal: {fileID: 1659269740}
  m_GameObject: {fileID: 2045470401}
  m_Enabled: 1
  m_EditorHideFlags: 0
  m_Script: {fileID: -765806418, guid: f5f67c52d1564df4a8936ccd202a3bd8, type: 3}
  m_Name: 
  m_EditorClassIdentifier: 
  m_Material: {fileID: 0}
  m_Color: {r: 0.18039216, g: 0.18039216, b: 0.18039216, a: 1}
  m_RaycastTarget: 1
  m_OnCullStateChanged:
    m_PersistentCalls:
      m_Calls: []
    m_TypeName: UnityEngine.UI.MaskableGraphic+CullStateChangedEvent, UnityEngine.UI,
      Version=1.0.0.0, Culture=neutral, PublicKeyToken=null
  m_Sprite: {fileID: 21300000, guid: 7ed1238760b863f4aafde32ab3a6f28c, type: 3}
  m_Type: 1
  m_PreserveAspect: 0
  m_FillCenter: 1
  m_FillMethod: 4
  m_FillAmount: 1
  m_FillClockwise: 1
  m_FillOrigin: 0
--- !u!222 &2045470404
CanvasRenderer:
  m_ObjectHideFlags: 0
  m_PrefabParentObject: {fileID: 22224682, guid: 3aeb4f8df08b0bb49aacbc22c6bb3bd0,
    type: 2}
  m_PrefabInternal: {fileID: 1659269740}
  m_GameObject: {fileID: 2045470401}
