%YAML 1.1
%TAG !u! tag:unity3d.com,2011:
--- !u!29 &1
SceneSettings:
  m_ObjectHideFlags: 0
  m_PVSData: 
  m_PVSObjectsArray: []
  m_PVSPortalsArray: []
  m_OcclusionBakeSettings:
    smallestOccluder: 5
    smallestHole: 0.25
    backfaceThreshold: 100
--- !u!104 &2
RenderSettings:
  m_ObjectHideFlags: 0
  serializedVersion: 7
  m_Fog: 0
  m_FogColor: {r: 0.5, g: 0.5, b: 0.5, a: 1}
  m_FogMode: 3
  m_FogDensity: 0.01
  m_LinearFogStart: 0
  m_LinearFogEnd: 300
  m_AmbientSkyColor: {r: 0.212, g: 0.227, b: 0.259, a: 1}
  m_AmbientEquatorColor: {r: 0.114, g: 0.125, b: 0.133, a: 1}
  m_AmbientGroundColor: {r: 0.047, g: 0.043, b: 0.035, a: 1}
  m_AmbientIntensity: 1
  m_AmbientMode: 0
  m_SkyboxMaterial: {fileID: 10304, guid: 0000000000000000f000000000000000, type: 0}
  m_HaloStrength: 0.5
  m_FlareStrength: 1
  m_FlareFadeSpeed: 3
  m_HaloTexture: {fileID: 0}
  m_SpotCookie: {fileID: 10001, guid: 0000000000000000e000000000000000, type: 0}
  m_DefaultReflectionMode: 0
  m_DefaultReflectionResolution: 128
  m_ReflectionBounces: 1
  m_ReflectionIntensity: 1
  m_CustomReflection: {fileID: 0}
  m_Sun: {fileID: 0}
  m_IndirectSpecularColor: {r: 0, g: 0, b: 0, a: 1}
--- !u!157 &4
LightmapSettings:
  m_ObjectHideFlags: 0
  serializedVersion: 7
  m_GIWorkflowMode: 0
  m_GISettings:
    serializedVersion: 2
    m_BounceScale: 1
    m_IndirectOutputScale: 1
    m_AlbedoBoost: 1
    m_TemporalCoherenceThreshold: 1
    m_EnvironmentLightingMode: 0
    m_EnableBakedLightmaps: 1
    m_EnableRealtimeLightmaps: 1
  m_LightmapEditorSettings:
    serializedVersion: 4
    m_Resolution: 2
    m_BakeResolution: 40
    m_TextureWidth: 1024
    m_TextureHeight: 1024
    m_AO: 0
    m_AOMaxDistance: 1
    m_CompAOExponent: 0
    m_CompAOExponentDirect: 0
    m_Padding: 2
    m_LightmapParameters: {fileID: 0}
    m_LightmapsBakeMode: 1
    m_TextureCompression: 1
    m_DirectLightInLightProbes: 1
    m_FinalGather: 0
    m_FinalGatherFiltering: 1
    m_FinalGatherRayCount: 1024
    m_ReflectionCompression: 2
  m_LightingDataAsset: {fileID: 0}
  m_RuntimeCPUUsage: 25
--- !u!196 &5
NavMeshSettings:
  serializedVersion: 2
  m_ObjectHideFlags: 0
  m_BuildSettings:
    serializedVersion: 2
    agentRadius: 0.5
    agentHeight: 2
    agentSlope: 45
    agentClimb: 0.4
    ledgeDropHeight: 0
    maxJumpAcrossDistance: 0
    accuratePlacement: 0
    minRegionArea: 2
    cellSize: 0.16666667
    manualCellSize: 0
  m_NavMeshData: {fileID: 0}
--- !u!1 &15627886
GameObject:
  m_ObjectHideFlags: 0
  m_PrefabParentObject: {fileID: 109194, guid: e39e9a09a02695a4b8efddc53c60fec4, type: 2}
  m_PrefabInternal: {fileID: 1423957306}
  serializedVersion: 4
  m_Component:
  - 224: {fileID: 15627887}
  - 222: {fileID: 15627889}
  - 114: {fileID: 15627888}
  m_Layer: 5
  m_Name: Text
  m_TagString: Untagged
  m_Icon: {fileID: 0}
  m_NavMeshLayer: 0
  m_StaticEditorFlags: 0
  m_IsActive: 1
--- !u!224 &15627887
RectTransform:
  m_ObjectHideFlags: 0
  m_PrefabParentObject: {fileID: 22409194, guid: e39e9a09a02695a4b8efddc53c60fec4,
    type: 2}
  m_PrefabInternal: {fileID: 1423957306}
  m_GameObject: {fileID: 15627886}
  m_LocalRotation: {x: 0, y: 0, z: -0.21122366, w: -0.9774378}
  m_LocalPosition: {x: 0, y: 0, z: 0}
  m_LocalScale: {x: 1, y: 1, z: 1}
  m_LocalEulerAnglesHint: {x: 0, y: 0, z: 0}
  m_Children: []
  m_Father: {fileID: 2115362594}
  m_RootOrder: 4
  m_AnchorMin: {x: 0.5, y: 0.5}
  m_AnchorMax: {x: 0.5, y: 0.5}
  m_AnchoredPosition: {x: -78.992325, y: 94.260956}
  m_SizeDelta: {x: 132, y: 102}
  m_Pivot: {x: 0.5, y: 0.5}
--- !u!114 &15627888
MonoBehaviour:
  m_ObjectHideFlags: 0
  m_PrefabParentObject: {fileID: 11409194, guid: e39e9a09a02695a4b8efddc53c60fec4,
    type: 2}
  m_PrefabInternal: {fileID: 1423957306}
  m_GameObject: {fileID: 15627886}
  m_Enabled: 1
  m_EditorHideFlags: 0
  m_Script: {fileID: 708705254, guid: f5f67c52d1564df4a8936ccd202a3bd8, type: 3}
  m_Name: 
  m_EditorClassIdentifier: 
  m_Material: {fileID: 0}
  m_Color: {r: 0.12156863, g: 0.81960785, b: 0.5686275, a: 1}
  m_RaycastTarget: 1
  m_OnCullStateChanged:
    m_PersistentCalls:
      m_Calls: []
    m_TypeName: UnityEngine.UI.MaskableGraphic+CullStateChangedEvent, UnityEngine.UI,
      Version=1.0.0.0, Culture=neutral, PublicKeyToken=null
  m_FontData:
    m_Font: {fileID: 12800000, guid: 7dfc2e1472ac84e1bb749a8a9f934483, type: 3}
    m_FontSize: 40
    m_FontStyle: 0
    m_BestFit: 0
    m_MinSize: 10
    m_MaxSize: 40
    m_Alignment: 4
    m_AlignByGeometry: 0
    m_RichText: 1
    m_HorizontalOverflow: 0
    m_VerticalOverflow: 0
    m_LineSpacing: 1
  m_Text: TAP
--- !u!222 &15627889
CanvasRenderer:
  m_ObjectHideFlags: 0
  m_PrefabParentObject: {fileID: 22209194, guid: e39e9a09a02695a4b8efddc53c60fec4,
    type: 2}
  m_PrefabInternal: {fileID: 1423957306}
  m_GameObject: {fileID: 15627886}
--- !u!1 &75770224
GameObject:
  m_ObjectHideFlags: 0
  m_PrefabParentObject: {fileID: 109200, guid: e39e9a09a02695a4b8efddc53c60fec4, type: 2}
  m_PrefabInternal: {fileID: 1423957306}
  serializedVersion: 4
  m_Component:
  - 224: {fileID: 75770225}
  - 222: {fileID: 75770227}
  - 114: {fileID: 75770226}
  m_Layer: 5
  m_Name: Panel
  m_TagString: Untagged
  m_Icon: {fileID: 0}
  m_NavMeshLayer: 0
  m_StaticEditorFlags: 0
  m_IsActive: 1
--- !u!224 &75770225
RectTransform:
  m_ObjectHideFlags: 0
  m_PrefabParentObject: {fileID: 22409200, guid: e39e9a09a02695a4b8efddc53c60fec4,
    type: 2}
  m_PrefabInternal: {fileID: 1423957306}
  m_GameObject: {fileID: 75770224}
  m_LocalRotation: {x: 0, y: 0, z: 0.14767745, w: 0.9890356}
  m_LocalPosition: {x: 0, y: 0, z: 0}
  m_LocalScale: {x: 1, y: 1, z: 1}
  m_LocalEulerAnglesHint: {x: 0, y: 0, z: 0}
  m_Children: []
  m_Father: {fileID: 2115362594}
  m_RootOrder: 2
  m_AnchorMin: {x: 0.5, y: 0.5}
  m_AnchorMax: {x: 0.5, y: 0.5}
  m_AnchoredPosition: {x: 15.699951, y: -18.300003}
  m_SizeDelta: {x: 21.7, y: 3}
  m_Pivot: {x: 0.5, y: 0.5}
--- !u!114 &75770226
MonoBehaviour:
  m_ObjectHideFlags: 0
  m_PrefabParentObject: {fileID: 11409200, guid: e39e9a09a02695a4b8efddc53c60fec4,
    type: 2}
  m_PrefabInternal: {fileID: 1423957306}
  m_GameObject: {fileID: 75770224}
  m_Enabled: 1
  m_EditorHideFlags: 0
  m_Script: {fileID: -765806418, guid: f5f67c52d1564df4a8936ccd202a3bd8, type: 3}
  m_Name: 
  m_EditorClassIdentifier: 
  m_Material: {fileID: 0}
  m_Color: {r: 0.8745098, g: 0.84313726, b: 0.8039216, a: 1}
  m_RaycastTarget: 1
  m_OnCullStateChanged:
    m_PersistentCalls:
      m_Calls: []
    m_TypeName: UnityEngine.UI.MaskableGraphic+CullStateChangedEvent, UnityEngine.UI,
      Version=1.0.0.0, Culture=neutral, PublicKeyToken=null
  m_Sprite: {fileID: 21300000, guid: 7ed1238760b863f4aafde32ab3a6f28c, type: 3}
  m_Type: 1
  m_PreserveAspect: 0
  m_FillCenter: 1
  m_FillMethod: 4
  m_FillAmount: 1
  m_FillClockwise: 1
  m_FillOrigin: 0
--- !u!222 &75770227
CanvasRenderer:
  m_ObjectHideFlags: 0
  m_PrefabParentObject: {fileID: 22209200, guid: e39e9a09a02695a4b8efddc53c60fec4,
    type: 2}
  m_PrefabInternal: {fileID: 1423957306}
  m_GameObject: {fileID: 75770224}
--- !u!1 &181529658
GameObject:
  m_ObjectHideFlags: 0
  m_PrefabParentObject: {fileID: 109212, guid: e39e9a09a02695a4b8efddc53c60fec4, type: 2}
  m_PrefabInternal: {fileID: 1423957306}
  serializedVersion: 4
  m_Component:
  - 224: {fileID: 181529659}
  - 222: {fileID: 181529661}
  - 114: {fileID: 181529660}
  m_Layer: 5
  m_Name: MapBlocks
  m_TagString: Untagged
  m_Icon: {fileID: 0}
  m_NavMeshLayer: 0
  m_StaticEditorFlags: 0
  m_IsActive: 1
--- !u!224 &181529659
RectTransform:
  m_ObjectHideFlags: 0
  m_PrefabParentObject: {fileID: 22409212, guid: e39e9a09a02695a4b8efddc53c60fec4,
    type: 2}
  m_PrefabInternal: {fileID: 1423957306}
  m_GameObject: {fileID: 181529658}
  m_LocalRotation: {x: 0, y: 0, z: 0, w: 1}
  m_LocalPosition: {x: 0, y: 0, z: 0}
  m_LocalScale: {x: 1, y: 1, z: 1}
  m_LocalEulerAnglesHint: {x: 0, y: 0, z: 0}
  m_Children: []
  m_Father: {fileID: 2110117123}
  m_RootOrder: 3
  m_AnchorMin: {x: 0.5, y: 0.5}
  m_AnchorMax: {x: 0.5, y: 0.5}
  m_AnchoredPosition: {x: 388, y: 249}
  m_SizeDelta: {x: 61, y: 142}
  m_Pivot: {x: 0.5, y: 0.5}
--- !u!114 &181529660
MonoBehaviour:
  m_ObjectHideFlags: 0
  m_PrefabParentObject: {fileID: 11409216, guid: e39e9a09a02695a4b8efddc53c60fec4,
    type: 2}
  m_PrefabInternal: {fileID: 1423957306}
  m_GameObject: {fileID: 181529658}
  m_Enabled: 1
  m_EditorHideFlags: 0
  m_Script: {fileID: -765806418, guid: f5f67c52d1564df4a8936ccd202a3bd8, type: 3}
  m_Name: 
  m_EditorClassIdentifier: 
  m_Material: {fileID: 0}
  m_Color: {r: 0.18431373, g: 0.18431373, b: 0.22745098, a: 1}
  m_RaycastTarget: 1
  m_OnCullStateChanged:
    m_PersistentCalls:
      m_Calls: []
    m_TypeName: UnityEngine.UI.MaskableGraphic+CullStateChangedEvent, UnityEngine.UI,
      Version=1.0.0.0, Culture=neutral, PublicKeyToken=null
  m_Sprite: {fileID: 21300000, guid: 7ed1238760b863f4aafde32ab3a6f28c, type: 3}
  m_Type: 1
  m_PreserveAspect: 0
  m_FillCenter: 1
  m_FillMethod: 4
  m_FillAmount: 1
  m_FillClockwise: 1
  m_FillOrigin: 0
--- !u!222 &181529661
CanvasRenderer:
  m_ObjectHideFlags: 0
  m_PrefabParentObject: {fileID: 22209210, guid: e39e9a09a02695a4b8efddc53c60fec4,
    type: 2}
  m_PrefabInternal: {fileID: 1423957306}
  m_GameObject: {fileID: 181529658}
--- !u!1 &281704498
GameObject:
  m_ObjectHideFlags: 0
  m_PrefabParentObject: {fileID: 109210, guid: e39e9a09a02695a4b8efddc53c60fec4, type: 2}
  m_PrefabInternal: {fileID: 1423957306}
  serializedVersion: 4
  m_Component:
  - 224: {fileID: 281704502}
  - 223: {fileID: 281704501}
  - 114: {fileID: 281704500}
  - 114: {fileID: 281704499}
  m_Layer: 5
  m_Name: GameExample_6
  m_TagString: Untagged
  m_Icon: {fileID: 0}
  m_NavMeshLayer: 0
  m_StaticEditorFlags: 0
  m_IsActive: 1
--- !u!114 &281704499
MonoBehaviour:
  m_ObjectHideFlags: 0
  m_PrefabParentObject: {fileID: 11409212, guid: e39e9a09a02695a4b8efddc53c60fec4,
    type: 2}
  m_PrefabInternal: {fileID: 1423957306}
  m_GameObject: {fileID: 281704498}
  m_Enabled: 1
  m_EditorHideFlags: 0
  m_Script: {fileID: 1301386320, guid: f5f67c52d1564df4a8936ccd202a3bd8, type: 3}
  m_Name: 
  m_EditorClassIdentifier: 
  m_IgnoreReversedGraphics: 1
  m_BlockingObjects: 0
  m_BlockingMask:
    serializedVersion: 2
    m_Bits: 4294967295
--- !u!114 &281704500
MonoBehaviour:
  m_ObjectHideFlags: 0
  m_PrefabParentObject: {fileID: 11409214, guid: e39e9a09a02695a4b8efddc53c60fec4,
    type: 2}
  m_PrefabInternal: {fileID: 1423957306}
  m_GameObject: {fileID: 281704498}
  m_Enabled: 1
  m_EditorHideFlags: 0
  m_Script: {fileID: 1980459831, guid: f5f67c52d1564df4a8936ccd202a3bd8, type: 3}
  m_Name: 
  m_EditorClassIdentifier: 
  m_UiScaleMode: 1
  m_ReferencePixelsPerUnit: 100
  m_ScaleFactor: 1
  m_ReferenceResolution: {x: 1136, y: 640}
  m_ScreenMatchMode: 0
  m_MatchWidthOrHeight: 0
  m_PhysicalUnit: 3
  m_FallbackScreenDPI: 96
  m_DefaultSpriteDPI: 96
  m_DynamicPixelsPerUnit: 1
--- !u!223 &281704501
Canvas:
  m_ObjectHideFlags: 0
  m_PrefabParentObject: {fileID: 22309186, guid: e39e9a09a02695a4b8efddc53c60fec4,
    type: 2}
  m_PrefabInternal: {fileID: 1423957306}
  m_GameObject: {fileID: 281704498}
  m_Enabled: 1
  serializedVersion: 2
  m_RenderMode: 0
  m_Camera: {fileID: 0}
  m_PlaneDistance: 100
  m_PixelPerfect: 1
  m_ReceivesEvents: 1
  m_OverrideSorting: 0
  m_OverridePixelPerfect: 0
  m_SortingBucketNormalizedSize: 0
  m_SortingLayerID: 0
  m_SortingOrder: 0
  m_TargetDisplay: 0
--- !u!224 &281704502
RectTransform:
  m_ObjectHideFlags: 0
  m_PrefabParentObject: {fileID: 22409210, guid: e39e9a09a02695a4b8efddc53c60fec4,
    type: 2}
  m_PrefabInternal: {fileID: 1423957306}
  m_GameObject: {fileID: 281704498}
  m_LocalRotation: {x: 0, y: 0, z: 0, w: 1}
  m_LocalPosition: {x: 0, y: 0, z: 0}
  m_LocalScale: {x: 0, y: 0, z: 0}
  m_LocalEulerAnglesHint: {x: 0, y: 0, z: 0}
  m_Children:
  - {fileID: 1070372146}
  - {fileID: 2110117123}
  m_Father: {fileID: 0}
  m_RootOrder: 0
  m_AnchorMin: {x: 0, y: 0}
  m_AnchorMax: {x: 0, y: 0}
  m_AnchoredPosition: {x: 0, y: 0}
  m_SizeDelta: {x: 0, y: 0}
  m_Pivot: {x: 0, y: 0}
--- !u!1 &357854659
GameObject:
  m_ObjectHideFlags: 0
  m_PrefabParentObject: {fileID: 109218, guid: e39e9a09a02695a4b8efddc53c60fec4, type: 2}
  m_PrefabInternal: {fileID: 1423957306}
  serializedVersion: 4
  m_Component:
  - 224: {fileID: 357854660}
  - 222: {fileID: 357854662}
  - 114: {fileID: 357854661}
  m_Layer: 5
  m_Name: Panel
  m_TagString: Untagged
  m_Icon: {fileID: 0}
  m_NavMeshLayer: 0
  m_StaticEditorFlags: 0
  m_IsActive: 1
--- !u!224 &357854660
RectTransform:
  m_ObjectHideFlags: 0
  m_PrefabParentObject: {fileID: 22409218, guid: e39e9a09a02695a4b8efddc53c60fec4,
    type: 2}
  m_PrefabInternal: {fileID: 1423957306}
  m_GameObject: {fileID: 357854659}
  m_LocalRotation: {x: 0, y: 0, z: 0, w: 1}
  m_LocalPosition: {x: 0, y: 0, z: 0}
  m_LocalScale: {x: 1, y: 1, z: 1}
  m_LocalEulerAnglesHint: {x: 0, y: 0, z: 0}
  m_Children: []
  m_Father: {fileID: 2115362594}
  m_RootOrder: 0
  m_AnchorMin: {x: 0.5, y: 0.5}
  m_AnchorMax: {x: 0.5, y: 0.5}
  m_AnchoredPosition: {x: 0, y: 18.400002}
  m_SizeDelta: {x: 57, y: 6.7}
  m_Pivot: {x: 0.5, y: 0.5}
--- !u!114 &357854661
MonoBehaviour:
  m_ObjectHideFlags: 0
  m_PrefabParentObject: {fileID: 11409222, guid: e39e9a09a02695a4b8efddc53c60fec4,
    type: 2}
  m_PrefabInternal: {fileID: 1423957306}
  m_GameObject: {fileID: 357854659}
  m_Enabled: 1
  m_EditorHideFlags: 0
  m_Script: {fileID: -765806418, guid: f5f67c52d1564df4a8936ccd202a3bd8, type: 3}
  m_Name: 
  m_EditorClassIdentifier: 
  m_Material: {fileID: 0}
  m_Color: {r: 0.9529412, g: 0.2901961, b: 0.4117647, a: 1}
  m_RaycastTarget: 1
  m_OnCullStateChanged:
    m_PersistentCalls:
      m_Calls: []
    m_TypeName: UnityEngine.UI.MaskableGraphic+CullStateChangedEvent, UnityEngine.UI,
      Version=1.0.0.0, Culture=neutral, PublicKeyToken=null
  m_Sprite: {fileID: 21300000, guid: 7ed1238760b863f4aafde32ab3a6f28c, type: 3}
  m_Type: 1
  m_PreserveAspect: 0
  m_FillCenter: 1
  m_FillMethod: 4
  m_FillAmount: 1
  m_FillClockwise: 1
  m_FillOrigin: 0
--- !u!222 &357854662
CanvasRenderer:
  m_ObjectHideFlags: 0
  m_PrefabParentObject: {fileID: 22209216, guid: e39e9a09a02695a4b8efddc53c60fec4,
    type: 2}
  m_PrefabInternal: {fileID: 1423957306}
  m_GameObject: {fileID: 357854659}
--- !u!1 &523730739
GameObject:
  m_ObjectHideFlags: 0
  m_PrefabParentObject: {fileID: 109198, guid: e39e9a09a02695a4b8efddc53c60fec4, type: 2}
  m_PrefabInternal: {fileID: 1423957306}
  serializedVersion: 4
  m_Component:
  - 224: {fileID: 523730740}
  - 222: {fileID: 523730742}
  - 114: {fileID: 523730741}
  m_Layer: 5
  m_Name: AppTitle
  m_TagString: Untagged
  m_Icon: {fileID: 0}
  m_NavMeshLayer: 0
  m_StaticEditorFlags: 0
  m_IsActive: 1
--- !u!224 &523730740
RectTransform:
  m_ObjectHideFlags: 0
  m_PrefabParentObject: {fileID: 22409198, guid: e39e9a09a02695a4b8efddc53c60fec4,
    type: 2}
  m_PrefabInternal: {fileID: 1423957306}
  m_GameObject: {fileID: 523730739}
  m_LocalRotation: {x: 0, y: 0, z: 0, w: 1}
  m_LocalPosition: {x: 0, y: 0, z: 0}
  m_LocalScale: {x: 1, y: 1, z: 1}
  m_LocalEulerAnglesHint: {x: 0, y: 0, z: 0}
  m_Children: []
  m_Father: {fileID: 1070372146}
  m_RootOrder: 0
  m_AnchorMin: {x: 0.5, y: 0.5}
  m_AnchorMax: {x: 0.5, y: 0.5}
  m_AnchoredPosition: {x: 295, y: -68}
  m_SizeDelta: {x: 695, y: 109}
  m_Pivot: {x: 0.5, y: 0.5}
--- !u!114 &523730741
MonoBehaviour:
  m_ObjectHideFlags: 0
  m_PrefabParentObject: {fileID: 11409198, guid: e39e9a09a02695a4b8efddc53c60fec4,
    type: 2}
  m_PrefabInternal: {fileID: 1423957306}
  m_GameObject: {fileID: 523730739}
  m_Enabled: 1
  m_EditorHideFlags: 0
  m_Script: {fileID: 708705254, guid: f5f67c52d1564df4a8936ccd202a3bd8, type: 3}
  m_Name: 
  m_EditorClassIdentifier: 
  m_Material: {fileID: 0}
  m_Color: {r: 0.85490197, g: 0.85490197, b: 0.85490197, a: 1}
  m_RaycastTarget: 1
  m_OnCullStateChanged:
    m_PersistentCalls:
      m_Calls: []
    m_TypeName: UnityEngine.UI.MaskableGraphic+CullStateChangedEvent, UnityEngine.UI,
      Version=1.0.0.0, Culture=neutral, PublicKeyToken=null
  m_FontData:
    m_Font: {fileID: 12800000, guid: 218956a5c2a6e42d6a60afccf80b002b, type: 3}
    m_FontSize: 40
    m_FontStyle: 0
    m_BestFit: 0
    m_MinSize: 10
    m_MaxSize: 40
    m_Alignment: 0
    m_AlignByGeometry: 0
    m_RichText: 1
    m_HorizontalOverflow: 0
    m_VerticalOverflow: 1
    m_LineSpacing: 1
  m_Text: EXAMPLE
--- !u!222 &523730742
CanvasRenderer:
  m_ObjectHideFlags: 0
  m_PrefabParentObject: {fileID: 22209198, guid: e39e9a09a02695a4b8efddc53c60fec4,
    type: 2}
  m_PrefabInternal: {fileID: 1423957306}
  m_GameObject: {fileID: 523730739}
--- !u!1 &713469040
GameObject:
  m_ObjectHideFlags: 0
  m_PrefabParentObject: {fileID: 109224, guid: e39e9a09a02695a4b8efddc53c60fec4, type: 2}
  m_PrefabInternal: {fileID: 1423957306}
  serializedVersion: 4
  m_Component:
  - 224: {fileID: 713469041}
  - 222: {fileID: 713469043}
  - 114: {fileID: 713469042}
  m_Layer: 5
  m_Name: Text
  m_TagString: Untagged
  m_Icon: {fileID: 0}
  m_NavMeshLayer: 0
  m_StaticEditorFlags: 0
  m_IsActive: 1
--- !u!224 &713469041
RectTransform:
  m_ObjectHideFlags: 0
  m_PrefabParentObject: {fileID: 22409224, guid: e39e9a09a02695a4b8efddc53c60fec4,
    type: 2}
  m_PrefabInternal: {fileID: 1423957306}
  m_GameObject: {fileID: 713469040}
  m_LocalRotation: {x: 0, y: 0, z: 0, w: 1}
  m_LocalPosition: {x: 0, y: 0, z: 0}
  m_LocalScale: {x: 1, y: 1, z: 1}
  m_LocalEulerAnglesHint: {x: 0, y: 0, z: 0}
  m_Children: []
  m_Father: {fileID: 1688262556}
  m_RootOrder: 3
  m_AnchorMin: {x: 0.5, y: 0.5}
  m_AnchorMax: {x: 0.5, y: 0.5}
  m_AnchoredPosition: {x: 306, y: 0}
  m_SizeDelta: {x: 294, y: 102}
  m_Pivot: {x: 0.5, y: 0.5}
--- !u!114 &713469042
MonoBehaviour:
  m_ObjectHideFlags: 0
  m_PrefabParentObject: {fileID: 11409228, guid: e39e9a09a02695a4b8efddc53c60fec4,
    type: 2}
  m_PrefabInternal: {fileID: 1423957306}
  m_GameObject: {fileID: 713469040}
  m_Enabled: 1
  m_EditorHideFlags: 0
  m_Script: {fileID: 708705254, guid: f5f67c52d1564df4a8936ccd202a3bd8, type: 3}
  m_Name: 
  m_EditorClassIdentifier: 
  m_Material: {fileID: 0}
  m_Color: {r: 0.9490196, g: 0.2901961, b: 0.4117647, a: 1}
  m_RaycastTarget: 1
  m_OnCullStateChanged:
    m_PersistentCalls:
      m_Calls: []
    m_TypeName: UnityEngine.UI.MaskableGraphic+CullStateChangedEvent, UnityEngine.UI,
      Version=1.0.0.0, Culture=neutral, PublicKeyToken=null
  m_FontData:
    m_Font: {fileID: 12800000, guid: 7dfc2e1472ac84e1bb749a8a9f934483, type: 3}
    m_FontSize: 40
    m_FontStyle: 0
    m_BestFit: 0
    m_MinSize: 10
    m_MaxSize: 40
    m_Alignment: 5
    m_AlignByGeometry: 0
    m_RichText: 1
    m_HorizontalOverflow: 0
    m_VerticalOverflow: 0
    m_LineSpacing: 1
  m_Text: TIME 0:23
--- !u!222 &713469043
CanvasRenderer:
  m_ObjectHideFlags: 0
  m_PrefabParentObject: {fileID: 22209222, guid: e39e9a09a02695a4b8efddc53c60fec4,
    type: 2}
  m_PrefabInternal: {fileID: 1423957306}
  m_GameObject: {fileID: 713469040}
--- !u!1 &741983532
GameObject:
  m_ObjectHideFlags: 0
  m_PrefabParentObject: {fileID: 109192, guid: e39e9a09a02695a4b8efddc53c60fec4, type: 2}
  m_PrefabInternal: {fileID: 1423957306}
  serializedVersion: 4
  m_Component:
  - 224: {fileID: 741983533}
  - 222: {fileID: 741983535}
  - 114: {fileID: 741983534}
  m_Layer: 5
  m_Name: MapBlocks
  m_TagString: Untagged
  m_Icon: {fileID: 0}
  m_NavMeshLayer: 0
  m_StaticEditorFlags: 0
  m_IsActive: 1
--- !u!224 &741983533
RectTransform:
  m_ObjectHideFlags: 0
  m_PrefabParentObject: {fileID: 22409192, guid: e39e9a09a02695a4b8efddc53c60fec4,
    type: 2}
  m_PrefabInternal: {fileID: 1423957306}
  m_GameObject: {fileID: 741983532}
  m_LocalRotation: {x: 0, y: 0, z: 0, w: 1}
  m_LocalPosition: {x: 0, y: 0, z: 0}
  m_LocalScale: {x: 1, y: 1, z: 1}
  m_LocalEulerAnglesHint: {x: 0, y: 0, z: 0}
  m_Children: []
  m_Father: {fileID: 2110117123}
  m_RootOrder: 2
  m_AnchorMin: {x: 0.5, y: 0.5}
  m_AnchorMax: {x: 0.5, y: 0.5}
  m_AnchoredPosition: {x: 182, y: 177.25}
  m_SizeDelta: {x: 61, y: 283.5}
  m_Pivot: {x: 0.5, y: 0.5}
--- !u!114 &741983534
MonoBehaviour:
  m_ObjectHideFlags: 0
  m_PrefabParentObject: {fileID: 11409192, guid: e39e9a09a02695a4b8efddc53c60fec4,
    type: 2}
  m_PrefabInternal: {fileID: 1423957306}
  m_GameObject: {fileID: 741983532}
  m_Enabled: 1
  m_EditorHideFlags: 0
  m_Script: {fileID: -765806418, guid: f5f67c52d1564df4a8936ccd202a3bd8, type: 3}
  m_Name: 
  m_EditorClassIdentifier: 
  m_Material: {fileID: 0}
  m_Color: {r: 0.18431373, g: 0.18431373, b: 0.22745098, a: 1}
  m_RaycastTarget: 1
  m_OnCullStateChanged:
    m_PersistentCalls:
      m_Calls: []
    m_TypeName: UnityEngine.UI.MaskableGraphic+CullStateChangedEvent, UnityEngine.UI,
      Version=1.0.0.0, Culture=neutral, PublicKeyToken=null
  m_Sprite: {fileID: 21300000, guid: 7ed1238760b863f4aafde32ab3a6f28c, type: 3}
  m_Type: 1
  m_PreserveAspect: 0
  m_FillCenter: 1
  m_FillMethod: 4
  m_FillAmount: 1
  m_FillClockwise: 1
  m_FillOrigin: 0
--- !u!222 &741983535
CanvasRenderer:
  m_ObjectHideFlags: 0
  m_PrefabParentObject: {fileID: 22209192, guid: e39e9a09a02695a4b8efddc53c60fec4,
    type: 2}
  m_PrefabInternal: {fileID: 1423957306}
  m_GameObject: {fileID: 741983532}
--- !u!1 &804817490
GameObject:
  m_ObjectHideFlags: 0
  m_PrefabParentObject: {fileID: 109208, guid: e39e9a09a02695a4b8efddc53c60fec4, type: 2}
  m_PrefabInternal: {fileID: 1423957306}
  serializedVersion: 4
  m_Component:
  - 224: {fileID: 804817491}
  - 222: {fileID: 804817493}
  - 114: {fileID: 804817492}
  m_Layer: 5
  m_Name: Text
  m_TagString: Untagged
  m_Icon: {fileID: 0}
  m_NavMeshLayer: 0
  m_StaticEditorFlags: 0
  m_IsActive: 1
--- !u!224 &804817491
RectTransform:
  m_ObjectHideFlags: 0
  m_PrefabParentObject: {fileID: 22409208, guid: e39e9a09a02695a4b8efddc53c60fec4,
    type: 2}
  m_PrefabInternal: {fileID: 1423957306}
  m_GameObject: {fileID: 804817490}
  m_LocalRotation: {x: 0, y: 0, z: 0.05749819, w: 0.9983457}
  m_LocalPosition: {x: 0, y: 0, z: 0}
  m_LocalScale: {x: 1, y: 1, z: 1}
  m_LocalEulerAnglesHint: {x: 0, y: 0, z: 0}
  m_Children: []
  m_Father: {fileID: 2115362594}
  m_RootOrder: 3
  m_AnchorMin: {x: 0.5, y: 0.5}
  m_AnchorMax: {x: 0.5, y: 0.5}
  m_AnchoredPosition: {x: -139.3003, y: 36.720123}
  m_SizeDelta: {x: 132, y: 102}
  m_Pivot: {x: 0.5, y: 0.5}
--- !u!114 &804817492
MonoBehaviour:
  m_ObjectHideFlags: 0
  m_PrefabParentObject: {fileID: 11409210, guid: e39e9a09a02695a4b8efddc53c60fec4,
    type: 2}
  m_PrefabInternal: {fileID: 1423957306}
  m_GameObject: {fileID: 804817490}
  m_Enabled: 1
  m_EditorHideFlags: 0
  m_Script: {fileID: 708705254, guid: f5f67c52d1564df4a8936ccd202a3bd8, type: 3}
  m_Name: 
  m_EditorClassIdentifier: 
  m_Material: {fileID: 0}
  m_Color: {r: 0.12156863, g: 0.81960785, b: 0.5686275, a: 1}
  m_RaycastTarget: 1
  m_OnCullStateChanged:
    m_PersistentCalls:
      m_Calls: []
    m_TypeName: UnityEngine.UI.MaskableGraphic+CullStateChangedEvent, UnityEngine.UI,
      Version=1.0.0.0, Culture=neutral, PublicKeyToken=null
  m_FontData:
    m_Font: {fileID: 12800000, guid: 7dfc2e1472ac84e1bb749a8a9f934483, type: 3}
    m_FontSize: 60
    m_FontStyle: 0
    m_BestFit: 0
    m_MinSize: 10
    m_MaxSize: 60
    m_Alignment: 4
    m_AlignByGeometry: 0
    m_RichText: 1
    m_HorizontalOverflow: 0
    m_VerticalOverflow: 0
    m_LineSpacing: 1
  m_Text: TAP
--- !u!222 &804817493
CanvasRenderer:
  m_ObjectHideFlags: 0
  m_PrefabParentObject: {fileID: 22209208, guid: e39e9a09a02695a4b8efddc53c60fec4,
    type: 2}
  m_PrefabInternal: {fileID: 1423957306}
  m_GameObject: {fileID: 804817490}
--- !u!1 &940766580
GameObject:
  m_ObjectHideFlags: 0
  m_PrefabParentObject: {fileID: 109190, guid: e39e9a09a02695a4b8efddc53c60fec4, type: 2}
  m_PrefabInternal: {fileID: 1423957306}
  serializedVersion: 4
  m_Component:
  - 224: {fileID: 940766581}
  - 222: {fileID: 940766583}
  - 114: {fileID: 940766582}
  m_Layer: 5
  m_Name: Panel
  m_TagString: Untagged
  m_Icon: {fileID: 0}
  m_NavMeshLayer: 0
  m_StaticEditorFlags: 0
  m_IsActive: 1
--- !u!224 &940766581
RectTransform:
  m_ObjectHideFlags: 0
  m_PrefabParentObject: {fileID: 22409190, guid: e39e9a09a02695a4b8efddc53c60fec4,
    type: 2}
  m_PrefabInternal: {fileID: 1423957306}
  m_GameObject: {fileID: 940766580}
  m_LocalRotation: {x: 0, y: 0, z: 0, w: 1}
  m_LocalPosition: {x: 0, y: 0, z: 0}
  m_LocalScale: {x: 1, y: 1, z: 1}
  m_LocalEulerAnglesHint: {x: 0, y: 0, z: 0}
  m_Children: []
  m_Father: {fileID: 1688262556}
  m_RootOrder: 1
  m_AnchorMin: {x: 0.5, y: 0.5}
  m_AnchorMax: {x: 0.5, y: 0.5}
  m_AnchoredPosition: {x: -493, y: 0}
  m_SizeDelta: {x: 45, y: 44}
  m_Pivot: {x: 0.5, y: 0.5}
--- !u!114 &940766582
MonoBehaviour:
  m_ObjectHideFlags: 0
  m_PrefabParentObject: {fileID: 11409190, guid: e39e9a09a02695a4b8efddc53c60fec4,
    type: 2}
  m_PrefabInternal: {fileID: 1423957306}
  m_GameObject: {fileID: 940766580}
  m_Enabled: 1
  m_EditorHideFlags: 0
  m_Script: {fileID: -765806418, guid: f5f67c52d1564df4a8936ccd202a3bd8, type: 3}
  m_Name: 
  m_EditorClassIdentifier: 
  m_Material: {fileID: 0}
  m_Color: {r: 0.12156863, g: 0.8156863, b: 0.5647059, a: 1}
  m_RaycastTarget: 1
  m_OnCullStateChanged:
    m_PersistentCalls:
      m_Calls: []
    m_TypeName: UnityEngine.UI.MaskableGraphic+CullStateChangedEvent, UnityEngine.UI,
      Version=1.0.0.0, Culture=neutral, PublicKeyToken=null
  m_Sprite: {fileID: 21300000, guid: f04f7faa5cfd8444a9b61e426135725f, type: 3}
  m_Type: 0
  m_PreserveAspect: 0
  m_FillCenter: 1
  m_FillMethod: 4
  m_FillAmount: 1
  m_FillClockwise: 1
  m_FillOrigin: 0
--- !u!222 &940766583
CanvasRenderer:
  m_ObjectHideFlags: 0
  m_PrefabParentObject: {fileID: 22209190, guid: e39e9a09a02695a4b8efddc53c60fec4,
    type: 2}
  m_PrefabInternal: {fileID: 1423957306}
  m_GameObject: {fileID: 940766580}
--- !u!1 &1070372145
GameObject:
  m_ObjectHideFlags: 0
  m_PrefabParentObject: {fileID: 109220, guid: e39e9a09a02695a4b8efddc53c60fec4, type: 2}
  m_PrefabInternal: {fileID: 1423957306}
  serializedVersion: 4
  m_Component:
  - 224: {fileID: 1070372146}
  - 222: {fileID: 1070372148}
  - 114: {fileID: 1070372147}
  m_Layer: 5
  m_Name: AppTitle
  m_TagString: Untagged
  m_Icon: {fileID: 0}
  m_NavMeshLayer: 0
  m_StaticEditorFlags: 0
  m_IsActive: 1
--- !u!224 &1070372146
RectTransform:
  m_ObjectHideFlags: 0
  m_PrefabParentObject: {fileID: 22409220, guid: e39e9a09a02695a4b8efddc53c60fec4,
    type: 2}
  m_PrefabInternal: {fileID: 1423957306}
  m_GameObject: {fileID: 1070372145}
  m_LocalRotation: {x: 0, y: 0, z: 0, w: 1}
  m_LocalPosition: {x: 0, y: 0, z: 0}
  m_LocalScale: {x: 1, y: 1, z: 1}
  m_LocalEulerAnglesHint: {x: 0, y: 0, z: 0}
  m_Children:
  - {fileID: 523730740}
  m_Father: {fileID: 281704502}
  m_RootOrder: 0
  m_AnchorMin: {x: 0, y: 0}
  m_AnchorMax: {x: 0, y: 0}
  m_AnchoredPosition: {x: 347.5, y: 706}
  m_SizeDelta: {x: 695, y: 109}
  m_Pivot: {x: 0.5, y: 0.5}
--- !u!114 &1070372147
MonoBehaviour:
  m_ObjectHideFlags: 0
  m_PrefabParentObject: {fileID: 11409224, guid: e39e9a09a02695a4b8efddc53c60fec4,
    type: 2}
  m_PrefabInternal: {fileID: 1423957306}
  m_GameObject: {fileID: 1070372145}
  m_Enabled: 1
  m_EditorHideFlags: 0
  m_Script: {fileID: 708705254, guid: f5f67c52d1564df4a8936ccd202a3bd8, type: 3}
  m_Name: 
  m_EditorClassIdentifier: 
  m_Material: {fileID: 0}
  m_Color: {r: 0.85490197, g: 0.85490197, b: 0.85490197, a: 1}
  m_RaycastTarget: 1
  m_OnCullStateChanged:
    m_PersistentCalls:
      m_Calls: []
    m_TypeName: UnityEngine.UI.MaskableGraphic+CullStateChangedEvent, UnityEngine.UI,
      Version=1.0.0.0, Culture=neutral, PublicKeyToken=null
  m_FontData:
    m_Font: {fileID: 12800000, guid: 218956a5c2a6e42d6a60afccf80b002b, type: 3}
    m_FontSize: 102
    m_FontStyle: 0
    m_BestFit: 0
    m_MinSize: 10
    m_MaxSize: 102
    m_Alignment: 0
    m_AlignByGeometry: 0
    m_RichText: 1
    m_HorizontalOverflow: 0
    m_VerticalOverflow: 1
    m_LineSpacing: 1
  m_Text: GAME
--- !u!222 &1070372148
CanvasRenderer:
  m_ObjectHideFlags: 0
  m_PrefabParentObject: {fileID: 22209218, guid: e39e9a09a02695a4b8efddc53c60fec4,
    type: 2}
  m_PrefabInternal: {fileID: 1423957306}
  m_GameObject: {fileID: 1070372145}
--- !u!1 &1288536790
GameObject:
  m_ObjectHideFlags: 0
  m_PrefabParentObject: {fileID: 109222, guid: e39e9a09a02695a4b8efddc53c60fec4, type: 2}
  m_PrefabInternal: {fileID: 1423957306}
  serializedVersion: 4
  m_Component:
  - 224: {fileID: 1288536791}
  - 222: {fileID: 1288536793}
  - 114: {fileID: 1288536792}
  m_Layer: 5
  m_Name: MapBlocks
  m_TagString: Untagged
  m_Icon: {fileID: 0}
  m_NavMeshLayer: 0
  m_StaticEditorFlags: 0
  m_IsActive: 1
--- !u!224 &1288536791
RectTransform:
  m_ObjectHideFlags: 0
  m_PrefabParentObject: {fileID: 22409222, guid: e39e9a09a02695a4b8efddc53c60fec4,
    type: 2}
  m_PrefabInternal: {fileID: 1423957306}
  m_GameObject: {fileID: 1288536790}
  m_LocalRotation: {x: 0, y: 0, z: 0, w: 1}
  m_LocalPosition: {x: 0, y: 0, z: 0}
  m_LocalScale: {x: 1, y: 1, z: 1}
  m_LocalEulerAnglesHint: {x: 0, y: 0, z: 0}
  m_Children: []
  m_Father: {fileID: 2110117123}
  m_RootOrder: 1
  m_AnchorMin: {x: 0.5, y: 0.5}
  m_AnchorMax: {x: 0.5, y: 0.5}
  m_AnchoredPosition: {x: -78, y: 239}
  m_SizeDelta: {x: 61, y: 162}
  m_Pivot: {x: 0.5, y: 0.5}
--- !u!114 &1288536792
MonoBehaviour:
  m_ObjectHideFlags: 0
  m_PrefabParentObject: {fileID: 11409226, guid: e39e9a09a02695a4b8efddc53c60fec4,
    type: 2}
  m_PrefabInternal: {fileID: 1423957306}
  m_GameObject: {fileID: 1288536790}
  m_Enabled: 1
  m_EditorHideFlags: 0
  m_Script: {fileID: -765806418, guid: f5f67c52d1564df4a8936ccd202a3bd8, type: 3}
  m_Name: 
  m_EditorClassIdentifier: 
  m_Material: {fileID: 0}
  m_Color: {r: 0.18431373, g: 0.18431373, b: 0.22745098, a: 1}
  m_RaycastTarget: 1
  m_OnCullStateChanged:
    m_PersistentCalls:
      m_Calls: []
    m_TypeName: UnityEngine.UI.MaskableGraphic+CullStateChangedEvent, UnityEngine.UI,
      Version=1.0.0.0, Culture=neutral, PublicKeyToken=null
  m_Sprite: {fileID: 21300000, guid: 7ed1238760b863f4aafde32ab3a6f28c, type: 3}
  m_Type: 1
  m_PreserveAspect: 0
  m_FillCenter: 1
  m_FillMethod: 4
  m_FillAmount: 1
  m_FillClockwise: 1
  m_FillOrigin: 0
--- !u!222 &1288536793
CanvasRenderer:
  m_ObjectHideFlags: 0
  m_PrefabParentObject: {fileID: 22209220, guid: e39e9a09a02695a4b8efddc53c60fec4,
    type: 2}
  m_PrefabInternal: {fileID: 1423957306}
  m_GameObject: {fileID: 1288536790}
--- !u!1001 &1423957306
Prefab:
  m_ObjectHideFlags: 0
  serializedVersion: 2
  m_Modification:
    m_TransformParent: {fileID: 0}
    m_Modifications:
    - target: {fileID: 22409210, guid: e39e9a09a02695a4b8efddc53c60fec4, type: 2}
      propertyPath: m_LocalPosition.x
      value: 0
      objectReference: {fileID: 0}
    - target: {fileID: 22409210, guid: e39e9a09a02695a4b8efddc53c60fec4, type: 2}
      propertyPath: m_LocalPosition.y
      value: 0
      objectReference: {fileID: 0}
    - target: {fileID: 22409210, guid: e39e9a09a02695a4b8efddc53c60fec4, type: 2}
      propertyPath: m_LocalPosition.z
      value: 0
      objectReference: {fileID: 0}
    - target: {fileID: 22409210, guid: e39e9a09a02695a4b8efddc53c60fec4, type: 2}
      propertyPath: m_LocalRotation.x
      value: 0
      objectReference: {fileID: 0}
    - target: {fileID: 22409210, guid: e39e9a09a02695a4b8efddc53c60fec4, type: 2}
      propertyPath: m_LocalRotation.y
      value: 0
      objectReference: {fileID: 0}
    - target: {fileID: 22409210, guid: e39e9a09a02695a4b8efddc53c60fec4, type: 2}
      propertyPath: m_LocalRotation.z
      value: 0
      objectReference: {fileID: 0}
    - target: {fileID: 22409210, guid: e39e9a09a02695a4b8efddc53c60fec4, type: 2}
      propertyPath: m_LocalRotation.w
      value: 1
      objectReference: {fileID: 0}
    - target: {fileID: 22409210, guid: e39e9a09a02695a4b8efddc53c60fec4, type: 2}
      propertyPath: m_RootOrder
      value: 0
      objectReference: {fileID: 0}
    - target: {fileID: 22409210, guid: e39e9a09a02695a4b8efddc53c60fec4, type: 2}
      propertyPath: m_AnchoredPosition.x
      value: 0
      objectReference: {fileID: 0}
    - target: {fileID: 22409210, guid: e39e9a09a02695a4b8efddc53c60fec4, type: 2}
      propertyPath: m_AnchoredPosition.y
      value: 0
      objectReference: {fileID: 0}
    - target: {fileID: 22409210, guid: e39e9a09a02695a4b8efddc53c60fec4, type: 2}
      propertyPath: m_SizeDelta.x
      value: 0
      objectReference: {fileID: 0}
    - target: {fileID: 22409210, guid: e39e9a09a02695a4b8efddc53c60fec4, type: 2}
      propertyPath: m_SizeDelta.y
      value: 0
      objectReference: {fileID: 0}
    - target: {fileID: 22409210, guid: e39e9a09a02695a4b8efddc53c60fec4, type: 2}
      propertyPath: m_AnchorMin.x
      value: 0
      objectReference: {fileID: 0}
    - target: {fileID: 22409210, guid: e39e9a09a02695a4b8efddc53c60fec4, type: 2}
      propertyPath: m_AnchorMin.y
      value: 0
      objectReference: {fileID: 0}
    - target: {fileID: 22409210, guid: e39e9a09a02695a4b8efddc53c60fec4, type: 2}
      propertyPath: m_AnchorMax.x
      value: 0
      objectReference: {fileID: 0}
    - target: {fileID: 22409210, guid: e39e9a09a02695a4b8efddc53c60fec4, type: 2}
      propertyPath: m_AnchorMax.y
      value: 0
      objectReference: {fileID: 0}
    - target: {fileID: 22409210, guid: e39e9a09a02695a4b8efddc53c60fec4, type: 2}
      propertyPath: m_Pivot.x
      value: 0
      objectReference: {fileID: 0}
    - target: {fileID: 22409210, guid: e39e9a09a02695a4b8efddc53c60fec4, type: 2}
      propertyPath: m_Pivot.y
      value: 0
      objectReference: {fileID: 0}
    m_RemovedComponents: []
  m_ParentPrefab: {fileID: 100100000, guid: e39e9a09a02695a4b8efddc53c60fec4, type: 2}
  m_RootGameObject: {fileID: 281704498}
  m_IsPrefabParent: 0
--- !u!1 &1500371475
GameObject:
  m_ObjectHideFlags: 0
  m_PrefabParentObject: {fileID: 0}
  m_PrefabInternal: {fileID: 0}
  serializedVersion: 4
  m_Component:
  - 4: {fileID: 1500371479}
  - 114: {fileID: 1500371478}
  - 114: {fileID: 1500371477}
  - 114: {fileID: 1500371476}
  m_Layer: 0
  m_Name: EventSystem
  m_TagString: Untagged
  m_Icon: {fileID: 0}
  m_NavMeshLayer: 0
  m_StaticEditorFlags: 0
  m_IsActive: 1
--- !u!114 &1500371476
MonoBehaviour:
  m_ObjectHideFlags: 0
  m_PrefabParentObject: {fileID: 0}
  m_PrefabInternal: {fileID: 0}
  m_GameObject: {fileID: 1500371475}
  m_Enabled: 1
  m_EditorHideFlags: 0
  m_Script: {fileID: 1997211142, guid: f5f67c52d1564df4a8936ccd202a3bd8, type: 3}
  m_Name: 
  m_EditorClassIdentifier: 
  m_ForceModuleActive: 0
--- !u!114 &1500371477
MonoBehaviour:
  m_ObjectHideFlags: 0
  m_PrefabParentObject: {fileID: 0}
  m_PrefabInternal: {fileID: 0}
  m_GameObject: {fileID: 1500371475}
  m_Enabled: 1
  m_EditorHideFlags: 0
  m_Script: {fileID: 1077351063, guid: f5f67c52d1564df4a8936ccd202a3bd8, type: 3}
  m_Name: 
  m_EditorClassIdentifier: 
  m_HorizontalAxis: Horizontal
  m_VerticalAxis: Vertical
  m_SubmitButton: Submit
  m_CancelButton: Cancel
  m_InputActionsPerSecond: 10
  m_RepeatDelay: 0.5
  m_ForceModuleActive: 0
--- !u!114 &1500371478
MonoBehaviour:
  m_ObjectHideFlags: 0
  m_PrefabParentObject: {fileID: 0}
  m_PrefabInternal: {fileID: 0}
  m_GameObject: {fileID: 1500371475}
  m_Enabled: 1
  m_EditorHideFlags: 0
  m_Script: {fileID: -619905303, guid: f5f67c52d1564df4a8936ccd202a3bd8, type: 3}
  m_Name: 
  m_EditorClassIdentifier: 
  m_FirstSelected: {fileID: 0}
  m_sendNavigationEvents: 1
  m_DragThreshold: 5
--- !u!4 &1500371479
Transform:
  m_ObjectHideFlags: 0
  m_PrefabParentObject: {fileID: 0}
  m_PrefabInternal: {fileID: 0}
  m_GameObject: {fileID: 1500371475}
  m_LocalRotation: {x: 0, y: 0, z: 0, w: 1}
  m_LocalPosition: {x: 0, y: 0, z: 0}
  m_LocalScale: {x: 1, y: 1, z: 1}
  m_LocalEulerAnglesHint: {x: 0, y: 0, z: 0}
  m_Children: []
  m_Father: {fileID: 0}
  m_RootOrder: 1
--- !u!1 &1511305452
GameObject:
  m_ObjectHideFlags: 0
  m_PrefabParentObject: {fileID: 0}
  m_PrefabInternal: {fileID: 0}
  serializedVersion: 4
  m_Component:
  - 4: {fileID: 1511305453}
  m_Layer: 0
  m_Name: __SET_YOUR_GAMESCREEN_TO_1136x640
  m_TagString: Untagged
  m_Icon: {fileID: 0}
  m_NavMeshLayer: 0
  m_StaticEditorFlags: 0
  m_IsActive: 1
--- !u!4 &1511305453
Transform:
  m_ObjectHideFlags: 0
  m_PrefabParentObject: {fileID: 0}
  m_PrefabInternal: {fileID: 0}
  m_GameObject: {fileID: 1511305452}
  m_LocalRotation: {x: 0, y: 0, z: 0, w: 1}
  m_LocalPosition: {x: 494.995, y: 627.74, z: 0}
  m_LocalScale: {x: 1, y: 1, z: 1}
  m_LocalEulerAnglesHint: {x: 0, y: 0, z: 0}
  m_Children: []
  m_Father: {fileID: 0}
  m_RootOrder: 2
--- !u!1 &1517145217
GameObject:
  m_ObjectHideFlags: 0
  m_PrefabParentObject: {fileID: 109226, guid: e39e9a09a02695a4b8efddc53c60fec4, type: 2}
  m_PrefabInternal: {fileID: 1423957306}
  serializedVersion: 4
  m_Component:
  - 224: {fileID: 1517145218}
  - 222: {fileID: 1517145220}
  - 114: {fileID: 1517145219}
  m_Layer: 5
  m_Name: MapBlocks
  m_TagString: Untagged
  m_Icon: {fileID: 0}
  m_NavMeshLayer: 0
  m_StaticEditorFlags: 0
  m_IsActive: 1
--- !u!224 &1517145218
RectTransform:
  m_ObjectHideFlags: 0
  m_PrefabParentObject: {fileID: 22409226, guid: e39e9a09a02695a4b8efddc53c60fec4,
    type: 2}
  m_PrefabInternal: {fileID: 1423957306}
  m_GameObject: {fileID: 1517145217}
  m_LocalRotation: {x: 0, y: 0, z: 0, w: 1}
  m_LocalPosition: {x: 0, y: 0, z: 0}
  m_LocalScale: {x: 1, y: 1, z: 1}
  m_LocalEulerAnglesHint: {x: 0, y: 0, z: 0}
  m_Children: []
  m_Father: {fileID: 2110117123}
  m_RootOrder: 4
  m_AnchorMin: {x: 0.5, y: 0.5}
  m_AnchorMax: {x: 0.5, y: 0.5}
  m_AnchoredPosition: {x: 388, y: -92}
  m_SizeDelta: {x: 61, y: 255}
  m_Pivot: {x: 0.5, y: 0.5}
--- !u!114 &1517145219
MonoBehaviour:
  m_ObjectHideFlags: 0
  m_PrefabParentObject: {fileID: 11409230, guid: e39e9a09a02695a4b8efddc53c60fec4,
    type: 2}
  m_PrefabInternal: {fileID: 1423957306}
  m_GameObject: {fileID: 1517145217}
  m_Enabled: 1
  m_EditorHideFlags: 0
  m_Script: {fileID: -765806418, guid: f5f67c52d1564df4a8936ccd202a3bd8, type: 3}
  m_Name: 
  m_EditorClassIdentifier: 
  m_Material: {fileID: 0}
  m_Color: {r: 0.18431373, g: 0.18431373, b: 0.22745098, a: 1}
  m_RaycastTarget: 1
  m_OnCullStateChanged:
    m_PersistentCalls:
      m_Calls: []
    m_TypeName: UnityEngine.UI.MaskableGraphic+CullStateChangedEvent, UnityEngine.UI,
      Version=1.0.0.0, Culture=neutral, PublicKeyToken=null
  m_Sprite: {fileID: 21300000, guid: 7ed1238760b863f4aafde32ab3a6f28c, type: 3}
  m_Type: 1
  m_PreserveAspect: 0
  m_FillCenter: 1
  m_FillMethod: 4
  m_FillAmount: 1
  m_FillClockwise: 1
  m_FillOrigin: 0
--- !u!222 &1517145220
CanvasRenderer:
  m_ObjectHideFlags: 0
  m_PrefabParentObject: {fileID: 22209224, guid: e39e9a09a02695a4b8efddc53c60fec4,
    type: 2}
  m_PrefabInternal: {fileID: 1423957306}
  m_GameObject: {fileID: 1517145217}
--- !u!1 &1535092282
GameObject:
  m_ObjectHideFlags: 0
  m_PrefabParentObject: {fileID: 109228, guid: e39e9a09a02695a4b8efddc53c60fec4, type: 2}
  m_PrefabInternal: {fileID: 1423957306}
  serializedVersion: 4
  m_Component:
  - 224: {fileID: 1535092283}
  - 222: {fileID: 1535092285}
  - 114: {fileID: 1535092284}
  m_Layer: 5
  m_Name: MapBlocks
  m_TagString: Untagged
  m_Icon: {fileID: 0}
  m_NavMeshLayer: 0
  m_StaticEditorFlags: 0
  m_IsActive: 1
--- !u!224 &1535092283
RectTransform:
  m_ObjectHideFlags: 0
  m_PrefabParentObject: {fileID: 22409228, guid: e39e9a09a02695a4b8efddc53c60fec4,
    type: 2}
  m_PrefabInternal: {fileID: 1423957306}
  m_GameObject: {fileID: 1535092282}
  m_LocalRotation: {x: 0, y: 0, z: 0, w: 1}
  m_LocalPosition: {x: 0, y: 0, z: 0}
  m_LocalScale: {x: 1, y: 1, z: 1}
  m_LocalEulerAnglesHint: {x: 0, y: 0, z: 0}
  m_Children: []
  m_Father: {fileID: 2110117123}
  m_RootOrder: 6
  m_AnchorMin: {x: 0.5, y: 0.5}
  m_AnchorMax: {x: 0.5, y: 0.5}
  m_AnchoredPosition: {x: 182, y: -150.5}
  m_SizeDelta: {x: 61, y: 138}
  m_Pivot: {x: 0.5, y: 0.5}
--- !u!114 &1535092284
MonoBehaviour:
  m_ObjectHideFlags: 0
  m_PrefabParentObject: {fileID: 11409232, guid: e39e9a09a02695a4b8efddc53c60fec4,
    type: 2}
  m_PrefabInternal: {fileID: 1423957306}
  m_GameObject: {fileID: 1535092282}
  m_Enabled: 1
  m_EditorHideFlags: 0
  m_Script: {fileID: -765806418, guid: f5f67c52d1564df4a8936ccd202a3bd8, type: 3}
  m_Name: 
  m_EditorClassIdentifier: 
  m_Material: {fileID: 0}
  m_Color: {r: 0.18431373, g: 0.18431373, b: 0.22745098, a: 1}
  m_RaycastTarget: 1
  m_OnCullStateChanged:
    m_PersistentCalls:
      m_Calls: []
    m_TypeName: UnityEngine.UI.MaskableGraphic+CullStateChangedEvent, UnityEngine.UI,
      Version=1.0.0.0, Culture=neutral, PublicKeyToken=null
  m_Sprite: {fileID: 21300000, guid: 7ed1238760b863f4aafde32ab3a6f28c, type: 3}
  m_Type: 1
  m_PreserveAspect: 0
  m_FillCenter: 1
  m_FillMethod: 4
  m_FillAmount: 1
  m_FillClockwise: 1
  m_FillOrigin: 0
--- !u!222 &1535092285
CanvasRenderer:
  m_ObjectHideFlags: 0
  m_PrefabParentObject: {fileID: 22209226, guid: e39e9a09a02695a4b8efddc53c60fec4,
    type: 2}
  m_PrefabInternal: {fileID: 1423957306}
  m_GameObject: {fileID: 1535092282}
--- !u!1 &1688262555
GameObject:
  m_ObjectHideFlags: 0
  m_PrefabParentObject: {fileID: 109196, guid: e39e9a09a02695a4b8efddc53c60fec4, type: 2}
  m_PrefabInternal: {fileID: 1423957306}
  serializedVersion: 4
  m_Component:
  - 224: {fileID: 1688262556}
  - 222: {fileID: 1688262558}
  - 114: {fileID: 1688262557}
  m_Layer: 5
  m_Name: InfoBar
  m_TagString: Untagged
  m_Icon: {fileID: 0}
  m_NavMeshLayer: 0
  m_StaticEditorFlags: 0
  m_IsActive: 1
--- !u!224 &1688262556
RectTransform:
  m_ObjectHideFlags: 0
  m_PrefabParentObject: {fileID: 22409196, guid: e39e9a09a02695a4b8efddc53c60fec4,
    type: 2}
  m_PrefabInternal: {fileID: 1423957306}
  m_GameObject: {fileID: 1688262555}
  m_LocalRotation: {x: 0, y: 0, z: 0, w: 1}
  m_LocalPosition: {x: 0, y: 0, z: 0}
  m_LocalScale: {x: 1, y: 1, z: 1}
  m_LocalEulerAnglesHint: {x: 0, y: 0, z: 0}
  m_Children:
  - {fileID: 2069500333}
  - {fileID: 940766581}
  - {fileID: 1829844839}
  - {fileID: 713469041}
  m_Father: {fileID: 2110117123}
  m_RootOrder: 8
  m_AnchorMin: {x: 0.5, y: 0.5}
  m_AnchorMax: {x: 0.5, y: 0.5}
  m_AnchoredPosition: {x: 0, y: -249}
  m_SizeDelta: {x: 1136, y: 143}
  m_Pivot: {x: 0.5, y: 0.5}
--- !u!114 &1688262557
MonoBehaviour:
  m_ObjectHideFlags: 0
  m_PrefabParentObject: {fileID: 11409196, guid: e39e9a09a02695a4b8efddc53c60fec4,
    type: 2}
  m_PrefabInternal: {fileID: 1423957306}
  m_GameObject: {fileID: 1688262555}
  m_Enabled: 1
  m_EditorHideFlags: 0
  m_Script: {fileID: -765806418, guid: f5f67c52d1564df4a8936ccd202a3bd8, type: 3}
  m_Name: 
  m_EditorClassIdentifier: 
  m_Material: {fileID: 0}
  m_Color: {r: 0.18431373, g: 0.18431373, b: 0.22745098, a: 1}
  m_RaycastTarget: 1
  m_OnCullStateChanged:
    m_PersistentCalls:
      m_Calls: []
    m_TypeName: UnityEngine.UI.MaskableGraphic+CullStateChangedEvent, UnityEngine.UI,
      Version=1.0.0.0, Culture=neutral, PublicKeyToken=null
  m_Sprite: {fileID: 21300000, guid: 7ed1238760b863f4aafde32ab3a6f28c, type: 3}
  m_Type: 1
  m_PreserveAspect: 0
  m_FillCenter: 1
  m_FillMethod: 4
  m_FillAmount: 1
  m_FillClockwise: 1
  m_FillOrigin: 0
--- !u!222 &1688262558
CanvasRenderer:
  m_ObjectHideFlags: 0
  m_PrefabParentObject: {fileID: 22209196, guid: e39e9a09a02695a4b8efddc53c60fec4,
    type: 2}
  m_PrefabInternal: {fileID: 1423957306}
  m_GameObject: {fileID: 1688262555}
--- !u!1 &1727670900
GameObject:
  m_ObjectHideFlags: 0
  m_PrefabParentObject: {fileID: 109216, guid: e39e9a09a02695a4b8efddc53c60fec4, type: 2}
  m_PrefabInternal: {fileID: 1423957306}
  serializedVersion: 4
  m_Component:
  - 224: {fileID: 1727670901}
  - 222: {fileID: 1727670903}
  - 114: {fileID: 1727670902}
  m_Layer: 5
  m_Name: Panel
  m_TagString: Untagged
  m_Icon: {fileID: 0}
  m_NavMeshLayer: 0
  m_StaticEditorFlags: 0
  m_IsActive: 1
--- !u!224 &1727670901
RectTransform:
  m_ObjectHideFlags: 0
  m_PrefabParentObject: {fileID: 22409216, guid: e39e9a09a02695a4b8efddc53c60fec4,
    type: 2}
  m_PrefabInternal: {fileID: 1423957306}
  m_GameObject: {fileID: 1727670900}
  m_LocalRotation: {x: 0, y: 0, z: 0, w: 1}
  m_LocalPosition: {x: 0, y: 0, z: 0}
  m_LocalScale: {x: 1, y: 1, z: 1}
  m_LocalEulerAnglesHint: {x: 0, y: 0, z: 0}
  m_Children: []
  m_Father: {fileID: 2115362594}
  m_RootOrder: 1
  m_AnchorMin: {x: 0.5, y: 0.5}
  m_AnchorMax: {x: 0.5, y: 0.5}
  m_AnchoredPosition: {x: 11.199951, y: 6.699997}
  m_SizeDelta: {x: 21.7, y: 5.4}
  m_Pivot: {x: 0.5, y: 0.5}
--- !u!114 &1727670902
MonoBehaviour:
  m_ObjectHideFlags: 0
  m_PrefabParentObject: {fileID: 11409220, guid: e39e9a09a02695a4b8efddc53c60fec4,
    type: 2}
  m_PrefabInternal: {fileID: 1423957306}
  m_GameObject: {fileID: 1727670900}
  m_Enabled: 1
  m_EditorHideFlags: 0
  m_Script: {fileID: -765806418, guid: f5f67c52d1564df4a8936ccd202a3bd8, type: 3}
  m_Name: 
  m_EditorClassIdentifier: 
  m_Material: {fileID: 0}
  m_Color: {r: 0.8745098, g: 0.84313726, b: 0.8039216, a: 1}
  m_RaycastTarget: 1
  m_OnCullStateChanged:
    m_PersistentCalls:
      m_Calls: []
    m_TypeName: UnityEngine.UI.MaskableGraphic+CullStateChangedEvent, UnityEngine.UI,
      Version=1.0.0.0, Culture=neutral, PublicKeyToken=null
  m_Sprite: {fileID: 21300000, guid: 7ed1238760b863f4aafde32ab3a6f28c, type: 3}
  m_Type: 1
  m_PreserveAspect: 0
  m_FillCenter: 1
  m_FillMethod: 4
  m_FillAmount: 1
  m_FillClockwise: 1
  m_FillOrigin: 0
--- !u!222 &1727670903
CanvasRenderer:
  m_ObjectHideFlags: 0
  m_PrefabParentObject: {fileID: 22209214, guid: e39e9a09a02695a4b8efddc53c60fec4,
    type: 2}
  m_PrefabInternal: {fileID: 1423957306}
  m_GameObject: {fileID: 1727670900}
--- !u!1 &1826721451
GameObject:
  m_ObjectHideFlags: 0
  m_PrefabParentObject: {fileID: 109206, guid: e39e9a09a02695a4b8efddc53c60fec4, type: 2}
  m_PrefabInternal: {fileID: 1423957306}
  serializedVersion: 4
  m_Component:
  - 224: {fileID: 1826721452}
  - 222: {fileID: 1826721454}
  - 114: {fileID: 1826721453}
  m_Layer: 5
  m_Name: MapBlocks
  m_TagString: Untagged
  m_Icon: {fileID: 0}
  m_NavMeshLayer: 0
  m_StaticEditorFlags: 0
  m_IsActive: 1
--- !u!224 &1826721452
RectTransform:
  m_ObjectHideFlags: 0
  m_PrefabParentObject: {fileID: 22409206, guid: e39e9a09a02695a4b8efddc53c60fec4,
    type: 2}
  m_PrefabInternal: {fileID: 1423957306}
  m_GameObject: {fileID: 1826721451}
  m_LocalRotation: {x: 0, y: 0, z: 0, w: 1}
  m_LocalPosition: {x: 0, y: 0, z: 0}
  m_LocalScale: {x: 1, y: 1, z: 1}
  m_LocalEulerAnglesHint: {x: 0, y: 0, z: 0}
  m_Children: []
  m_Father: {fileID: 2110117123}
  m_RootOrder: 5
  m_AnchorMin: {x: 0.5, y: 0.5}
  m_AnchorMax: {x: 0.5, y: 0.5}
  m_AnchoredPosition: {x: 0, y: 300.25}
  m_SizeDelta: {x: 1136, y: 39.51}
  m_Pivot: {x: 0.5, y: 0.5}
--- !u!114 &1826721453
MonoBehaviour:
  m_ObjectHideFlags: 0
  m_PrefabParentObject: {fileID: 11409208, guid: e39e9a09a02695a4b8efddc53c60fec4,
    type: 2}
  m_PrefabInternal: {fileID: 1423957306}
  m_GameObject: {fileID: 1826721451}
  m_Enabled: 1
  m_EditorHideFlags: 0
  m_Script: {fileID: -765806418, guid: f5f67c52d1564df4a8936ccd202a3bd8, type: 3}
  m_Name: 
  m_EditorClassIdentifier: 
  m_Material: {fileID: 0}
  m_Color: {r: 0.18431373, g: 0.18431373, b: 0.22745098, a: 1}
  m_RaycastTarget: 1
  m_OnCullStateChanged:
    m_PersistentCalls:
      m_Calls: []
    m_TypeName: UnityEngine.UI.MaskableGraphic+CullStateChangedEvent, UnityEngine.UI,
      Version=1.0.0.0, Culture=neutral, PublicKeyToken=null
  m_Sprite: {fileID: 21300000, guid: 7ed1238760b863f4aafde32ab3a6f28c, type: 3}
  m_Type: 1
  m_PreserveAspect: 0
  m_FillCenter: 1
  m_FillMethod: 4
  m_FillAmount: 1
  m_FillClockwise: 1
  m_FillOrigin: 0
--- !u!222 &1826721454
CanvasRenderer:
  m_ObjectHideFlags: 0
  m_PrefabParentObject: {fileID: 22209206, guid: e39e9a09a02695a4b8efddc53c60fec4,
    type: 2}
  m_PrefabInternal: {fileID: 1423957306}
  m_GameObject: {fileID: 1826721451}
--- !u!1 &1829844838
GameObject:
  m_ObjectHideFlags: 0
  m_PrefabParentObject: {fileID: 109214, guid: e39e9a09a02695a4b8efddc53c60fec4, type: 2}
  m_PrefabInternal: {fileID: 1423957306}
  serializedVersion: 4
  m_Component:
  - 224: {fileID: 1829844839}
  - 222: {fileID: 1829844841}
  - 114: {fileID: 1829844840}
  m_Layer: 5
  m_Name: Text
  m_TagString: Untagged
  m_Icon: {fileID: 0}
  m_NavMeshLayer: 0
  m_StaticEditorFlags: 0
  m_IsActive: 1
--- !u!224 &1829844839
RectTransform:
  m_ObjectHideFlags: 0
  m_PrefabParentObject: {fileID: 22409214, guid: e39e9a09a02695a4b8efddc53c60fec4,
    type: 2}
  m_PrefabInternal: {fileID: 1423957306}
  m_GameObject: {fileID: 1829844838}
  m_LocalRotation: {x: 0, y: 0, z: 0, w: 1}
  m_LocalPosition: {x: 0, y: 0, z: 0}
  m_LocalScale: {x: 1, y: 1, z: 1}
  m_LocalEulerAnglesHint: {x: 0, y: 0, z: 0}
  m_Children: []
  m_Father: {fileID: 1688262556}
  m_RootOrder: 2
  m_AnchorMin: {x: 0.5, y: 0.5}
  m_AnchorMax: {x: 0.5, y: 0.5}
  m_AnchoredPosition: {x: -240, y: 0}
  m_SizeDelta: {x: 430, y: 102}
  m_Pivot: {x: 0.5, y: 0.5}
--- !u!114 &1829844840
MonoBehaviour:
  m_ObjectHideFlags: 0
  m_PrefabParentObject: {fileID: 11409218, guid: e39e9a09a02695a4b8efddc53c60fec4,
    type: 2}
  m_PrefabInternal: {fileID: 1423957306}
  m_GameObject: {fileID: 1829844838}
  m_Enabled: 1
  m_EditorHideFlags: 0
  m_Script: {fileID: 708705254, guid: f5f67c52d1564df4a8936ccd202a3bd8, type: 3}
  m_Name: 
  m_EditorClassIdentifier: 
  m_Material: {fileID: 0}
  m_Color: {r: 0.12156863, g: 0.81960785, b: 0.5686275, a: 1}
  m_RaycastTarget: 1
  m_OnCullStateChanged:
    m_PersistentCalls:
      m_Calls: []
    m_TypeName: UnityEngine.UI.MaskableGraphic+CullStateChangedEvent, UnityEngine.UI,
      Version=1.0.0.0, Culture=neutral, PublicKeyToken=null
  m_FontData:
    m_Font: {fileID: 12800000, guid: 7dfc2e1472ac84e1bb749a8a9f934483, type: 3}
    m_FontSize: 40
    m_FontStyle: 0
    m_BestFit: 0
    m_MinSize: 10
    m_MaxSize: 40
    m_Alignment: 3
    m_AlignByGeometry: 0
    m_RichText: 1
    m_HorizontalOverflow: 0
    m_VerticalOverflow: 0
    m_LineSpacing: 1
  m_Text: DISTANCE 200
--- !u!222 &1829844841
CanvasRenderer:
  m_ObjectHideFlags: 0
  m_PrefabParentObject: {fileID: 22209212, guid: e39e9a09a02695a4b8efddc53c60fec4,
    type: 2}
  m_PrefabInternal: {fileID: 1423957306}
  m_GameObject: {fileID: 1829844838}
--- !u!1 &2020623882
GameObject:
  m_ObjectHideFlags: 0
  m_PrefabParentObject: {fileID: 109188, guid: e39e9a09a02695a4b8efddc53c60fec4, type: 2}
  m_PrefabInternal: {fileID: 1423957306}
  serializedVersion: 4
  m_Component:
  - 224: {fileID: 2020623883}
  - 222: {fileID: 2020623885}
  - 114: {fileID: 2020623884}
  m_Layer: 5
  m_Name: MapBlocks
  m_TagString: Untagged
  m_Icon: {fileID: 0}
  m_NavMeshLayer: 0
  m_StaticEditorFlags: 0
  m_IsActive: 1
--- !u!224 &2020623883
RectTransform:
  m_ObjectHideFlags: 0
  m_PrefabParentObject: {fileID: 22409188, guid: e39e9a09a02695a4b8efddc53c60fec4,
    type: 2}
  m_PrefabInternal: {fileID: 1423957306}
  m_GameObject: {fileID: 2020623882}
  m_LocalRotation: {x: 0, y: 0, z: 0, w: 1}
  m_LocalPosition: {x: 0, y: 0, z: 0}
  m_LocalScale: {x: 1, y: 1, z: 1}
  m_LocalEulerAnglesHint: {x: 0, y: 0, z: 0}
  m_Children: []
  m_Father: {fileID: 2110117123}
  m_RootOrder: 0
  m_AnchorMin: {x: 0.5, y: 0.5}
  m_AnchorMax: {x: 0.5, y: 0.5}
  m_AnchoredPosition: {x: -78, y: -92}
  m_SizeDelta: {x: 61, y: 255}
  m_Pivot: {x: 0.5, y: 0.5}
--- !u!114 &2020623884
MonoBehaviour:
  m_ObjectHideFlags: 0
  m_PrefabParentObject: {fileID: 11409188, guid: e39e9a09a02695a4b8efddc53c60fec4,
    type: 2}
  m_PrefabInternal: {fileID: 1423957306}
  m_GameObject: {fileID: 2020623882}
  m_Enabled: 1
  m_EditorHideFlags: 0
  m_Script: {fileID: -765806418, guid: f5f67c52d1564df4a8936ccd202a3bd8, type: 3}
  m_Name: 
  m_EditorClassIdentifier: 
  m_Material: {fileID: 0}
  m_Color: {r: 0.18431373, g: 0.18431373, b: 0.22745098, a: 1}
  m_RaycastTarget: 1
  m_OnCullStateChanged:
    m_PersistentCalls:
      m_Calls: []
    m_TypeName: UnityEngine.UI.MaskableGraphic+CullStateChangedEvent, UnityEngine.UI,
      Version=1.0.0.0, Culture=neutral, PublicKeyToken=null
  m_Sprite: {fileID: 21300000, guid: 7ed1238760b863f4aafde32ab3a6f28c, type: 3}
  m_Type: 1
  m_PreserveAspect: 0
  m_FillCenter: 1
  m_FillMethod: 4
  m_FillAmount: 1
  m_FillClockwise: 1
  m_FillOrigin: 0
--- !u!222 &2020623885
CanvasRenderer:
  m_ObjectHideFlags: 0
  m_PrefabParentObject: {fileID: 22209188, guid: e39e9a09a02695a4b8efddc53c60fec4,
    type: 2}
  m_PrefabInternal: {fileID: 1423957306}
  m_GameObject: {fileID: 2020623882}
--- !u!1 &2069500332
GameObject:
  m_ObjectHideFlags: 0
  m_PrefabParentObject: {fileID: 109204, guid: e39e9a09a02695a4b8efddc53c60fec4, type: 2}
  m_PrefabInternal: {fileID: 1423957306}
  serializedVersion: 4
  m_Component:
  - 224: {fileID: 2069500333}
  - 222: {fileID: 2069500335}
  - 114: {fileID: 2069500334}
  m_Layer: 5
  m_Name: Panel
  m_TagString: Untagged
  m_Icon: {fileID: 0}
  m_NavMeshLayer: 0
  m_StaticEditorFlags: 0
  m_IsActive: 1
--- !u!224 &2069500333
RectTransform:
  m_ObjectHideFlags: 0
  m_PrefabParentObject: {fileID: 22409204, guid: e39e9a09a02695a4b8efddc53c60fec4,
    type: 2}
  m_PrefabInternal: {fileID: 1423957306}
  m_GameObject: {fileID: 2069500332}
  m_LocalRotation: {x: 0, y: 0, z: 0, w: 1}
  m_LocalPosition: {x: 0, y: 0, z: 0}
  m_LocalScale: {x: 1, y: 1, z: 1}
  m_LocalEulerAnglesHint: {x: 0, y: 0, z: 0}
  m_Children: []
  m_Father: {fileID: 1688262556}
  m_RootOrder: 0
  m_AnchorMin: {x: 0.5, y: 0.5}
  m_AnchorMax: {x: 0.5, y: 0.5}
  m_AnchoredPosition: {x: 489, y: 0}
  m_SizeDelta: {x: 45, y: 44}
  m_Pivot: {x: 0.5, y: 0.5}
--- !u!114 &2069500334
MonoBehaviour:
  m_ObjectHideFlags: 0
  m_PrefabParentObject: {fileID: 11409206, guid: e39e9a09a02695a4b8efddc53c60fec4,
    type: 2}
  m_PrefabInternal: {fileID: 1423957306}
  m_GameObject: {fileID: 2069500332}
  m_Enabled: 1
  m_EditorHideFlags: 0
  m_Script: {fileID: -765806418, guid: f5f67c52d1564df4a8936ccd202a3bd8, type: 3}
  m_Name: 
  m_EditorClassIdentifier: 
  m_Material: {fileID: 0}
  m_Color: {r: 0.94509804, g: 0.2901961, b: 0.4117647, a: 1}
  m_RaycastTarget: 1
  m_OnCullStateChanged:
    m_PersistentCalls:
      m_Calls: []
    m_TypeName: UnityEngine.UI.MaskableGraphic+CullStateChangedEvent, UnityEngine.UI,
      Version=1.0.0.0, Culture=neutral, PublicKeyToken=null
  m_Sprite: {fileID: 21300000, guid: f04f7faa5cfd8444a9b61e426135725f, type: 3}
  m_Type: 0
  m_PreserveAspect: 0
  m_FillCenter: 1
  m_FillMethod: 4
  m_FillAmount: 1
  m_FillClockwise: 1
  m_FillOrigin: 0
--- !u!222 &2069500335
CanvasRenderer:
  m_ObjectHideFlags: 0
  m_PrefabParentObject: {fileID: 22209204, guid: e39e9a09a02695a4b8efddc53c60fec4,
    type: 2}
  m_PrefabInternal: {fileID: 1423957306}
  m_GameObject: {fileID: 2069500332}
--- !u!1 &2110117122
GameObject:
  m_ObjectHideFlags: 0
  m_PrefabParentObject: {fileID: 109202, guid: e39e9a09a02695a4b8efddc53c60fec4, type: 2}
  m_PrefabInternal: {fileID: 1423957306}
  serializedVersion: 4
  m_Component:
  - 224: {fileID: 2110117123}
  - 222: {fileID: 2110117126}
  - 114: {fileID: 2110117125}
  - 114: {fileID: 2110117124}
  m_Layer: 5
  m_Name: Panel
  m_TagString: Untagged
  m_Icon: {fileID: 0}
  m_NavMeshLayer: 0
  m_StaticEditorFlags: 0
  m_IsActive: 1
--- !u!224 &2110117123
RectTransform:
  m_ObjectHideFlags: 0
  m_PrefabParentObject: {fileID: 22409202, guid: e39e9a09a02695a4b8efddc53c60fec4,
    type: 2}
  m_PrefabInternal: {fileID: 1423957306}
  m_GameObject: {fileID: 2110117122}
  m_LocalRotation: {x: 0, y: 0, z: 0, w: 1}
  m_LocalPosition: {x: 0, y: 0, z: 0}
  m_LocalScale: {x: 1, y: 1, z: 1}
  m_LocalEulerAnglesHint: {x: 0, y: 0, z: 0}
  m_Children:
  - {fileID: 2020623883}
  - {fileID: 1288536791}
  - {fileID: 741983533}
  - {fileID: 181529659}
  - {fileID: 1517145218}
  - {fileID: 1826721452}
  - {fileID: 1535092283}
  - {fileID: 2115362594}
  - {fileID: 1688262556}
  m_Father: {fileID: 281704502}
  m_RootOrder: 1
  m_AnchorMin: {x: 0, y: 0}
  m_AnchorMax: {x: 0, y: 0}
  m_AnchoredPosition: {x: 568, y: 319.99}
  m_SizeDelta: {x: 1136, y: 640.02}
  m_Pivot: {x: 0.5, y: 0.5}
--- !u!114 &2110117124
MonoBehaviour:
  m_ObjectHideFlags: 0
  m_PrefabParentObject: {fileID: 11409202, guid: e39e9a09a02695a4b8efddc53c60fec4,
    type: 2}
  m_PrefabInternal: {fileID: 1423957306}
  m_GameObject: {fileID: 2110117122}
  m_Enabled: 1
  m_EditorHideFlags: 0
  m_Script: {fileID: -1200242548, guid: f5f67c52d1564df4a8936ccd202a3bd8, type: 3}
  m_Name: 
  m_EditorClassIdentifier: 
  m_ShowMaskGraphic: 1
--- !u!114 &2110117125
MonoBehaviour:
  m_ObjectHideFlags: 0
  m_PrefabParentObject: {fileID: 11409204, guid: e39e9a09a02695a4b8efddc53c60fec4,
    type: 2}
  m_PrefabInternal: {fileID: 1423957306}
  m_GameObject: {fileID: 2110117122}
  m_Enabled: 1
  m_EditorHideFlags: 0
  m_Script: {fileID: -765806418, guid: f5f67c52d1564df4a8936ccd202a3bd8, type: 3}
  m_Name: 
  m_EditorClassIdentifier: 
  m_Material: {fileID: 0}
  m_Color: {r: 0.8784314, g: 0.84705883, b: 0.80784315, a: 1}
  m_RaycastTarget: 1
  m_OnCullStateChanged:
    m_PersistentCalls:
      m_Calls: []
    m_TypeName: UnityEngine.UI.MaskableGraphic+CullStateChangedEvent, UnityEngine.UI,
      Version=1.0.0.0, Culture=neutral, PublicKeyToken=null
  m_Sprite: {fileID: 21300000, guid: 7ed1238760b863f4aafde32ab3a6f28c, type: 3}
  m_Type: 1
  m_PreserveAspect: 0
  m_FillCenter: 1
  m_FillMethod: 4
  m_FillAmount: 1
  m_FillClockwise: 1
  m_FillOrigin: 0
--- !u!222 &2110117126
CanvasRenderer:
  m_ObjectHideFlags: 0
  m_PrefabParentObject: {fileID: 22209202, guid: e39e9a09a02695a4b8efddc53c60fec4,
    type: 2}
  m_PrefabInternal: {fileID: 1423957306}
  m_GameObject: {fileID: 2110117122}
--- !u!1 &2115362593
GameObject:
  m_ObjectHideFlags: 0
  m_PrefabParentObject: {fileID: 109186, guid: e39e9a09a02695a4b8efddc53c60fec4, type: 2}
  m_PrefabInternal: {fileID: 1423957306}
  serializedVersion: 4
  m_Component:
  - 224: {fileID: 2115362594}
  - 222: {fileID: 2115362596}
  - 114: {fileID: 2115362595}
  m_Layer: 5
  m_Name: Player
  m_TagString: Untagged
  m_Icon: {fileID: 0}
  m_NavMeshLayer: 0
  m_StaticEditorFlags: 0
  m_IsActive: 1
--- !u!224 &2115362594
RectTransform:
  m_ObjectHideFlags: 0
  m_PrefabParentObject: {fileID: 22409186, guid: e39e9a09a02695a4b8efddc53c60fec4,
    type: 2}
  m_PrefabInternal: {fileID: 1423957306}
  m_GameObject: {fileID: 2115362593}
  m_LocalRotation: {x: 0, y: 0, z: 0.11665746, w: -0.9931722}
  m_LocalPosition: {x: 0, y: 0, z: 0}
  m_LocalScale: {x: 1, y: 1, z: 1}
  m_LocalEulerAnglesHint: {x: 0, y: 0, z: 0}
  m_Children:
  - {fileID: 357854660}
  - {fileID: 1727670901}
  - {fileID: 75770225}
  - {fileID: 804817491}
  - {fileID: 15627887}
  m_Father: {fileID: 2110117123}
  m_RootOrder: 7
  m_AnchorMin: {x: 0.5, y: 0.5}
  m_AnchorMax: {x: 0.5, y: 0.5}
  m_AnchoredPosition: {x: -278, y: 43}
  m_SizeDelta: {x: 57, y: 55.1}
  m_Pivot: {x: 0.5, y: 0.5}
--- !u!114 &2115362595
MonoBehaviour:
  m_ObjectHideFlags: 0
  m_PrefabParentObject: {fileID: 11409186, guid: e39e9a09a02695a4b8efddc53c60fec4,
    type: 2}
  m_PrefabInternal: {fileID: 1423957306}
  m_GameObject: {fileID: 2115362593}
  m_Enabled: 1
  m_EditorHideFlags: 0
  m_Script: {fileID: -765806418, guid: f5f67c52d1564df4a8936ccd202a3bd8, type: 3}
  m_Name: 
  m_EditorClassIdentifier: 
  m_Material: {fileID: 0}
  m_Color: {r: 0.12156863, g: 0.8235294, b: 0.57254905, a: 1}
  m_RaycastTarget: 1
  m_OnCullStateChanged:
    m_PersistentCalls:
      m_Calls: []
    m_TypeName: UnityEngine.UI.MaskableGraphic+CullStateChangedEvent, UnityEngine.UI,
      Version=1.0.0.0, Culture=neutral, PublicKeyToken=null
  m_Sprite: {fileID: 21300000, guid: 7ed1238760b863f4aafde32ab3a6f28c, type: 3}
  m_Type: 1
  m_PreserveAspect: 0
  m_FillCenter: 1
  m_FillMethod: 4
  m_FillAmount: 1
  m_FillClockwise: 1
  m_FillOrigin: 0
--- !u!222 &2115362596
CanvasRenderer:
  m_ObjectHideFlags: 0
  m_PrefabParentObject: {fileID: 22209186, guid: e39e9a09a02695a4b8efddc53c60fec4,
    type: 2}
  m_PrefabInternal: {fileID: 1423957306}
  m_GameObject: {fileID: 2115362593}
