%YAML 1.1
%TAG !u! tag:unity3d.com,2011:
--- !u!29 &1
SceneSettings:
  m_ObjectHideFlags: 0
  m_PVSData: 
  m_PVSObjectsArray: []
  m_PVSPortalsArray: []
  m_OcclusionBakeSettings:
    smallestOccluder: 5
    smallestHole: 0.25
    backfaceThreshold: 100
--- !u!104 &2
RenderSettings:
  m_ObjectHideFlags: 0
  serializedVersion: 7
  m_Fog: 0
  m_FogColor: {r: 0.5, g: 0.5, b: 0.5, a: 1}
  m_FogMode: 3
  m_FogDensity: 0.01
  m_LinearFogStart: 0
  m_LinearFogEnd: 300
  m_AmbientSkyColor: {r: 0.212, g: 0.227, b: 0.259, a: 1}
  m_AmbientEquatorColor: {r: 0.114, g: 0.125, b: 0.133, a: 1}
  m_AmbientGroundColor: {r: 0.047, g: 0.043, b: 0.035, a: 1}
  m_AmbientIntensity: 1
  m_AmbientMode: 0
  m_SkyboxMaterial: {fileID: 10304, guid: 0000000000000000f000000000000000, type: 0}
  m_HaloStrength: 0.5
  m_FlareStrength: 1
  m_FlareFadeSpeed: 3
  m_HaloTexture: {fileID: 0}
  m_SpotCookie: {fileID: 10001, guid: 0000000000000000e000000000000000, type: 0}
  m_DefaultReflectionMode: 0
  m_DefaultReflectionResolution: 128
  m_ReflectionBounces: 1
  m_ReflectionIntensity: 1
  m_CustomReflection: {fileID: 0}
  m_Sun: {fileID: 0}
  m_IndirectSpecularColor: {r: 0, g: 0, b: 0, a: 1}
--- !u!157 &4
LightmapSettings:
  m_ObjectHideFlags: 0
  serializedVersion: 7
  m_GIWorkflowMode: 0
  m_GISettings:
    serializedVersion: 2
    m_BounceScale: 1
    m_IndirectOutputScale: 1
    m_AlbedoBoost: 1
    m_TemporalCoherenceThreshold: 1
    m_EnvironmentLightingMode: 0
    m_EnableBakedLightmaps: 1
    m_EnableRealtimeLightmaps: 1
  m_LightmapEditorSettings:
    serializedVersion: 4
    m_Resolution: 2
    m_BakeResolution: 40
    m_TextureWidth: 1024
    m_TextureHeight: 1024
    m_AO: 0
    m_AOMaxDistance: 1
    m_CompAOExponent: 0
    m_CompAOExponentDirect: 0
    m_Padding: 2
    m_LightmapParameters: {fileID: 0}
    m_LightmapsBakeMode: 1
    m_TextureCompression: 1
    m_DirectLightInLightProbes: 1
    m_FinalGather: 0
    m_FinalGatherFiltering: 1
    m_FinalGatherRayCount: 1024
    m_ReflectionCompression: 2
  m_LightingDataAsset: {fileID: 0}
  m_RuntimeCPUUsage: 25
--- !u!196 &5
NavMeshSettings:
  serializedVersion: 2
  m_ObjectHideFlags: 0
  m_BuildSettings:
    serializedVersion: 2
    agentRadius: 0.5
    agentHeight: 2
    agentSlope: 45
    agentClimb: 0.4
    ledgeDropHeight: 0
    maxJumpAcrossDistance: 0
    accuratePlacement: 0
    minRegionArea: 2
    cellSize: 0.16666667
    manualCellSize: 0
  m_NavMeshData: {fileID: 0}
--- !u!1 &237522471
GameObject:
  m_ObjectHideFlags: 0
  m_PrefabParentObject: {fileID: 104058, guid: f03c960f44680df4c9e2e3db87887819, type: 2}
  m_PrefabInternal: {fileID: 982429121}
  serializedVersion: 4
  m_Component:
  - 224: {fileID: 237522472}
  - 222: {fileID: 237522474}
  - 114: {fileID: 237522473}
  m_Layer: 5
  m_Name: Image
  m_TagString: Untagged
  m_Icon: {fileID: 0}
  m_NavMeshLayer: 0
  m_StaticEditorFlags: 0
  m_IsActive: 1
--- !u!224 &237522472
RectTransform:
  m_ObjectHideFlags: 0
  m_PrefabParentObject: {fileID: 22404058, guid: f03c960f44680df4c9e2e3db87887819,
    type: 2}
  m_PrefabInternal: {fileID: 982429121}
  m_GameObject: {fileID: 237522471}
  m_LocalRotation: {x: 0, y: 0, z: 0, w: 1}
  m_LocalPosition: {x: 0, y: 0, z: 0}
  m_LocalScale: {x: 1, y: 1, z: 1}
  m_LocalEulerAnglesHint: {x: 0, y: 0, z: 0}
  m_Children:
  - {fileID: 1510430088}
  m_Father: {fileID: 1537954680}
  m_RootOrder: 4
  m_AnchorMin: {x: 0.5, y: 0.5}
  m_AnchorMax: {x: 0.5, y: 0.5}
  m_AnchoredPosition: {x: 0, y: -332}
  m_SizeDelta: {x: 626, y: 67}
  m_Pivot: {x: 0.5, y: 0.5}
--- !u!114 &237522473
MonoBehaviour:
  m_ObjectHideFlags: 0
  m_PrefabParentObject: {fileID: 11404060, guid: f03c960f44680df4c9e2e3db87887819,
    type: 2}
  m_PrefabInternal: {fileID: 982429121}
  m_GameObject: {fileID: 237522471}
  m_Enabled: 1
  m_EditorHideFlags: 0
  m_Script: {fileID: -765806418, guid: f5f67c52d1564df4a8936ccd202a3bd8, type: 3}
  m_Name: 
  m_EditorClassIdentifier: 
  m_Material: {fileID: 0}
  m_Color: {r: 0.4, g: 0.72156864, b: 0.87058824, a: 1}
  m_RaycastTarget: 1
  m_OnCullStateChanged:
    m_PersistentCalls:
      m_Calls: []
    m_TypeName: UnityEngine.UI.MaskableGraphic+CullStateChangedEvent, UnityEngine.UI,
      Version=1.0.0.0, Culture=neutral, PublicKeyToken=null
  m_Sprite: {fileID: 21300000, guid: 7ed1238760b863f4aafde32ab3a6f28c, type: 3}
  m_Type: 1
  m_PreserveAspect: 0
  m_FillCenter: 1
  m_FillMethod: 4
  m_FillAmount: 1
  m_FillClockwise: 1
  m_FillOrigin: 0
--- !u!222 &237522474
CanvasRenderer:
  m_ObjectHideFlags: 0
  m_PrefabParentObject: {fileID: 22204056, guid: f03c960f44680df4c9e2e3db87887819,
    type: 2}
  m_PrefabInternal: {fileID: 982429121}
  m_GameObject: {fileID: 237522471}
--- !u!1 &406877977
GameObject:
  m_ObjectHideFlags: 0
  m_PrefabParentObject: {fileID: 104050, guid: f03c960f44680df4c9e2e3db87887819, type: 2}
  m_PrefabInternal: {fileID: 982429121}
  serializedVersion: 4
  m_Component:
  - 224: {fileID: 406877978}
  - 222: {fileID: 406877980}
  - 114: {fileID: 406877979}
  m_Layer: 5
  m_Name: Image
  m_TagString: Untagged
  m_Icon: {fileID: 0}
  m_NavMeshLayer: 0
  m_StaticEditorFlags: 0
  m_IsActive: 1
--- !u!224 &406877978
RectTransform:
  m_ObjectHideFlags: 0
  m_PrefabParentObject: {fileID: 22404050, guid: f03c960f44680df4c9e2e3db87887819,
    type: 2}
  m_PrefabInternal: {fileID: 982429121}
  m_GameObject: {fileID: 406877977}
  m_LocalRotation: {x: 0, y: 0, z: 0, w: 1}
  m_LocalPosition: {x: 0, y: 0, z: 0}
  m_LocalScale: {x: 1, y: 1, z: 1}
  m_LocalEulerAnglesHint: {x: 0, y: 0, z: 0}
  m_Children:
  - {fileID: 1923898478}
  m_Father: {fileID: 1537954680}
  m_RootOrder: 3
  m_AnchorMin: {x: 0.5, y: 0.5}
  m_AnchorMax: {x: 0.5, y: 0.5}
  m_AnchoredPosition: {x: 0, y: -265}
  m_SizeDelta: {x: 414, y: 67}
  m_Pivot: {x: 0.5, y: 0.5}
--- !u!114 &406877979
MonoBehaviour:
  m_ObjectHideFlags: 0
  m_PrefabParentObject: {fileID: 11404052, guid: f03c960f44680df4c9e2e3db87887819,
    type: 2}
  m_PrefabInternal: {fileID: 982429121}
  m_GameObject: {fileID: 406877977}
  m_Enabled: 1
  m_EditorHideFlags: 0
  m_Script: {fileID: -765806418, guid: f5f67c52d1564df4a8936ccd202a3bd8, type: 3}
  m_Name: 
  m_EditorClassIdentifier: 
  m_Material: {fileID: 0}
  m_Color: {r: 0.9607843, g: 0.3647059, b: 0.39607844, a: 1}
  m_RaycastTarget: 1
  m_OnCullStateChanged:
    m_PersistentCalls:
      m_Calls: []
    m_TypeName: UnityEngine.UI.MaskableGraphic+CullStateChangedEvent, UnityEngine.UI,
      Version=1.0.0.0, Culture=neutral, PublicKeyToken=null
  m_Sprite: {fileID: 21300000, guid: 7ed1238760b863f4aafde32ab3a6f28c, type: 3}
  m_Type: 1
  m_PreserveAspect: 0
  m_FillCenter: 1
  m_FillMethod: 4
  m_FillAmount: 1
  m_FillClockwise: 1
  m_FillOrigin: 0
--- !u!222 &406877980
CanvasRenderer:
  m_ObjectHideFlags: 0
  m_PrefabParentObject: {fileID: 22204048, guid: f03c960f44680df4c9e2e3db87887819,
    type: 2}
  m_PrefabInternal: {fileID: 982429121}
  m_GameObject: {fileID: 406877977}
--- !u!1 &446385466
GameObject:
  m_ObjectHideFlags: 0
  m_PrefabParentObject: {fileID: 104042, guid: f03c960f44680df4c9e2e3db87887819, type: 2}
  m_PrefabInternal: {fileID: 982429121}
  serializedVersion: 4
  m_Component:
  - 224: {fileID: 446385467}
  - 222: {fileID: 446385469}
  - 114: {fileID: 446385468}
  m_Layer: 5
  m_Name: BottomPanel
  m_TagString: Untagged
  m_Icon: {fileID: 0}
  m_NavMeshLayer: 0
  m_StaticEditorFlags: 0
  m_IsActive: 1
--- !u!224 &446385467
RectTransform:
  m_ObjectHideFlags: 0
  m_PrefabParentObject: {fileID: 22404042, guid: f03c960f44680df4c9e2e3db87887819,
    type: 2}
  m_PrefabInternal: {fileID: 982429121}
  m_GameObject: {fileID: 446385466}
  m_LocalRotation: {x: 0, y: 0, z: 0, w: 1}
  m_LocalPosition: {x: 0, y: 0, z: 0}
  m_LocalScale: {x: 1, y: 1, z: 1}
  m_LocalEulerAnglesHint: {x: 0, y: 0, z: 0}
  m_Children:
  - {fileID: 1067625552}
  - {fileID: 616693618}
  - {fileID: 882807484}
  m_Father: {fileID: 1537954680}
  m_RootOrder: 2
  m_AnchorMin: {x: 0.5, y: 0.5}
  m_AnchorMax: {x: 0.5, y: 0.5}
  m_AnchoredPosition: {x: 0, y: -921}
  m_SizeDelta: {x: 1536, y: 206}
  m_Pivot: {x: 0.5, y: 0.5}
--- !u!114 &446385468
MonoBehaviour:
  m_ObjectHideFlags: 0
  m_PrefabParentObject: {fileID: 11404042, guid: f03c960f44680df4c9e2e3db87887819,
    type: 2}
  m_PrefabInternal: {fileID: 982429121}
  m_GameObject: {fileID: 446385466}
  m_Enabled: 1
  m_EditorHideFlags: 0
  m_Script: {fileID: -765806418, guid: f5f67c52d1564df4a8936ccd202a3bd8, type: 3}
  m_Name: 
  m_EditorClassIdentifier: 
  m_Material: {fileID: 0}
  m_Color: {r: 0.36078432, g: 0.36078432, b: 0.36078432, a: 1}
  m_RaycastTarget: 1
  m_OnCullStateChanged:
    m_PersistentCalls:
      m_Calls: []
    m_TypeName: UnityEngine.UI.MaskableGraphic+CullStateChangedEvent, UnityEngine.UI,
      Version=1.0.0.0, Culture=neutral, PublicKeyToken=null
  m_Sprite: {fileID: 21300000, guid: 7ed1238760b863f4aafde32ab3a6f28c, type: 3}
  m_Type: 1
  m_PreserveAspect: 0
  m_FillCenter: 1
  m_FillMethod: 4
  m_FillAmount: 1
  m_FillClockwise: 1
  m_FillOrigin: 0
--- !u!222 &446385469
CanvasRenderer:
  m_ObjectHideFlags: 0
  m_PrefabParentObject: {fileID: 22204042, guid: f03c960f44680df4c9e2e3db87887819,
    type: 2}
  m_PrefabInternal: {fileID: 982429121}
  m_GameObject: {fileID: 446385466}
--- !u!1 &454637477
GameObject:
  m_ObjectHideFlags: 0
  m_PrefabParentObject: {fileID: 104046, guid: f03c960f44680df4c9e2e3db87887819, type: 2}
  m_PrefabInternal: {fileID: 982429121}
  serializedVersion: 4
  m_Component:
  - 224: {fileID: 454637478}
  - 222: {fileID: 454637480}
  - 114: {fileID: 454637479}
  m_Layer: 5
  m_Name: AppTitle
  m_TagString: Untagged
  m_Icon: {fileID: 0}
  m_NavMeshLayer: 0
  m_StaticEditorFlags: 0
  m_IsActive: 1
--- !u!224 &454637478
RectTransform:
  m_ObjectHideFlags: 0
  m_PrefabParentObject: {fileID: 22404046, guid: f03c960f44680df4c9e2e3db87887819,
    type: 2}
  m_PrefabInternal: {fileID: 982429121}
  m_GameObject: {fileID: 454637477}
  m_LocalRotation: {x: 0, y: 0, z: 0, w: 1}
  m_LocalPosition: {x: 0, y: 0, z: 0}
  m_LocalScale: {x: 1, y: 1, z: 1}
  m_LocalEulerAnglesHint: {x: 0, y: 0, z: 0}
  m_Children: []
  m_Father: {fileID: 1097844610}
  m_RootOrder: 0
  m_AnchorMin: {x: 0.5, y: 0.5}
  m_AnchorMax: {x: 0.5, y: 0.5}
  m_AnchoredPosition: {x: -36.5, y: -88}
  m_SizeDelta: {x: 695, y: 67}
  m_Pivot: {x: 0.5, y: 0.5}
--- !u!114 &454637479
MonoBehaviour:
  m_ObjectHideFlags: 0
  m_PrefabParentObject: {fileID: 11404048, guid: f03c960f44680df4c9e2e3db87887819,
    type: 2}
  m_PrefabInternal: {fileID: 982429121}
  m_GameObject: {fileID: 454637477}
  m_Enabled: 1
  m_EditorHideFlags: 0
  m_Script: {fileID: 708705254, guid: f5f67c52d1564df4a8936ccd202a3bd8, type: 3}
  m_Name: 
  m_EditorClassIdentifier: 
  m_Material: {fileID: 0}
  m_Color: {r: 0.85490197, g: 0.85490197, b: 0.85490197, a: 1}
  m_RaycastTarget: 1
  m_OnCullStateChanged:
    m_PersistentCalls:
      m_Calls: []
    m_TypeName: UnityEngine.UI.MaskableGraphic+CullStateChangedEvent, UnityEngine.UI,
      Version=1.0.0.0, Culture=neutral, PublicKeyToken=null
  m_FontData:
    m_Font: {fileID: 12800000, guid: 218956a5c2a6e42d6a60afccf80b002b, type: 3}
    m_FontSize: 40
    m_FontStyle: 0
    m_BestFit: 0
    m_MinSize: 10
    m_MaxSize: 40
    m_Alignment: 0
    m_AlignByGeometry: 0
    m_RichText: 1
    m_HorizontalOverflow: 0
    m_VerticalOverflow: 1
    m_LineSpacing: 1
  m_Text: APP SAMPLE TABLET
--- !u!222 &454637480
CanvasRenderer:
  m_ObjectHideFlags: 0
  m_PrefabParentObject: {fileID: 22204044, guid: f03c960f44680df4c9e2e3db87887819,
    type: 2}
  m_PrefabInternal: {fileID: 982429121}
  m_GameObject: {fileID: 454637477}
--- !u!1 &463352578
GameObject:
  m_ObjectHideFlags: 0
  m_PrefabParentObject: {fileID: 104038, guid: f03c960f44680df4c9e2e3db87887819, type: 2}
  m_PrefabInternal: {fileID: 982429121}
  serializedVersion: 4
  m_Component:
  - 224: {fileID: 463352579}
  - 222: {fileID: 463352581}
  - 114: {fileID: 463352580}
  m_Layer: 5
  m_Name: Image
  m_TagString: Untagged
  m_Icon: {fileID: 0}
  m_NavMeshLayer: 0
  m_StaticEditorFlags: 0
  m_IsActive: 1
--- !u!224 &463352579
RectTransform:
  m_ObjectHideFlags: 0
  m_PrefabParentObject: {fileID: 22404038, guid: f03c960f44680df4c9e2e3db87887819,
    type: 2}
  m_PrefabInternal: {fileID: 982429121}
  m_GameObject: {fileID: 463352578}
  m_LocalRotation: {x: 0, y: 0, z: 0, w: 1}
  m_LocalPosition: {x: 0, y: 0, z: 0}
  m_LocalScale: {x: 1, y: 1, z: 1}
  m_LocalEulerAnglesHint: {x: 0, y: 0, z: 0}
  m_Children:
  - {fileID: 1654901605}
  m_Father: {fileID: 1537954680}
  m_RootOrder: 5
  m_AnchorMin: {x: 0.5, y: 0.5}
  m_AnchorMax: {x: 0.5, y: 0.5}
  m_AnchoredPosition: {x: 2, y: -399}
  m_SizeDelta: {x: 325, y: 67}
  m_Pivot: {x: 0.5, y: 0.5}
--- !u!114 &463352580
MonoBehaviour:
  m_ObjectHideFlags: 0
  m_PrefabParentObject: {fileID: 11404038, guid: f03c960f44680df4c9e2e3db87887819,
    type: 2}
  m_PrefabInternal: {fileID: 982429121}
  m_GameObject: {fileID: 463352578}
  m_Enabled: 1
  m_EditorHideFlags: 0
  m_Script: {fileID: -765806418, guid: f5f67c52d1564df4a8936ccd202a3bd8, type: 3}
  m_Name: 
  m_EditorClassIdentifier: 
  m_Material: {fileID: 0}
  m_Color: {r: 0.99607843, g: 0.9372549, b: 0.8, a: 1}
  m_RaycastTarget: 1
  m_OnCullStateChanged:
    m_PersistentCalls:
      m_Calls: []
    m_TypeName: UnityEngine.UI.MaskableGraphic+CullStateChangedEvent, UnityEngine.UI,
      Version=1.0.0.0, Culture=neutral, PublicKeyToken=null
  m_Sprite: {fileID: 21300000, guid: 7ed1238760b863f4aafde32ab3a6f28c, type: 3}
  m_Type: 1
  m_PreserveAspect: 0
  m_FillCenter: 1
  m_FillMethod: 4
  m_FillAmount: 1
  m_FillClockwise: 1
  m_FillOrigin: 0
--- !u!222 &463352581
CanvasRenderer:
  m_ObjectHideFlags: 0
  m_PrefabParentObject: {fileID: 22204038, guid: f03c960f44680df4c9e2e3db87887819,
    type: 2}
  m_PrefabInternal: {fileID: 982429121}
  m_GameObject: {fileID: 463352578}
--- !u!1 &616693617
GameObject:
  m_ObjectHideFlags: 0
  m_PrefabParentObject: {fileID: 104048, guid: f03c960f44680df4c9e2e3db87887819, type: 2}
  m_PrefabInternal: {fileID: 982429121}
  serializedVersion: 4
  m_Component:
  - 224: {fileID: 616693618}
  - 222: {fileID: 616693620}
  - 114: {fileID: 616693619}
  m_Layer: 5
  m_Name: Text
  m_TagString: Untagged
  m_Icon: {fileID: 0}
  m_NavMeshLayer: 0
  m_StaticEditorFlags: 0
  m_IsActive: 1
--- !u!224 &616693618
RectTransform:
  m_ObjectHideFlags: 0
  m_PrefabParentObject: {fileID: 22404048, guid: f03c960f44680df4c9e2e3db87887819,
    type: 2}
  m_PrefabInternal: {fileID: 982429121}
  m_GameObject: {fileID: 616693617}
  m_LocalRotation: {x: 0, y: 0, z: 0, w: 1}
  m_LocalPosition: {x: 0, y: 0, z: 0}
  m_LocalScale: {x: 1, y: 1, z: 1}
  m_LocalEulerAnglesHint: {x: 0, y: 0, z: 0}
  m_Children: []
  m_Father: {fileID: 446385467}
  m_RootOrder: 1
  m_AnchorMin: {x: 0.5, y: 0.5}
  m_AnchorMax: {x: 0.5, y: 0.5}
  m_AnchoredPosition: {x: 3.6, y: 33}
  m_SizeDelta: {x: 213, y: 73}
  m_Pivot: {x: 0.5, y: 0.5}
--- !u!114 &616693619
MonoBehaviour:
  m_ObjectHideFlags: 0
  m_PrefabParentObject: {fileID: 11404050, guid: f03c960f44680df4c9e2e3db87887819,
    type: 2}
  m_PrefabInternal: {fileID: 982429121}
  m_GameObject: {fileID: 616693617}
  m_Enabled: 1
  m_EditorHideFlags: 0
  m_Script: {fileID: 708705254, guid: f5f67c52d1564df4a8936ccd202a3bd8, type: 3}
  m_Name: 
  m_EditorClassIdentifier: 
  m_Material: {fileID: 0}
  m_Color: {r: 0.94509804, g: 0.9254902, b: 0.8745098, a: 1}
  m_RaycastTarget: 1
  m_OnCullStateChanged:
    m_PersistentCalls:
      m_Calls: []
    m_TypeName: UnityEngine.UI.MaskableGraphic+CullStateChangedEvent, UnityEngine.UI,
      Version=1.0.0.0, Culture=neutral, PublicKeyToken=null
  m_FontData:
    m_Font: {fileID: 12800000, guid: 7dfc2e1472ac84e1bb749a8a9f934483, type: 3}
    m_FontSize: 50
    m_FontStyle: 0
    m_BestFit: 0
    m_MinSize: 10
    m_MaxSize: 50
    m_Alignment: 4
    m_AlignByGeometry: 0
    m_RichText: 1
    m_HorizontalOverflow: 0
    m_VerticalOverflow: 0
    m_LineSpacing: 1
  m_Text: ALARM
--- !u!222 &616693620
CanvasRenderer:
  m_ObjectHideFlags: 0
  m_PrefabParentObject: {fileID: 22204046, guid: f03c960f44680df4c9e2e3db87887819,
    type: 2}
  m_PrefabInternal: {fileID: 982429121}
  m_GameObject: {fileID: 616693617}
--- !u!1 &882807483
GameObject:
  m_ObjectHideFlags: 0
  m_PrefabParentObject: {fileID: 104066, guid: f03c960f44680df4c9e2e3db87887819, type: 2}
  m_PrefabInternal: {fileID: 982429121}
  serializedVersion: 4
  m_Component:
  - 224: {fileID: 882807484}
  - 222: {fileID: 882807486}
  - 114: {fileID: 882807485}
  m_Layer: 5
  m_Name: Image
  m_TagString: Untagged
  m_Icon: {fileID: 0}
  m_NavMeshLayer: 0
  m_StaticEditorFlags: 0
  m_IsActive: 1
--- !u!224 &882807484
RectTransform:
  m_ObjectHideFlags: 0
  m_PrefabParentObject: {fileID: 22404066, guid: f03c960f44680df4c9e2e3db87887819,
    type: 2}
  m_PrefabInternal: {fileID: 982429121}
  m_GameObject: {fileID: 882807483}
  m_LocalRotation: {x: 0, y: 0, z: 0, w: 1}
  m_LocalPosition: {x: 0, y: 0, z: 0}
  m_LocalScale: {x: 1, y: 1, z: 1}
  m_LocalEulerAnglesHint: {x: 0, y: 0, z: 0}
  m_Children:
  - {fileID: 2022417148}
  m_Father: {fileID: 446385467}
  m_RootOrder: 2
  m_AnchorMin: {x: 0.5, y: 0.5}
  m_AnchorMax: {x: 0.5, y: 0.5}
  m_AnchoredPosition: {x: 3.5996, y: 171}
  m_SizeDelta: {x: 63, y: 63}
  m_Pivot: {x: 0.5, y: 0.5}
--- !u!114 &882807485
MonoBehaviour:
  m_ObjectHideFlags: 0
  m_PrefabParentObject: {fileID: 11404070, guid: f03c960f44680df4c9e2e3db87887819,
    type: 2}
  m_PrefabInternal: {fileID: 982429121}
  m_GameObject: {fileID: 882807483}
  m_Enabled: 1
  m_EditorHideFlags: 0
  m_Script: {fileID: -765806418, guid: f5f67c52d1564df4a8936ccd202a3bd8, type: 3}
  m_Name: 
  m_EditorClassIdentifier: 
  m_Material: {fileID: 0}
  m_Color: {r: 0.36078432, g: 0.36078432, b: 0.36078432, a: 1}
  m_RaycastTarget: 1
  m_OnCullStateChanged:
    m_PersistentCalls:
      m_Calls: []
    m_TypeName: UnityEngine.UI.MaskableGraphic+CullStateChangedEvent, UnityEngine.UI,
      Version=1.0.0.0, Culture=neutral, PublicKeyToken=null
  m_Sprite: {fileID: 21300000, guid: 5edfdb1318310614985b8de7ab9b784c, type: 3}
  m_Type: 0
  m_PreserveAspect: 0
  m_FillCenter: 1
  m_FillMethod: 4
  m_FillAmount: 1
  m_FillClockwise: 1
  m_FillOrigin: 0
--- !u!222 &882807486
CanvasRenderer:
  m_ObjectHideFlags: 0
  m_PrefabParentObject: {fileID: 22204064, guid: f03c960f44680df4c9e2e3db87887819,
    type: 2}
  m_PrefabInternal: {fileID: 982429121}
  m_GameObject: {fileID: 882807483}
--- !u!1001 &982429121
Prefab:
  m_ObjectHideFlags: 0
  serializedVersion: 2
  m_Modification:
    m_TransformParent: {fileID: 0}
    m_Modifications:
    - target: {fileID: 22404044, guid: f03c960f44680df4c9e2e3db87887819, type: 2}
      propertyPath: m_LocalPosition.x
      value: 0
      objectReference: {fileID: 0}
    - target: {fileID: 22404044, guid: f03c960f44680df4c9e2e3db87887819, type: 2}
      propertyPath: m_LocalPosition.y
      value: 0
      objectReference: {fileID: 0}
    - target: {fileID: 22404044, guid: f03c960f44680df4c9e2e3db87887819, type: 2}
      propertyPath: m_LocalPosition.z
      value: 0
      objectReference: {fileID: 0}
    - target: {fileID: 22404044, guid: f03c960f44680df4c9e2e3db87887819, type: 2}
      propertyPath: m_LocalRotation.x
      value: 0
      objectReference: {fileID: 0}
    - target: {fileID: 22404044, guid: f03c960f44680df4c9e2e3db87887819, type: 2}
      propertyPath: m_LocalRotation.y
      value: 0
      objectReference: {fileID: 0}
    - target: {fileID: 22404044, guid: f03c960f44680df4c9e2e3db87887819, type: 2}
      propertyPath: m_LocalRotation.z
      value: 0
      objectReference: {fileID: 0}
    - target: {fileID: 22404044, guid: f03c960f44680df4c9e2e3db87887819, type: 2}
      propertyPath: m_LocalRotation.w
      value: 1
      objectReference: {fileID: 0}
    - target: {fileID: 22404044, guid: f03c960f44680df4c9e2e3db87887819, type: 2}
      propertyPath: m_RootOrder
      value: 0
      objectReference: {fileID: 0}
    - target: {fileID: 22404044, guid: f03c960f44680df4c9e2e3db87887819, type: 2}
      propertyPath: m_AnchoredPosition.x
      value: 0
      objectReference: {fileID: 0}
    - target: {fileID: 22404044, guid: f03c960f44680df4c9e2e3db87887819, type: 2}
      propertyPath: m_AnchoredPosition.y
      value: 0
      objectReference: {fileID: 0}
    - target: {fileID: 22404044, guid: f03c960f44680df4c9e2e3db87887819, type: 2}
      propertyPath: m_SizeDelta.x
      value: 0
      objectReference: {fileID: 0}
    - target: {fileID: 22404044, guid: f03c960f44680df4c9e2e3db87887819, type: 2}
      propertyPath: m_SizeDelta.y
      value: 0
      objectReference: {fileID: 0}
    - target: {fileID: 22404044, guid: f03c960f44680df4c9e2e3db87887819, type: 2}
      propertyPath: m_AnchorMin.x
      value: 0
      objectReference: {fileID: 0}
    - target: {fileID: 22404044, guid: f03c960f44680df4c9e2e3db87887819, type: 2}
      propertyPath: m_AnchorMin.y
      value: 0
      objectReference: {fileID: 0}
    - target: {fileID: 22404044, guid: f03c960f44680df4c9e2e3db87887819, type: 2}
      propertyPath: m_AnchorMax.x
      value: 0
      objectReference: {fileID: 0}
    - target: {fileID: 22404044, guid: f03c960f44680df4c9e2e3db87887819, type: 2}
      propertyPath: m_AnchorMax.y
      value: 0
      objectReference: {fileID: 0}
    - target: {fileID: 22404044, guid: f03c960f44680df4c9e2e3db87887819, type: 2}
      propertyPath: m_Pivot.x
      value: 0
      objectReference: {fileID: 0}
    - target: {fileID: 22404044, guid: f03c960f44680df4c9e2e3db87887819, type: 2}
      propertyPath: m_Pivot.y
      value: 0
      objectReference: {fileID: 0}
    m_RemovedComponents: []
  m_ParentPrefab: {fileID: 100100000, guid: f03c960f44680df4c9e2e3db87887819, type: 2}
  m_RootGameObject: {fileID: 1843868555}
  m_IsPrefabParent: 0
--- !u!1 &1033062636
GameObject:
  m_ObjectHideFlags: 0
  m_PrefabParentObject: {fileID: 0}
  m_PrefabInternal: {fileID: 0}
  serializedVersion: 4
  m_Component:
  - 4: {fileID: 1033062637}
  m_Layer: 0
  m_Name: __REAL_PIXELS_1536x2048
  m_TagString: Untagged
  m_Icon: {fileID: 0}
  m_NavMeshLayer: 0
  m_StaticEditorFlags: 0
  m_IsActive: 1
--- !u!4 &1033062637
Transform:
  m_ObjectHideFlags: 0
  m_PrefabParentObject: {fileID: 0}
  m_PrefabInternal: {fileID: 0}
  m_GameObject: {fileID: 1033062636}
  m_LocalRotation: {x: 0, y: 0, z: 0, w: 1}
  m_LocalPosition: {x: 494.995, y: 627.74, z: 0}
  m_LocalScale: {x: 1, y: 1, z: 1}
  m_LocalEulerAnglesHint: {x: 0, y: 0, z: 0}
  m_Children: []
  m_Father: {fileID: 0}
  m_RootOrder: 3
--- !u!1 &1067625551
GameObject:
  m_ObjectHideFlags: 0
  m_PrefabParentObject: {fileID: 104052, guid: f03c960f44680df4c9e2e3db87887819, type: 2}
  m_PrefabInternal: {fileID: 982429121}
  serializedVersion: 4
  m_Component:
  - 224: {fileID: 1067625552}
  - 222: {fileID: 1067625554}
  - 114: {fileID: 1067625553}
  m_Layer: 5
  m_Name: Text
  m_TagString: Untagged
  m_Icon: {fileID: 0}
  m_NavMeshLayer: 0
  m_StaticEditorFlags: 0
  m_IsActive: 1
--- !u!224 &1067625552
RectTransform:
  m_ObjectHideFlags: 0
  m_PrefabParentObject: {fileID: 22404052, guid: f03c960f44680df4c9e2e3db87887819,
    type: 2}
  m_PrefabInternal: {fileID: 982429121}
  m_GameObject: {fileID: 1067625551}
  m_LocalRotation: {x: 0, y: 0, z: 0, w: 1}
  m_LocalPosition: {x: 0, y: 0, z: 0}
  m_LocalScale: {x: 1, y: 1, z: 1}
  m_LocalEulerAnglesHint: {x: 0, y: 0, z: 0}
  m_Children: []
  m_Father: {fileID: 446385467}
  m_RootOrder: 0
  m_AnchorMin: {x: 0.5, y: 0.5}
  m_AnchorMax: {x: 0.5, y: 0.5}
  m_AnchoredPosition: {x: 0, y: -20.8}
  m_SizeDelta: {x: 162, y: 73}
  m_Pivot: {x: 0.5, y: 0.5}
--- !u!114 &1067625553
MonoBehaviour:
  m_ObjectHideFlags: 0
  m_PrefabParentObject: {fileID: 11404054, guid: f03c960f44680df4c9e2e3db87887819,
    type: 2}
  m_PrefabInternal: {fileID: 982429121}
  m_GameObject: {fileID: 1067625551}
  m_Enabled: 1
  m_EditorHideFlags: 0
  m_Script: {fileID: 708705254, guid: f5f67c52d1564df4a8936ccd202a3bd8, type: 3}
  m_Name: 
  m_EditorClassIdentifier: 
  m_Material: {fileID: 0}
  m_Color: {r: 0.94509804, g: 0.9254902, b: 0.8745098, a: 1}
  m_RaycastTarget: 1
  m_OnCullStateChanged:
    m_PersistentCalls:
      m_Calls: []
    m_TypeName: UnityEngine.UI.MaskableGraphic+CullStateChangedEvent, UnityEngine.UI,
      Version=1.0.0.0, Culture=neutral, PublicKeyToken=null
  m_FontData:
    m_Font: {fileID: 12800000, guid: 5c425d43bb0df45ca8eb162d5154251e, type: 3}
    m_FontSize: 50
    m_FontStyle: 0
    m_BestFit: 0
    m_MinSize: 10
    m_MaxSize: 50
    m_Alignment: 4
    m_AlignByGeometry: 0
    m_RichText: 1
    m_HorizontalOverflow: 0
    m_VerticalOverflow: 0
    m_LineSpacing: 1
  m_Text: 07:23 AM
--- !u!222 &1067625554
CanvasRenderer:
  m_ObjectHideFlags: 0
  m_PrefabParentObject: {fileID: 22204050, guid: f03c960f44680df4c9e2e3db87887819,
    type: 2}
  m_PrefabInternal: {fileID: 982429121}
  m_GameObject: {fileID: 1067625551}
--- !u!1 &1097844609
GameObject:
  m_ObjectHideFlags: 0
  m_PrefabParentObject: {fileID: 104062, guid: f03c960f44680df4c9e2e3db87887819, type: 2}
  m_PrefabInternal: {fileID: 982429121}
  serializedVersion: 4
  m_Component:
  - 224: {fileID: 1097844610}
  - 222: {fileID: 1097844612}
  - 114: {fileID: 1097844611}
  m_Layer: 5
  m_Name: AppTitle
  m_TagString: Untagged
  m_Icon: {fileID: 0}
  m_NavMeshLayer: 0
  m_StaticEditorFlags: 0
  m_IsActive: 1
--- !u!224 &1097844610
RectTransform:
  m_ObjectHideFlags: 0
  m_PrefabParentObject: {fileID: 22404062, guid: f03c960f44680df4c9e2e3db87887819,
    type: 2}
  m_PrefabInternal: {fileID: 982429121}
  m_GameObject: {fileID: 1097844609}
  m_LocalRotation: {x: 0, y: 0, z: 0, w: 1}
  m_LocalPosition: {x: 0, y: 0, z: 0}
  m_LocalScale: {x: 1, y: 1, z: 1}
  m_LocalEulerAnglesHint: {x: 0, y: 0, z: 0}
  m_Children:
  - {fileID: 454637478}
  m_Father: {fileID: 1843868559}
  m_RootOrder: 0
  m_AnchorMin: {x: 0.5, y: 0.5}
  m_AnchorMax: {x: 0.5, y: 0.5}
  m_AnchoredPosition: {x: -384, y: 1147}
  m_SizeDelta: {x: 768, y: 109}
  m_Pivot: {x: 0.5, y: 0.5}
--- !u!114 &1097844611
MonoBehaviour:
  m_ObjectHideFlags: 0
  m_PrefabParentObject: {fileID: 11404066, guid: f03c960f44680df4c9e2e3db87887819,
    type: 2}
  m_PrefabInternal: {fileID: 982429121}
  m_GameObject: {fileID: 1097844609}
  m_Enabled: 1
  m_EditorHideFlags: 0
  m_Script: {fileID: 708705254, guid: f5f67c52d1564df4a8936ccd202a3bd8, type: 3}
  m_Name: 
  m_EditorClassIdentifier: 
  m_Material: {fileID: 0}
  m_Color: {r: 0.85490197, g: 0.85490197, b: 0.85490197, a: 1}
  m_RaycastTarget: 1
  m_OnCullStateChanged:
    m_PersistentCalls:
      m_Calls: []
    m_TypeName: UnityEngine.UI.MaskableGraphic+CullStateChangedEvent, UnityEngine.UI,
      Version=1.0.0.0, Culture=neutral, PublicKeyToken=null
  m_FontData:
    m_Font: {fileID: 12800000, guid: 218956a5c2a6e42d6a60afccf80b002b, type: 3}
    m_FontSize: 102
    m_FontStyle: 0
    m_BestFit: 0
    m_MinSize: 10
    m_MaxSize: 102
    m_Alignment: 0
    m_AlignByGeometry: 0
    m_RichText: 1
    m_HorizontalOverflow: 0
    m_VerticalOverflow: 1
    m_LineSpacing: 1
  m_Text: DAY CLOCK
--- !u!222 &1097844612
CanvasRenderer:
  m_ObjectHideFlags: 0
  m_PrefabParentObject: {fileID: 22204060, guid: f03c960f44680df4c9e2e3db87887819,
    type: 2}
  m_PrefabInternal: {fileID: 982429121}
  m_GameObject: {fileID: 1097844609}
--- !u!1 &1500371475
GameObject:
  m_ObjectHideFlags: 0
  m_PrefabParentObject: {fileID: 0}
  m_PrefabInternal: {fileID: 0}
  serializedVersion: 4
  m_Component:
  - 4: {fileID: 1500371479}
  - 114: {fileID: 1500371478}
  - 114: {fileID: 1500371477}
  - 114: {fileID: 1500371476}
  m_Layer: 0
  m_Name: EventSystem
  m_TagString: Untagged
  m_Icon: {fileID: 0}
  m_NavMeshLayer: 0
  m_StaticEditorFlags: 0
  m_IsActive: 1
--- !u!114 &1500371476
MonoBehaviour:
  m_ObjectHideFlags: 0
  m_PrefabParentObject: {fileID: 0}
  m_PrefabInternal: {fileID: 0}
  m_GameObject: {fileID: 1500371475}
  m_Enabled: 1
  m_EditorHideFlags: 0
  m_Script: {fileID: 1997211142, guid: f5f67c52d1564df4a8936ccd202a3bd8, type: 3}
  m_Name: 
  m_EditorClassIdentifier: 
  m_ForceModuleActive: 0
--- !u!114 &1500371477
MonoBehaviour:
  m_ObjectHideFlags: 0
  m_PrefabParentObject: {fileID: 0}
  m_PrefabInternal: {fileID: 0}
  m_GameObject: {fileID: 1500371475}
  m_Enabled: 1
  m_EditorHideFlags: 0
  m_Script: {fileID: 1077351063, guid: f5f67c52d1564df4a8936ccd202a3bd8, type: 3}
  m_Name: 
  m_EditorClassIdentifier: 
  m_HorizontalAxis: Horizontal
  m_VerticalAxis: Vertical
  m_SubmitButton: Submit
  m_CancelButton: Cancel
  m_InputActionsPerSecond: 10
  m_RepeatDelay: 0.5
  m_ForceModuleActive: 0
--- !u!114 &1500371478
MonoBehaviour:
  m_ObjectHideFlags: 0
  m_PrefabParentObject: {fileID: 0}
  m_PrefabInternal: {fileID: 0}
  m_GameObject: {fileID: 1500371475}
  m_Enabled: 1
  m_EditorHideFlags: 0
  m_Script: {fileID: -619905303, guid: f5f67c52d1564df4a8936ccd202a3bd8, type: 3}
  m_Name: 
  m_EditorClassIdentifier: 
  m_FirstSelected: {fileID: 0}
  m_sendNavigationEvents: 1
  m_DragThreshold: 5
--- !u!4 &1500371479
Transform:
  m_ObjectHideFlags: 0
  m_PrefabParentObject: {fileID: 0}
  m_PrefabInternal: {fileID: 0}
  m_GameObject: {fileID: 1500371475}
  m_LocalRotation: {x: 0, y: 0, z: 0, w: 1}
  m_LocalPosition: {x: 0, y: 0, z: 0}
  m_LocalScale: {x: 1, y: 1, z: 1}
  m_LocalEulerAnglesHint: {x: 0, y: 0, z: 0}
  m_Children: []
  m_Father: {fileID: 0}
  m_RootOrder: 1
--- !u!1 &1510430087
GameObject:
  m_ObjectHideFlags: 0
  m_PrefabParentObject: {fileID: 104056, guid: f03c960f44680df4c9e2e3db87887819, type: 2}
  m_PrefabInternal: {fileID: 982429121}
  serializedVersion: 4
  m_Component:
  - 224: {fileID: 1510430088}
  - 222: {fileID: 1510430090}
  - 114: {fileID: 1510430089}
  m_Layer: 5
  m_Name: Text
  m_TagString: Untagged
  m_Icon: {fileID: 0}
  m_NavMeshLayer: 0
  m_StaticEditorFlags: 0
  m_IsActive: 1
--- !u!224 &1510430088
RectTransform:
  m_ObjectHideFlags: 0
  m_PrefabParentObject: {fileID: 22404056, guid: f03c960f44680df4c9e2e3db87887819,
    type: 2}
  m_PrefabInternal: {fileID: 982429121}
  m_GameObject: {fileID: 1510430087}
  m_LocalRotation: {x: 0, y: 0, z: 0, w: 1}
  m_LocalPosition: {x: 0, y: 0, z: 0}
  m_LocalScale: {x: 1, y: 1, z: 1}
  m_LocalEulerAnglesHint: {x: 0, y: 0, z: 0}
  m_Children: []
  m_Father: {fileID: 237522472}
  m_RootOrder: 0
  m_AnchorMin: {x: 0.5, y: 0.5}
  m_AnchorMax: {x: 0.5, y: 0.5}
  m_AnchoredPosition: {x: 0, y: 0}
  m_SizeDelta: {x: 277, y: 73}
  m_Pivot: {x: 0.5, y: 0.5}
--- !u!114 &1510430089
MonoBehaviour:
  m_ObjectHideFlags: 0
  m_PrefabParentObject: {fileID: 11404058, guid: f03c960f44680df4c9e2e3db87887819,
    type: 2}
  m_PrefabInternal: {fileID: 982429121}
  m_GameObject: {fileID: 1510430087}
  m_Enabled: 1
  m_EditorHideFlags: 0
  m_Script: {fileID: 708705254, guid: f5f67c52d1564df4a8936ccd202a3bd8, type: 3}
  m_Name: 
  m_EditorClassIdentifier: 
  m_Material: {fileID: 0}
  m_Color: {r: 0.36078432, g: 0.36078432, b: 0.36078432, a: 1}
  m_RaycastTarget: 1
  m_OnCullStateChanged:
    m_PersistentCalls:
      m_Calls: []
    m_TypeName: UnityEngine.UI.MaskableGraphic+CullStateChangedEvent, UnityEngine.UI,
      Version=1.0.0.0, Culture=neutral, PublicKeyToken=null
  m_FontData:
    m_Font: {fileID: 12800000, guid: 7dfc2e1472ac84e1bb749a8a9f934483, type: 3}
    m_FontSize: 35
    m_FontStyle: 0
    m_BestFit: 0
    m_MinSize: 10
    m_MaxSize: 40
    m_Alignment: 4
    m_AlignByGeometry: 0
    m_RichText: 1
    m_HorizontalOverflow: 0
    m_VerticalOverflow: 0
    m_LineSpacing: 1
  m_Text: MINUTES
--- !u!222 &1510430090
CanvasRenderer:
  m_ObjectHideFlags: 0
  m_PrefabParentObject: {fileID: 22204054, guid: f03c960f44680df4c9e2e3db87887819,
    type: 2}
  m_PrefabInternal: {fileID: 982429121}
  m_GameObject: {fileID: 1510430087}
--- !u!1 &1511305452
GameObject:
  m_ObjectHideFlags: 0
  m_PrefabParentObject: {fileID: 0}
  m_PrefabInternal: {fileID: 0}
  serializedVersion: 4
  m_Component:
  - 4: {fileID: 1511305453}
  m_Layer: 0
  m_Name: __SET_YOUR_GAMESCREEN_TO_768x1024
  m_TagString: Untagged
  m_Icon: {fileID: 0}
  m_NavMeshLayer: 0
  m_StaticEditorFlags: 0
  m_IsActive: 1
--- !u!4 &1511305453
Transform:
  m_ObjectHideFlags: 0
  m_PrefabParentObject: {fileID: 0}
  m_PrefabInternal: {fileID: 0}
  m_GameObject: {fileID: 1511305452}
  m_LocalRotation: {x: 0, y: 0, z: 0, w: 1}
  m_LocalPosition: {x: 494.995, y: 627.74, z: 0}
  m_LocalScale: {x: 1, y: 1, z: 1}
  m_LocalEulerAnglesHint: {x: 0, y: 0, z: 0}
  m_Children: []
  m_Father: {fileID: 0}
  m_RootOrder: 2
--- !u!1 &1523589016
GameObject:
  m_ObjectHideFlags: 0
  m_PrefabParentObject: {fileID: 104054, guid: f03c960f44680df4c9e2e3db87887819, type: 2}
  m_PrefabInternal: {fileID: 982429121}
  serializedVersion: 4
  m_Component:
  - 224: {fileID: 1523589017}
  - 222: {fileID: 1523589019}
  - 114: {fileID: 1523589018}
  m_Layer: 5
  m_Name: Text
  m_TagString: Untagged
  m_Icon: {fileID: 0}
  m_NavMeshLayer: 0
  m_StaticEditorFlags: 0
  m_IsActive: 1
--- !u!224 &1523589017
RectTransform:
  m_ObjectHideFlags: 0
  m_PrefabParentObject: {fileID: 22404054, guid: f03c960f44680df4c9e2e3db87887819,
    type: 2}
  m_PrefabInternal: {fileID: 982429121}
  m_GameObject: {fileID: 1523589016}
  m_LocalRotation: {x: 0, y: 0, z: 0, w: 1}
  m_LocalPosition: {x: 0, y: 0, z: 0}
  m_LocalScale: {x: 1, y: 1, z: 1}
  m_LocalEulerAnglesHint: {x: 0, y: 0, z: 0}
  m_Children: []
  m_Father: {fileID: 1537954680}
  m_RootOrder: 1
  m_AnchorMin: {x: 0.5, y: 0.5}
  m_AnchorMax: {x: 0.5, y: 0.5}
  m_AnchoredPosition: {x: 0, y: 260}
  m_SizeDelta: {x: 1203, y: 520}
  m_Pivot: {x: 0.5, y: 0.5}
--- !u!114 &1523589018
MonoBehaviour:
  m_ObjectHideFlags: 0
  m_PrefabParentObject: {fileID: 11404056, guid: f03c960f44680df4c9e2e3db87887819,
    type: 2}
  m_PrefabInternal: {fileID: 982429121}
  m_GameObject: {fileID: 1523589016}
  m_Enabled: 1
  m_EditorHideFlags: 0
  m_Script: {fileID: 708705254, guid: f5f67c52d1564df4a8936ccd202a3bd8, type: 3}
  m_Name: 
  m_EditorClassIdentifier: 
  m_Material: {fileID: 0}
  m_Color: {r: 0.36078432, g: 0.36078432, b: 0.36078432, a: 1}
  m_RaycastTarget: 1
  m_OnCullStateChanged:
    m_PersistentCalls:
      m_Calls: []
    m_TypeName: UnityEngine.UI.MaskableGraphic+CullStateChangedEvent, UnityEngine.UI,
      Version=1.0.0.0, Culture=neutral, PublicKeyToken=null
  m_FontData:
    m_Font: {fileID: 12800000, guid: 5c425d43bb0df45ca8eb162d5154251e, type: 3}
    m_FontSize: 259
    m_FontStyle: 0
    m_BestFit: 0
    m_MinSize: 10
    m_MaxSize: 259
    m_Alignment: 4
    m_AlignByGeometry: 0
    m_RichText: 1
    m_HorizontalOverflow: 0
    m_VerticalOverflow: 0
    m_LineSpacing: 1
  m_Text: 05:43 AM
--- !u!222 &1523589019
CanvasRenderer:
  m_ObjectHideFlags: 0
  m_PrefabParentObject: {fileID: 22204052, guid: f03c960f44680df4c9e2e3db87887819,
    type: 2}
  m_PrefabInternal: {fileID: 982429121}
  m_GameObject: {fileID: 1523589016}
--- !u!1 &1537954679
GameObject:
  m_ObjectHideFlags: 0
  m_PrefabParentObject: {fileID: 104060, guid: f03c960f44680df4c9e2e3db87887819, type: 2}
  m_PrefabInternal: {fileID: 982429121}
  serializedVersion: 4
  m_Component:
  - 224: {fileID: 1537954680}
  - 222: {fileID: 1537954683}
  - 114: {fileID: 1537954682}
  - 114: {fileID: 1537954681}
  m_Layer: 5
  m_Name: Panel
  m_TagString: Untagged
  m_Icon: {fileID: 0}
  m_NavMeshLayer: 0
  m_StaticEditorFlags: 0
  m_IsActive: 1
--- !u!224 &1537954680
RectTransform:
  m_ObjectHideFlags: 0
  m_PrefabParentObject: {fileID: 22404060, guid: f03c960f44680df4c9e2e3db87887819,
    type: 2}
  m_PrefabInternal: {fileID: 982429121}
  m_GameObject: {fileID: 1537954679}
  m_LocalRotation: {x: 0, y: 0, z: 0, w: 1}
  m_LocalPosition: {x: 0, y: 0, z: 0}
  m_LocalScale: {x: 1, y: 1, z: 1}
  m_LocalEulerAnglesHint: {x: 0, y: 0, z: 0}
  m_Children:
  - {fileID: 1900104133}
  - {fileID: 1523589017}
  - {fileID: 446385467}
  - {fileID: 406877978}
  - {fileID: 237522472}
  - {fileID: 463352579}
  m_Father: {fileID: 1843868559}
  m_RootOrder: 1
  m_AnchorMin: {x: 0.5, y: 0.5}
  m_AnchorMax: {x: 0.5, y: 0.5}
  m_AnchoredPosition: {x: 0, y: 0}
  m_SizeDelta: {x: 1536, y: 2048}
  m_Pivot: {x: 0.5, y: 0.5}
--- !u!114 &1537954681
MonoBehaviour:
  m_ObjectHideFlags: 0
  m_PrefabParentObject: {fileID: 11404062, guid: f03c960f44680df4c9e2e3db87887819,
    type: 2}
  m_PrefabInternal: {fileID: 982429121}
  m_GameObject: {fileID: 1537954679}
  m_Enabled: 1
  m_EditorHideFlags: 0
  m_Script: {fileID: -1200242548, guid: f5f67c52d1564df4a8936ccd202a3bd8, type: 3}
  m_Name: 
  m_EditorClassIdentifier: 
  m_ShowMaskGraphic: 1
--- !u!114 &1537954682
MonoBehaviour:
  m_ObjectHideFlags: 0
  m_PrefabParentObject: {fileID: 11404064, guid: f03c960f44680df4c9e2e3db87887819,
    type: 2}
  m_PrefabInternal: {fileID: 982429121}
  m_GameObject: {fileID: 1537954679}
  m_Enabled: 1
  m_EditorHideFlags: 0
  m_Script: {fileID: -765806418, guid: f5f67c52d1564df4a8936ccd202a3bd8, type: 3}
  m_Name: 
  m_EditorClassIdentifier: 
  m_Material: {fileID: 0}
  m_Color: {r: 0.9490196, g: 0.92941177, b: 0.8784314, a: 1}
  m_RaycastTarget: 1
  m_OnCullStateChanged:
    m_PersistentCalls:
      m_Calls: []
    m_TypeName: UnityEngine.UI.MaskableGraphic+CullStateChangedEvent, UnityEngine.UI,
      Version=1.0.0.0, Culture=neutral, PublicKeyToken=null
  m_Sprite: {fileID: 21300000, guid: 7ed1238760b863f4aafde32ab3a6f28c, type: 3}
  m_Type: 1
  m_PreserveAspect: 0
  m_FillCenter: 1
  m_FillMethod: 4
  m_FillAmount: 1
  m_FillClockwise: 1
  m_FillOrigin: 0
--- !u!222 &1537954683
CanvasRenderer:
  m_ObjectHideFlags: 0
  m_PrefabParentObject: {fileID: 22204058, guid: f03c960f44680df4c9e2e3db87887819,
    type: 2}
  m_PrefabInternal: {fileID: 982429121}
  m_GameObject: {fileID: 1537954679}
--- !u!1 &1654901604
GameObject:
  m_ObjectHideFlags: 0
  m_PrefabParentObject: {fileID: 104040, guid: f03c960f44680df4c9e2e3db87887819, type: 2}
  m_PrefabInternal: {fileID: 982429121}
  serializedVersion: 4
  m_Component:
  - 224: {fileID: 1654901605}
  - 222: {fileID: 1654901607}
  - 114: {fileID: 1654901606}
  m_Layer: 5
  m_Name: Text
  m_TagString: Untagged
  m_Icon: {fileID: 0}
  m_NavMeshLayer: 0
  m_StaticEditorFlags: 0
  m_IsActive: 1
--- !u!224 &1654901605
RectTransform:
  m_ObjectHideFlags: 0
  m_PrefabParentObject: {fileID: 22404040, guid: f03c960f44680df4c9e2e3db87887819,
    type: 2}
  m_PrefabInternal: {fileID: 982429121}
  m_GameObject: {fileID: 1654901604}
  m_LocalRotation: {x: 0, y: 0, z: 0, w: 1}
  m_LocalPosition: {x: 0, y: 0, z: 0}
  m_LocalScale: {x: 1, y: 1, z: 1}
  m_LocalEulerAnglesHint: {x: 0, y: 0, z: 0}
  m_Children: []
  m_Father: {fileID: 463352579}
  m_RootOrder: 0
  m_AnchorMin: {x: 0.5, y: 0.5}
  m_AnchorMax: {x: 0.5, y: 0.5}
  m_AnchoredPosition: {x: 0, y: 0}
  m_SizeDelta: {x: 277, y: 73}
  m_Pivot: {x: 0.5, y: 0.5}
--- !u!114 &1654901606
MonoBehaviour:
  m_ObjectHideFlags: 0
  m_PrefabParentObject: {fileID: 11404040, guid: f03c960f44680df4c9e2e3db87887819,
    type: 2}
  m_PrefabInternal: {fileID: 982429121}
  m_GameObject: {fileID: 1654901604}
  m_Enabled: 1
  m_EditorHideFlags: 0
  m_Script: {fileID: 708705254, guid: f5f67c52d1564df4a8936ccd202a3bd8, type: 3}
  m_Name: 
  m_EditorClassIdentifier: 
  m_Material: {fileID: 0}
  m_Color: {r: 0.36078432, g: 0.36078432, b: 0.36078432, a: 1}
  m_RaycastTarget: 1
  m_OnCullStateChanged:
    m_PersistentCalls:
      m_Calls: []
    m_TypeName: UnityEngine.UI.MaskableGraphic+CullStateChangedEvent, UnityEngine.UI,
      Version=1.0.0.0, Culture=neutral, PublicKeyToken=null
  m_FontData:
    m_Font: {fileID: 12800000, guid: 7dfc2e1472ac84e1bb749a8a9f934483, type: 3}
    m_FontSize: 35
    m_FontStyle: 0
    m_BestFit: 0
    m_MinSize: 10
    m_MaxSize: 40
    m_Alignment: 4
    m_AlignByGeometry: 0
    m_RichText: 1
    m_HorizontalOverflow: 0
    m_VerticalOverflow: 0
    m_LineSpacing: 1
  m_Text: SECONDS
--- !u!222 &1654901607
CanvasRenderer:
  m_ObjectHideFlags: 0
  m_PrefabParentObject: {fileID: 22204040, guid: f03c960f44680df4c9e2e3db87887819,
    type: 2}
  m_PrefabInternal: {fileID: 982429121}
  m_GameObject: {fileID: 1654901604}
--- !u!1 &1843868555
GameObject:
  m_ObjectHideFlags: 0
  m_PrefabParentObject: {fileID: 104044, guid: f03c960f44680df4c9e2e3db87887819, type: 2}
  m_PrefabInternal: {fileID: 982429121}
  serializedVersion: 4
  m_Component:
  - 224: {fileID: 1843868559}
  - 223: {fileID: 1843868558}
  - 114: {fileID: 1843868557}
  - 114: {fileID: 1843868556}
  m_Layer: 5
  m_Name: DayClock
  m_TagString: Untagged
  m_Icon: {fileID: 0}
  m_NavMeshLayer: 0
  m_StaticEditorFlags: 0
  m_IsActive: 1
--- !u!114 &1843868556
MonoBehaviour:
  m_ObjectHideFlags: 0
  m_PrefabParentObject: {fileID: 11404044, guid: f03c960f44680df4c9e2e3db87887819,
    type: 2}
  m_PrefabInternal: {fileID: 982429121}
  m_GameObject: {fileID: 1843868555}
  m_Enabled: 1
  m_EditorHideFlags: 0
  m_Script: {fileID: 1301386320, guid: f5f67c52d1564df4a8936ccd202a3bd8, type: 3}
  m_Name: 
  m_EditorClassIdentifier: 
  m_IgnoreReversedGraphics: 1
  m_BlockingObjects: 0
  m_BlockingMask:
    serializedVersion: 2
    m_Bits: 4294967295
--- !u!114 &1843868557
MonoBehaviour:
  m_ObjectHideFlags: 0
  m_PrefabParentObject: {fileID: 11404046, guid: f03c960f44680df4c9e2e3db87887819,
    type: 2}
  m_PrefabInternal: {fileID: 982429121}
  m_GameObject: {fileID: 1843868555}
  m_Enabled: 1
  m_EditorHideFlags: 0
  m_Script: {fileID: 1980459831, guid: f5f67c52d1564df4a8936ccd202a3bd8, type: 3}
  m_Name: 
  m_EditorClassIdentifier: 
  m_UiScaleMode: 1
  m_ReferencePixelsPerUnit: 100
  m_ScaleFactor: 1
  m_ReferenceResolution: {x: 1536, y: 2048}
  m_ScreenMatchMode: 0
  m_MatchWidthOrHeight: 1
  m_PhysicalUnit: 3
  m_FallbackScreenDPI: 96
  m_DefaultSpriteDPI: 96
  m_DynamicPixelsPerUnit: 1
--- !u!223 &1843868558
Canvas:
  m_ObjectHideFlags: 0
  m_PrefabParentObject: {fileID: 22304038, guid: f03c960f44680df4c9e2e3db87887819,
    type: 2}
  m_PrefabInternal: {fileID: 982429121}
  m_GameObject: {fileID: 1843868555}
  m_Enabled: 1
  serializedVersion: 2
  m_RenderMode: 0
  m_Camera: {fileID: 0}
  m_PlaneDistance: 100
  m_PixelPerfect: 1
  m_ReceivesEvents: 1
  m_OverrideSorting: 0
  m_OverridePixelPerfect: 0
  m_SortingBucketNormalizedSize: 0
  m_SortingLayerID: 0
  m_SortingOrder: 0
  m_TargetDisplay: 0
--- !u!224 &1843868559
RectTransform:
  m_ObjectHideFlags: 0
  m_PrefabParentObject: {fileID: 22404044, guid: f03c960f44680df4c9e2e3db87887819,
    type: 2}
  m_PrefabInternal: {fileID: 982429121}
  m_GameObject: {fileID: 1843868555}
  m_LocalRotation: {x: 0, y: 0, z: 0, w: 1}
  m_LocalPosition: {x: 0, y: 0, z: 0}
  m_LocalScale: {x: 0, y: 0, z: 0}
  m_LocalEulerAnglesHint: {x: 0, y: 0, z: 0}
  m_Children:
  - {fileID: 1097844610}
  - {fileID: 1537954680}
  m_Father: {fileID: 0}
  m_RootOrder: 0
  m_AnchorMin: {x: 0, y: 0}
  m_AnchorMax: {x: 0, y: 0}
  m_AnchoredPosition: {x: 0, y: 0}
  m_SizeDelta: {x: 0, y: 0}
  m_Pivot: {x: 0, y: 0}
--- !u!1 &1900104132
GameObject:
  m_ObjectHideFlags: 0
  m_PrefabParentObject: {fileID: 104070, guid: f03c960f44680df4c9e2e3db87887819, type: 2}
  m_PrefabInternal: {fileID: 982429121}
  serializedVersion: 4
  m_Component:
  - 224: {fileID: 1900104133}
  - 222: {fileID: 1900104136}
  - 114: {fileID: 1900104135}
  - 114: {fileID: 1900104134}
  m_Layer: 5
  m_Name: Button
  m_TagString: Untagged
  m_Icon: {fileID: 0}
  m_NavMeshLayer: 0
  m_StaticEditorFlags: 0
  m_IsActive: 1
--- !u!224 &1900104133
RectTransform:
  m_ObjectHideFlags: 0
  m_PrefabParentObject: {fileID: 22404070, guid: f03c960f44680df4c9e2e3db87887819,
    type: 2}
  m_PrefabInternal: {fileID: 982429121}
  m_GameObject: {fileID: 1900104132}
  m_LocalRotation: {x: 0, y: 0, z: 0, w: 1}
  m_LocalPosition: {x: 0, y: 0, z: 0}
  m_LocalScale: {x: 1, y: 1, z: 1}
  m_LocalEulerAnglesHint: {x: 0, y: 0, z: 0}
  m_Children: []
  m_Father: {fileID: 1537954680}
  m_RootOrder: 0
  m_AnchorMin: {x: 0.5, y: 0.5}
  m_AnchorMax: {x: 0.5, y: 0.5}
  m_AnchoredPosition: {x: -813, y: 787}
  m_SizeDelta: {x: 94, y: 24}
  m_Pivot: {x: 0.5, y: 0.5}
--- !u!114 &1900104134
MonoBehaviour:
  m_ObjectHideFlags: 0
  m_PrefabParentObject: {fileID: 11404074, guid: f03c960f44680df4c9e2e3db87887819,
    type: 2}
  m_PrefabInternal: {fileID: 982429121}
  m_GameObject: {fileID: 1900104132}
  m_Enabled: 1
  m_EditorHideFlags: 0
  m_Script: {fileID: 1392445389, guid: f5f67c52d1564df4a8936ccd202a3bd8, type: 3}
  m_Name: 
  m_EditorClassIdentifier: 
  m_Navigation:
    m_Mode: 3
    m_SelectOnUp: {fileID: 0}
    m_SelectOnDown: {fileID: 0}
    m_SelectOnLeft: {fileID: 0}
    m_SelectOnRight: {fileID: 0}
  m_Transition: 1
  m_Colors:
    m_NormalColor: {r: 1, g: 1, b: 1, a: 1}
    m_HighlightedColor: {r: 0.9607843, g: 0.9607843, b: 0.9607843, a: 1}
    m_PressedColor: {r: 0.78431374, g: 0.78431374, b: 0.78431374, a: 1}
    m_DisabledColor: {r: 0.78431374, g: 0.78431374, b: 0.78431374, a: 0.5019608}
    m_ColorMultiplier: 1
    m_FadeDuration: 0.1
  m_SpriteState:
    m_HighlightedSprite: {fileID: 0}
    m_PressedSprite: {fileID: 0}
    m_DisabledSprite: {fileID: 0}
  m_AnimationTriggers:
    m_NormalTrigger: Normal
    m_HighlightedTrigger: Highlighted
    m_PressedTrigger: Pressed
    m_DisabledTrigger: Disabled
  m_Interactable: 1
  m_TargetGraphic: {fileID: 1900104135}
  m_OnClick:
    m_PersistentCalls:
      m_Calls: []
    m_TypeName: UnityEngine.UI.Button+ButtonClickedEvent, UnityEngine.UI, Version=1.0.0.0,
      Culture=neutral, PublicKeyToken=null
--- !u!114 &1900104135
MonoBehaviour:
  m_ObjectHideFlags: 0
  m_PrefabParentObject: {fileID: 11404076, guid: f03c960f44680df4c9e2e3db87887819,
    type: 2}
  m_PrefabInternal: {fileID: 982429121}
  m_GameObject: {fileID: 1900104132}
  m_Enabled: 1
  m_EditorHideFlags: 0
  m_Script: {fileID: -765806418, guid: f5f67c52d1564df4a8936ccd202a3bd8, type: 3}
  m_Name: 
  m_EditorClassIdentifier: 
  m_Material: {fileID: 0}
  m_Color: {r: 0.94509804, g: 0.9254902, b: 0.8745098, a: 1}
  m_RaycastTarget: 1
  m_OnCullStateChanged:
    m_PersistentCalls:
      m_Calls: []
    m_TypeName: UnityEngine.UI.MaskableGraphic+CullStateChangedEvent, UnityEngine.UI,
      Version=1.0.0.0, Culture=neutral, PublicKeyToken=null
  m_Sprite: {fileID: 21300000, guid: c115c1e6147bc1442a3f57e1c0d1406e, type: 3}
  m_Type: 0
  m_PreserveAspect: 0
  m_FillCenter: 1
  m_FillMethod: 4
  m_FillAmount: 1
  m_FillClockwise: 1
  m_FillOrigin: 0
--- !u!222 &1900104136
CanvasRenderer:
  m_ObjectHideFlags: 0
  m_PrefabParentObject: {fileID: 22204068, guid: f03c960f44680df4c9e2e3db87887819,
    type: 2}
  m_PrefabInternal: {fileID: 982429121}
  m_GameObject: {fileID: 1900104132}
--- !u!1 &1923898477
GameObject:
  m_ObjectHideFlags: 0
  m_PrefabParentObject: {fileID: 104064, guid: f03c960f44680df4c9e2e3db87887819, type: 2}
  m_PrefabInternal: {fileID: 982429121}
  serializedVersion: 4
  m_Component:
  - 224: {fileID: 1923898478}
  - 222: {fileID: 1923898480}
  - 114: {fileID: 1923898479}
  m_Layer: 5
  m_Name: Text
  m_TagString: Untagged
  m_Icon: {fileID: 0}
  m_NavMeshLayer: 0
  m_StaticEditorFlags: 0
  m_IsActive: 1
--- !u!224 &1923898478
RectTransform:
  m_ObjectHideFlags: 0
  m_PrefabParentObject: {fileID: 22404064, guid: f03c960f44680df4c9e2e3db87887819,
    type: 2}
  m_PrefabInternal: {fileID: 982429121}
  m_GameObject: {fileID: 1923898477}
  m_LocalRotation: {x: 0, y: 0, z: 0, w: 1}
  m_LocalPosition: {x: 0, y: 0, z: 0}
  m_LocalScale: {x: 1, y: 1, z: 1}
  m_LocalEulerAnglesHint: {x: 0, y: 0, z: 0}
  m_Children: []
  m_Father: {fileID: 406877978}
  m_RootOrder: 0
  m_AnchorMin: {x: 0.5, y: 0.5}
  m_AnchorMax: {x: 0.5, y: 0.5}
  m_AnchoredPosition: {x: 0, y: 0}
  m_SizeDelta: {x: 277, y: 73}
  m_Pivot: {x: 0.5, y: 0.5}
--- !u!114 &1923898479
MonoBehaviour:
  m_ObjectHideFlags: 0
  m_PrefabParentObject: {fileID: 11404068, guid: f03c960f44680df4c9e2e3db87887819,
    type: 2}
  m_PrefabInternal: {fileID: 982429121}
  m_GameObject: {fileID: 1923898477}
  m_Enabled: 1
  m_EditorHideFlags: 0
  m_Script: {fileID: 708705254, guid: f5f67c52d1564df4a8936ccd202a3bd8, type: 3}
  m_Name: 
  m_EditorClassIdentifier: 
  m_Material: {fileID: 0}
  m_Color: {r: 0.36078432, g: 0.36078432, b: 0.36078432, a: 1}
  m_RaycastTarget: 1
  m_OnCullStateChanged:
    m_PersistentCalls:
      m_Calls: []
    m_TypeName: UnityEngine.UI.MaskableGraphic+CullStateChangedEvent, UnityEngine.UI,
      Version=1.0.0.0, Culture=neutral, PublicKeyToken=null
  m_FontData:
    m_Font: {fileID: 12800000, guid: 7dfc2e1472ac84e1bb749a8a9f934483, type: 3}
    m_FontSize: 35
    m_FontStyle: 0
    m_BestFit: 0
    m_MinSize: 10
    m_MaxSize: 40
    m_Alignment: 4
    m_AlignByGeometry: 0
    m_RichText: 1
    m_HorizontalOverflow: 0
    m_VerticalOverflow: 0
    m_LineSpacing: 1
  m_Text: HOURS
--- !u!222 &1923898480
CanvasRenderer:
  m_ObjectHideFlags: 0
  m_PrefabParentObject: {fileID: 22204062, guid: f03c960f44680df4c9e2e3db87887819,
    type: 2}
  m_PrefabInternal: {fileID: 982429121}
  m_GameObject: {fileID: 1923898477}
--- !u!1 &2022417147
GameObject:
  m_ObjectHideFlags: 0
  m_PrefabParentObject: {fileID: 104068, guid: f03c960f44680df4c9e2e3db87887819, type: 2}
  m_PrefabInternal: {fileID: 982429121}
  serializedVersion: 4
  m_Component:
  - 224: {fileID: 2022417148}
  - 222: {fileID: 2022417150}
  - 114: {fileID: 2022417149}
  m_Layer: 5
  m_Name: Image
  m_TagString: Untagged
  m_Icon: {fileID: 0}
  m_NavMeshLayer: 0
  m_StaticEditorFlags: 0
  m_IsActive: 1
--- !u!224 &2022417148
RectTransform:
  m_ObjectHideFlags: 0
  m_PrefabParentObject: {fileID: 22404068, guid: f03c960f44680df4c9e2e3db87887819,
    type: 2}
  m_PrefabInternal: {fileID: 982429121}
  m_GameObject: {fileID: 2022417147}
  m_LocalRotation: {x: 0, y: 0, z: 0, w: 1}
  m_LocalPosition: {x: 0, y: 0, z: 0}
  m_LocalScale: {x: 1, y: 1, z: 1}
  m_LocalEulerAnglesHint: {x: 0, y: 0, z: 0}
  m_Children: []
  m_Father: {fileID: 882807484}
  m_RootOrder: 0
  m_AnchorMin: {x: 0.5, y: 0.5}
  m_AnchorMax: {x: 0.5, y: 0.5}
  m_AnchoredPosition: {x: 0, y: 0}
  m_SizeDelta: {x: 40.2, y: 40.2}
  m_Pivot: {x: 0.5, y: 0.5}
--- !u!114 &2022417149
MonoBehaviour:
  m_ObjectHideFlags: 0
  m_PrefabParentObject: {fileID: 11404072, guid: f03c960f44680df4c9e2e3db87887819,
    type: 2}
  m_PrefabInternal: {fileID: 982429121}
  m_GameObject: {fileID: 2022417147}
  m_Enabled: 1
  m_EditorHideFlags: 0
  m_Script: {fileID: -765806418, guid: f5f67c52d1564df4a8936ccd202a3bd8, type: 3}
  m_Name: 
  m_EditorClassIdentifier: 
  m_Material: {fileID: 0}
  m_Color: {r: 0.36078432, g: 0.36078432, b: 0.36078432, a: 1}
  m_RaycastTarget: 1
  m_OnCullStateChanged:
    m_PersistentCalls:
      m_Calls: []
    m_TypeName: UnityEngine.UI.MaskableGraphic+CullStateChangedEvent, UnityEngine.UI,
      Version=1.0.0.0, Culture=neutral, PublicKeyToken=null
  m_Sprite: {fileID: 21300000, guid: 291502478103f274da140dc9d17c64dc, type: 3}
  m_Type: 0
  m_PreserveAspect: 0
  m_FillCenter: 1
  m_FillMethod: 4
  m_FillAmount: 1
  m_FillClockwise: 1
  m_FillOrigin: 0
--- !u!222 &2022417150
CanvasRenderer:
  m_ObjectHideFlags: 0
  m_PrefabParentObject: {fileID: 22204066, guid: f03c960f44680df4c9e2e3db87887819,
    type: 2}
  m_PrefabInternal: {fileID: 982429121}
  m_GameObject: {fileID: 2022417147}
